ISO-10303-21;
HEADER;
FILE_DESCRIPTION(('FreeCAD Model'),'2;1');
FILE_NAME('/home/fandres/Carro_MGN15C_kande.step','2020-02-10T14:31:26',
  ('Author'),(''),'Open CASCADE STEP processor 7.3','FreeCAD','Unknown'
  );
FILE_SCHEMA(('AUTOMOTIVE_DESIGN { 1 0 10303 214 1 1 1 1 }'));
ENDSEC;
DATA;
#1 = APPLICATION_PROTOCOL_DEFINITION('international standard',
  'automotive_design',2000,#2);
#2 = APPLICATION_CONTEXT(
  'core data for automotive mechanical design processes');
#3 = SHAPE_DEFINITION_REPRESENTATION(#4,#10);
#4 = PRODUCT_DEFINITION_SHAPE('','',#5);
#5 = PRODUCT_DEFINITION('design','',#6,#9);
#6 = PRODUCT_DEFINITION_FORMATION('','',#7);
#7 = PRODUCT('Carro_MGN15C_000','Carro_MGN15C_000','',(#8));
#8 = PRODUCT_CONTEXT('',#2,'mechanical');
#9 = PRODUCT_DEFINITION_CONTEXT('part definition',#2,'design');
#10 = ADVANCED_BREP_SHAPE_REPRESENTATION('',(#11,#15),#679);
#11 = AXIS2_PLACEMENT_3D('',#12,#13,#14);
#12 = CARTESIAN_POINT('',(0.,0.,0.));
#13 = DIRECTION('',(0.,0.,1.));
#14 = DIRECTION('',(1.,0.,-0.));
#15 = MANIFOLD_SOLID_BREP('',#16);
#16 = CLOSED_SHELL('',(#17,#101,#132,#238,#344,#361,#386,#411,#436,#461,
    #478,#495,#512,#529,#546,#563,#580,#597,#614,#631,#643,#652,#661,
    #670));
#17 = ADVANCED_FACE('',(#18,#52,#63,#74,#85),#96,.F.);
#18 = FACE_BOUND('',#19,.F.);
#19 = EDGE_LOOP('',(#20,#30,#38,#46));
#20 = ORIENTED_EDGE('',*,*,#21,.T.);
#21 = EDGE_CURVE('',#22,#24,#26,.T.);
#22 = VERTEX_POINT('',#23);
#23 = CARTESIAN_POINT('',(7.083643010855E-15,15.,11.));
#24 = VERTEX_POINT('',#25);
#25 = CARTESIAN_POINT('',(41.3,15.,11.));
#26 = LINE('',#27,#28);
#27 = CARTESIAN_POINT('',(7.083643010855E-15,15.,11.));
#28 = VECTOR('',#29,1.);
#29 = DIRECTION('',(1.,-7.771561172376E-16,5.551115123126E-16));
#30 = ORIENTED_EDGE('',*,*,#31,.T.);
#31 = EDGE_CURVE('',#24,#32,#34,.T.);
#32 = VERTEX_POINT('',#33);
#33 = CARTESIAN_POINT('',(41.3,-15.,11.));
#34 = LINE('',#35,#36);
#35 = CARTESIAN_POINT('',(41.3,15.,11.));
#36 = VECTOR('',#37,1.);
#37 = DIRECTION('',(-8.881784197001E-16,-1.,-1.110223024625E-16));
#38 = ORIENTED_EDGE('',*,*,#39,.F.);
#39 = EDGE_CURVE('',#40,#32,#42,.T.);
#40 = VERTEX_POINT('',#41);
#41 = CARTESIAN_POINT('',(-1.956170958015E-14,-15.,11.));
#42 = LINE('',#43,#44);
#43 = CARTESIAN_POINT('',(-1.956170958015E-14,-15.,11.));
#44 = VECTOR('',#45,1.);
#45 = DIRECTION('',(1.,-7.771561172376E-16,5.551115123126E-16));
#46 = ORIENTED_EDGE('',*,*,#47,.F.);
#47 = EDGE_CURVE('',#22,#40,#48,.T.);
#48 = LINE('',#49,#50);
#49 = CARTESIAN_POINT('',(7.083643010855E-15,15.,11.));
#50 = VECTOR('',#51,1.);
#51 = DIRECTION('',(-8.881784197001E-16,-1.,-1.110223024625E-16));
#52 = FACE_BOUND('',#53,.F.);
#53 = EDGE_LOOP('',(#54));
#54 = ORIENTED_EDGE('',*,*,#55,.T.);
#55 = EDGE_CURVE('',#56,#56,#58,.T.);
#56 = VERTEX_POINT('',#57);
#57 = CARTESIAN_POINT('',(32.15,-12.5,11.));
#58 = CIRCLE('',#59,1.5);
#59 = AXIS2_PLACEMENT_3D('',#60,#61,#62);
#60 = CARTESIAN_POINT('',(30.65,-12.5,11.));
#61 = DIRECTION('',(-5.551115123126E-16,-1.110223024625E-16,1.));
#62 = DIRECTION('',(1.,-6.162975822039E-32,5.551115123126E-16));
#63 = FACE_BOUND('',#64,.F.);
#64 = EDGE_LOOP('',(#65));
#65 = ORIENTED_EDGE('',*,*,#66,.T.);
#66 = EDGE_CURVE('',#67,#67,#69,.T.);
#67 = VERTEX_POINT('',#68);
#68 = CARTESIAN_POINT('',(12.15,-12.5,11.));
#69 = CIRCLE('',#70,1.5);
#70 = AXIS2_PLACEMENT_3D('',#71,#72,#73);
#71 = CARTESIAN_POINT('',(10.65,-12.5,11.));
#72 = DIRECTION('',(-5.551115123126E-16,-1.110223024625E-16,1.));
#73 = DIRECTION('',(1.,-6.162975822039E-32,5.551115123126E-16));
#74 = FACE_BOUND('',#75,.F.);
#75 = EDGE_LOOP('',(#76));
#76 = ORIENTED_EDGE('',*,*,#77,.T.);
#77 = EDGE_CURVE('',#78,#78,#80,.T.);
#78 = VERTEX_POINT('',#79);
#79 = CARTESIAN_POINT('',(12.15,12.5,11.));
#80 = CIRCLE('',#81,1.5);
#81 = AXIS2_PLACEMENT_3D('',#82,#83,#84);
#82 = CARTESIAN_POINT('',(10.65,12.5,11.));
#83 = DIRECTION('',(-5.551115123126E-16,-1.110223024625E-16,1.));
#84 = DIRECTION('',(1.,-6.162975822039E-32,5.551115123126E-16));
#85 = FACE_BOUND('',#86,.F.);
#86 = EDGE_LOOP('',(#87));
#87 = ORIENTED_EDGE('',*,*,#88,.T.);
#88 = EDGE_CURVE('',#89,#89,#91,.T.);
#89 = VERTEX_POINT('',#90);
#90 = CARTESIAN_POINT('',(32.15,12.5,11.));
#91 = CIRCLE('',#92,1.5);
#92 = AXIS2_PLACEMENT_3D('',#93,#94,#95);
#93 = CARTESIAN_POINT('',(30.65,12.5,11.));
#94 = DIRECTION('',(-5.551115123126E-16,-1.110223024625E-16,1.));
#95 = DIRECTION('',(1.,-6.162975822039E-32,5.551115123126E-16));
#96 = PLANE('',#97);
#97 = AXIS2_PLACEMENT_3D('',#98,#99,#100);
#98 = CARTESIAN_POINT('',(7.083643010855E-15,15.,11.));
#99 = DIRECTION('',(5.551115123126E-16,1.110223024625E-16,-1.));
#100 = DIRECTION('',(-8.881784197001E-16,-1.,-1.110223024625E-16));
#101 = ADVANCED_FACE('',(#102),#127,.F.);
#102 = FACE_BOUND('',#103,.F.);
#103 = EDGE_LOOP('',(#104,#114,#120,#121));
#104 = ORIENTED_EDGE('',*,*,#105,.T.);
#105 = EDGE_CURVE('',#106,#108,#110,.T.);
#106 = VERTEX_POINT('',#107);
#107 = CARTESIAN_POINT('',(8.526932942867E-15,16.,10.));
#108 = VERTEX_POINT('',#109);
#109 = CARTESIAN_POINT('',(41.3,16.,10.));
#110 = LINE('',#111,#112);
#111 = CARTESIAN_POINT('',(8.526932942867E-15,16.,10.));
#112 = VECTOR('',#113,1.);
#113 = DIRECTION('',(1.,-7.771561172376E-16,5.551115123126E-16));
#114 = ORIENTED_EDGE('',*,*,#115,.T.);
#115 = EDGE_CURVE('',#108,#24,#116,.T.);
#116 = LINE('',#117,#118);
#117 = CARTESIAN_POINT('',(41.3,16.,10.));
#118 = VECTOR('',#119,1.);
#119 = DIRECTION('',(-1.020560098144E-15,-0.707106781187,0.707106781187)
  );
#120 = ORIENTED_EDGE('',*,*,#21,.F.);
#121 = ORIENTED_EDGE('',*,*,#122,.F.);
#122 = EDGE_CURVE('',#106,#22,#123,.T.);
#123 = LINE('',#124,#125);
#124 = CARTESIAN_POINT('',(8.526932942867E-15,16.,10.));
#125 = VECTOR('',#126,1.);
#126 = DIRECTION('',(-1.020560098144E-15,-0.707106781187,0.707106781187)
  );
#127 = PLANE('',#128);
#128 = AXIS2_PLACEMENT_3D('',#129,#130,#131);
#129 = CARTESIAN_POINT('',(8.526932942867E-15,16.,10.));
#130 = DIRECTION('',(-1.570092458684E-16,-0.707106781187,-0.707106781187
    ));
#131 = DIRECTION('',(-1.020560098144E-15,-0.707106781187,0.707106781187)
  );
#132 = ADVANCED_FACE('',(#133),#233,.F.);
#133 = FACE_BOUND('',#134,.F.);
#134 = EDGE_LOOP('',(#135,#136,#144,#152,#160,#168,#176,#185,#193,#202,
    #210,#218,#226,#232));
#135 = ORIENTED_EDGE('',*,*,#47,.T.);
#136 = ORIENTED_EDGE('',*,*,#137,.T.);
#137 = EDGE_CURVE('',#40,#138,#140,.T.);
#138 = VERTEX_POINT('',#139);
#139 = CARTESIAN_POINT('',(-1.989477648754E-14,-16.,10.));
#140 = LINE('',#141,#142);
#141 = CARTESIAN_POINT('',(-1.956170958015E-14,-15.,11.));
#142 = VECTOR('',#143,1.);
#143 = DIRECTION('',(-2.355138688026E-16,-0.707106781187,-0.707106781187
    ));
#144 = ORIENTED_EDGE('',*,*,#145,.T.);
#145 = EDGE_CURVE('',#138,#146,#148,.T.);
#146 = VERTEX_POINT('',#147);
#147 = CARTESIAN_POINT('',(-1.434366136441E-14,-16.,-1.42108547152E-14)
  );
#148 = LINE('',#149,#150);
#149 = CARTESIAN_POINT('',(-1.989477648754E-14,-16.,10.));
#150 = VECTOR('',#151,1.);
#151 = DIRECTION('',(5.551115123126E-16,1.110223024625E-16,-1.));
#152 = ORIENTED_EDGE('',*,*,#153,.T.);
#153 = EDGE_CURVE('',#146,#154,#156,.T.);
#154 = VERTEX_POINT('',#155);
#155 = CARTESIAN_POINT('',(-1.29003714324E-14,-15.,-1.));
#156 = LINE('',#157,#158);
#157 = CARTESIAN_POINT('',(-1.434366136441E-14,-16.,-1.42108547152E-14)
  );
#158 = VECTOR('',#159,1.);
#159 = DIRECTION('',(1.020560098144E-15,0.707106781187,-0.707106781187)
  );
#160 = ORIENTED_EDGE('',*,*,#161,.T.);
#161 = EDGE_CURVE('',#154,#162,#164,.T.);
#162 = VERTEX_POINT('',#163);
#163 = CARTESIAN_POINT('',(-6.947885851387E-15,-8.298097038858,-1.));
#164 = LINE('',#165,#166);
#165 = CARTESIAN_POINT('',(-1.29003714324E-14,-15.,-1.));
#166 = VECTOR('',#167,1.);
#167 = DIRECTION('',(8.881784197001E-16,1.,1.110223024625E-16));
#168 = ORIENTED_EDGE('',*,*,#169,.T.);
#169 = EDGE_CURVE('',#162,#170,#172,.T.);
#170 = VERTEX_POINT('',#171);
#171 = CARTESIAN_POINT('',(-1.016647626714E-14,-8.298097038858,
    4.798097038813));
#172 = LINE('',#173,#174);
#173 = CARTESIAN_POINT('',(-6.947885851387E-15,-8.298097038858,-1.));
#174 = VECTOR('',#175,1.);
#175 = DIRECTION('',(-5.551115123126E-16,-1.110223024625E-16,1.));
#176 = ORIENTED_EDGE('',*,*,#177,.T.);
#177 = EDGE_CURVE('',#170,#178,#180,.T.);
#178 = VERTEX_POINT('',#179);
#179 = CARTESIAN_POINT('',(-9.833409359701E-15,-7.298097038774,
    5.798097038858));
#180 = CIRCLE('',#181,1.);
#181 = AXIS2_PLACEMENT_3D('',#182,#183,#184);
#182 = CARTESIAN_POINT('',(-9.278297847463E-15,-7.298097038858,
    4.798097038858));
#183 = DIRECTION('',(-1.,8.881784197001E-16,-5.551115123126E-16));
#184 = DIRECTION('',(-8.881784197001E-16,-1.,-1.110223024625E-16));
#185 = ORIENTED_EDGE('',*,*,#186,.T.);
#186 = EDGE_CURVE('',#178,#187,#189,.T.);
#187 = VERTEX_POINT('',#188);
#188 = CARTESIAN_POINT('',(3.130615229807E-15,7.298097038858,
    5.798097038858));
#189 = LINE('',#190,#191);
#190 = CARTESIAN_POINT('',(-9.833409359701E-15,-7.298097038774,
    5.798097038858));
#191 = VECTOR('',#192,1.);
#192 = DIRECTION('',(8.881784197001E-16,1.,1.110223024625E-16));
#193 = ORIENTED_EDGE('',*,*,#194,.T.);
#194 = EDGE_CURVE('',#187,#195,#197,.T.);
#195 = VERTEX_POINT('',#196);
#196 = CARTESIAN_POINT('',(4.573905161819E-15,8.298097038858,
    4.798097038858));
#197 = CIRCLE('',#198,1.);
#198 = AXIS2_PLACEMENT_3D('',#199,#200,#201);
#199 = CARTESIAN_POINT('',(3.685726742119E-15,7.298097038858,
    4.798097038858));
#200 = DIRECTION('',(-1.,8.881784197001E-16,-5.551115123126E-16));
#201 = DIRECTION('',(-8.881784197001E-16,-1.,-1.110223024625E-16));
#202 = ORIENTED_EDGE('',*,*,#203,.T.);
#203 = EDGE_CURVE('',#195,#204,#206,.T.);
#204 = VERTEX_POINT('',#205);
#205 = CARTESIAN_POINT('',(7.792495577595E-15,8.298097038858,-1.));
#206 = LINE('',#207,#208);
#207 = CARTESIAN_POINT('',(4.573905161819E-15,8.298097038858,
    4.798097038858));
#208 = VECTOR('',#209,1.);
#209 = DIRECTION('',(5.551115123126E-16,1.110223024625E-16,-1.));
#210 = ORIENTED_EDGE('',*,*,#211,.T.);
#211 = EDGE_CURVE('',#204,#212,#214,.T.);
#212 = VERTEX_POINT('',#213);
#213 = CARTESIAN_POINT('',(1.374498115861E-14,15.,-1.));
#214 = LINE('',#215,#216);
#215 = CARTESIAN_POINT('',(7.792495577595E-15,8.298097038858,-1.));
#216 = VECTOR('',#217,1.);
#217 = DIRECTION('',(8.881784197001E-16,1.,1.110223024625E-16));
#218 = ORIENTED_EDGE('',*,*,#219,.T.);
#219 = EDGE_CURVE('',#212,#220,#222,.T.);
#220 = VERTEX_POINT('',#221);
#221 = CARTESIAN_POINT('',(1.407804806599E-14,16.,-1.234400763875E-14));
#222 = LINE('',#223,#224);
#223 = CARTESIAN_POINT('',(1.374498115861E-14,15.,-1.));
#224 = VECTOR('',#225,1.);
#225 = DIRECTION('',(2.355138688026E-16,0.707106781187,0.707106781187));
#226 = ORIENTED_EDGE('',*,*,#227,.T.);
#227 = EDGE_CURVE('',#220,#106,#228,.T.);
#228 = LINE('',#229,#230);
#229 = CARTESIAN_POINT('',(1.407804806599E-14,16.,-1.236453971728E-14));
#230 = VECTOR('',#231,1.);
#231 = DIRECTION('',(-5.551115123126E-16,-1.110223024625E-16,1.));
#232 = ORIENTED_EDGE('',*,*,#122,.T.);
#233 = PLANE('',#234);
#234 = AXIS2_PLACEMENT_3D('',#235,#236,#237);
#235 = CARTESIAN_POINT('',(-3.340515693198E-15,3.963076412101E-13,
    5.77849490209));
#236 = DIRECTION('',(1.,-8.881784197001E-16,5.551115123126E-16));
#237 = DIRECTION('',(8.881784197001E-16,1.,0.));
#238 = ADVANCED_FACE('',(#239),#339,.T.);
#239 = FACE_BOUND('',#240,.T.);
#240 = EDGE_LOOP('',(#241,#242,#250,#258,#266,#274,#282,#291,#299,#308,
    #316,#324,#332,#338));
#241 = ORIENTED_EDGE('',*,*,#31,.T.);
#242 = ORIENTED_EDGE('',*,*,#243,.T.);
#243 = EDGE_CURVE('',#32,#244,#246,.T.);
#244 = VERTEX_POINT('',#245);
#245 = CARTESIAN_POINT('',(41.3,-16.,10.));
#246 = LINE('',#247,#248);
#247 = CARTESIAN_POINT('',(41.3,-15.,11.));
#248 = VECTOR('',#249,1.);
#249 = DIRECTION('',(-2.355138688026E-16,-0.707106781187,-0.707106781187
    ));
#250 = ORIENTED_EDGE('',*,*,#251,.T.);
#251 = EDGE_CURVE('',#244,#252,#254,.T.);
#252 = VERTEX_POINT('',#253);
#253 = CARTESIAN_POINT('',(41.3,-16.,8.715250743307E-15));
#254 = LINE('',#255,#256);
#255 = CARTESIAN_POINT('',(41.3,-16.,10.));
#256 = VECTOR('',#257,1.);
#257 = DIRECTION('',(5.551115123126E-16,1.110223024625E-16,-1.));
#258 = ORIENTED_EDGE('',*,*,#259,.T.);
#259 = EDGE_CURVE('',#252,#260,#262,.T.);
#260 = VERTEX_POINT('',#261);
#261 = CARTESIAN_POINT('',(41.3,-15.,-1.));
#262 = LINE('',#263,#264);
#263 = CARTESIAN_POINT('',(41.3,-16.,8.715250743307E-15));
#264 = VECTOR('',#265,1.);
#265 = DIRECTION('',(1.020560098144E-15,0.707106781187,-0.707106781187)
  );
#266 = ORIENTED_EDGE('',*,*,#267,.T.);
#267 = EDGE_CURVE('',#260,#268,#270,.T.);
#268 = VERTEX_POINT('',#269);
#269 = CARTESIAN_POINT('',(41.3,-8.298097038858,-1.));
#270 = LINE('',#271,#272);
#271 = CARTESIAN_POINT('',(41.3,-15.,-1.));
#272 = VECTOR('',#273,1.);
#273 = DIRECTION('',(8.881784197001E-16,1.,1.110223024625E-16));
#274 = ORIENTED_EDGE('',*,*,#275,.T.);
#275 = EDGE_CURVE('',#268,#276,#278,.T.);
#276 = VERTEX_POINT('',#277);
#277 = CARTESIAN_POINT('',(41.3,-8.298097038858,4.798097038813));
#278 = LINE('',#279,#280);
#279 = CARTESIAN_POINT('',(41.3,-8.298097038858,-1.));
#280 = VECTOR('',#281,1.);
#281 = DIRECTION('',(-5.551115123126E-16,-1.110223024625E-16,1.));
#282 = ORIENTED_EDGE('',*,*,#283,.T.);
#283 = EDGE_CURVE('',#276,#284,#286,.T.);
#284 = VERTEX_POINT('',#285);
#285 = CARTESIAN_POINT('',(41.3,-7.298097038774,5.798097038858));
#286 = CIRCLE('',#287,1.);
#287 = AXIS2_PLACEMENT_3D('',#288,#289,#290);
#288 = CARTESIAN_POINT('',(41.3,-7.298097038858,4.798097038858));
#289 = DIRECTION('',(-1.,8.881784197001E-16,-5.551115123126E-16));
#290 = DIRECTION('',(-8.881784197001E-16,-1.,-1.110223024625E-16));
#291 = ORIENTED_EDGE('',*,*,#292,.T.);
#292 = EDGE_CURVE('',#284,#293,#295,.T.);
#293 = VERTEX_POINT('',#294);
#294 = CARTESIAN_POINT('',(41.3,7.298097038858,5.798097038858));
#295 = LINE('',#296,#297);
#296 = CARTESIAN_POINT('',(41.3,-7.298097038774,5.798097038858));
#297 = VECTOR('',#298,1.);
#298 = DIRECTION('',(8.881784197001E-16,1.,1.110223024625E-16));
#299 = ORIENTED_EDGE('',*,*,#300,.T.);
#300 = EDGE_CURVE('',#293,#301,#303,.T.);
#301 = VERTEX_POINT('',#302);
#302 = CARTESIAN_POINT('',(41.3,8.298097038858,4.798097038858));
#303 = CIRCLE('',#304,1.);
#304 = AXIS2_PLACEMENT_3D('',#305,#306,#307);
#305 = CARTESIAN_POINT('',(41.3,7.298097038858,4.798097038858));
#306 = DIRECTION('',(-1.,8.881784197001E-16,-5.551115123126E-16));
#307 = DIRECTION('',(-8.881784197001E-16,-1.,-1.110223024625E-16));
#308 = ORIENTED_EDGE('',*,*,#309,.T.);
#309 = EDGE_CURVE('',#301,#310,#312,.T.);
#310 = VERTEX_POINT('',#311);
#311 = CARTESIAN_POINT('',(41.3,8.298097038858,-1.));
#312 = LINE('',#313,#314);
#313 = CARTESIAN_POINT('',(41.3,8.298097038858,4.798097038858));
#314 = VECTOR('',#315,1.);
#315 = DIRECTION('',(5.551115123126E-16,1.110223024625E-16,-1.));
#316 = ORIENTED_EDGE('',*,*,#317,.T.);
#317 = EDGE_CURVE('',#310,#318,#320,.T.);
#318 = VERTEX_POINT('',#319);
#319 = CARTESIAN_POINT('',(41.3,15.,-1.));
#320 = LINE('',#321,#322);
#321 = CARTESIAN_POINT('',(41.3,8.298097038858,-1.));
#322 = VECTOR('',#323,1.);
#323 = DIRECTION('',(8.881784197001E-16,1.,1.110223024625E-16));
#324 = ORIENTED_EDGE('',*,*,#325,.T.);
#325 = EDGE_CURVE('',#318,#326,#328,.T.);
#326 = VERTEX_POINT('',#327);
#327 = CARTESIAN_POINT('',(41.3,16.,1.058209781976E-14));
#328 = LINE('',#329,#330);
#329 = CARTESIAN_POINT('',(41.3,15.,-1.));
#330 = VECTOR('',#331,1.);
#331 = DIRECTION('',(2.355138688026E-16,0.707106781187,0.707106781187));
#332 = ORIENTED_EDGE('',*,*,#333,.T.);
#333 = EDGE_CURVE('',#326,#108,#334,.T.);
#334 = LINE('',#335,#336);
#335 = CARTESIAN_POINT('',(41.3,16.,1.056156574122E-14));
#336 = VECTOR('',#337,1.);
#337 = DIRECTION('',(-5.551115123126E-16,-1.110223024625E-16,1.));
#338 = ORIENTED_EDGE('',*,*,#115,.T.);
#339 = PLANE('',#340);
#340 = AXIS2_PLACEMENT_3D('',#341,#342,#343);
#341 = CARTESIAN_POINT('',(41.3,3.642110935681E-13,5.77849490209));
#342 = DIRECTION('',(1.,-8.881784197001E-16,5.551115123126E-16));
#343 = DIRECTION('',(8.881784197001E-16,1.,0.));
#344 = ADVANCED_FACE('',(#345),#356,.F.);
#345 = FACE_BOUND('',#346,.F.);
#346 = EDGE_LOOP('',(#347,#348,#349,#355));
#347 = ORIENTED_EDGE('',*,*,#39,.T.);
#348 = ORIENTED_EDGE('',*,*,#243,.T.);
#349 = ORIENTED_EDGE('',*,*,#350,.F.);
#350 = EDGE_CURVE('',#138,#244,#351,.T.);
#351 = LINE('',#352,#353);
#352 = CARTESIAN_POINT('',(-1.989477648754E-14,-16.,10.));
#353 = VECTOR('',#354,1.);
#354 = DIRECTION('',(1.,-7.771561172376E-16,5.551115123126E-16));
#355 = ORIENTED_EDGE('',*,*,#137,.F.);
#356 = PLANE('',#357);
#357 = AXIS2_PLACEMENT_3D('',#358,#359,#360);
#358 = CARTESIAN_POINT('',(-1.956170958015E-14,-15.,11.));
#359 = DIRECTION('',(9.420554752103E-16,0.707106781187,-0.707106781187)
  );
#360 = DIRECTION('',(-2.355138688026E-16,-0.707106781187,-0.707106781187
    ));
#361 = ADVANCED_FACE('',(#362),#381,.F.);
#362 = FACE_BOUND('',#363,.F.);
#363 = EDGE_LOOP('',(#364,#372,#379,#380));
#364 = ORIENTED_EDGE('',*,*,#365,.T.);
#365 = EDGE_CURVE('',#56,#366,#368,.T.);
#366 = VERTEX_POINT('',#367);
#367 = CARTESIAN_POINT('',(32.15,-12.5,5.));
#368 = LINE('',#369,#370);
#369 = CARTESIAN_POINT('',(32.15,-12.5,11.));
#370 = VECTOR('',#371,1.);
#371 = DIRECTION('',(5.551115123126E-16,1.110223024625E-16,-1.));
#372 = ORIENTED_EDGE('',*,*,#373,.T.);
#373 = EDGE_CURVE('',#366,#366,#374,.T.);
#374 = CIRCLE('',#375,1.5);
#375 = AXIS2_PLACEMENT_3D('',#376,#377,#378);
#376 = CARTESIAN_POINT('',(30.65,-12.5,5.));
#377 = DIRECTION('',(-5.551115123126E-16,-1.110223024625E-16,1.));
#378 = DIRECTION('',(1.,-6.162975822039E-32,5.551115123126E-16));
#379 = ORIENTED_EDGE('',*,*,#365,.F.);
#380 = ORIENTED_EDGE('',*,*,#55,.F.);
#381 = CYLINDRICAL_SURFACE('',#382,1.5);
#382 = AXIS2_PLACEMENT_3D('',#383,#384,#385);
#383 = CARTESIAN_POINT('',(30.65,-12.5,11.));
#384 = DIRECTION('',(-5.551115123126E-16,-1.110223024625E-16,1.));
#385 = DIRECTION('',(1.,-6.162975822039E-32,5.551115123126E-16));
#386 = ADVANCED_FACE('',(#387),#406,.F.);
#387 = FACE_BOUND('',#388,.F.);
#388 = EDGE_LOOP('',(#389,#397,#404,#405));
#389 = ORIENTED_EDGE('',*,*,#390,.T.);
#390 = EDGE_CURVE('',#67,#391,#393,.T.);
#391 = VERTEX_POINT('',#392);
#392 = CARTESIAN_POINT('',(12.15,-12.5,5.));
#393 = LINE('',#394,#395);
#394 = CARTESIAN_POINT('',(12.15,-12.5,11.));
#395 = VECTOR('',#396,1.);
#396 = DIRECTION('',(5.551115123126E-16,1.110223024625E-16,-1.));
#397 = ORIENTED_EDGE('',*,*,#398,.T.);
#398 = EDGE_CURVE('',#391,#391,#399,.T.);
#399 = CIRCLE('',#400,1.5);
#400 = AXIS2_PLACEMENT_3D('',#401,#402,#403);
#401 = CARTESIAN_POINT('',(10.65,-12.5,5.));
#402 = DIRECTION('',(-5.551115123126E-16,-1.110223024625E-16,1.));
#403 = DIRECTION('',(1.,-6.162975822039E-32,5.551115123126E-16));
#404 = ORIENTED_EDGE('',*,*,#390,.F.);
#405 = ORIENTED_EDGE('',*,*,#66,.F.);
#406 = CYLINDRICAL_SURFACE('',#407,1.5);
#407 = AXIS2_PLACEMENT_3D('',#408,#409,#410);
#408 = CARTESIAN_POINT('',(10.65,-12.5,11.));
#409 = DIRECTION('',(-5.551115123126E-16,-1.110223024625E-16,1.));
#410 = DIRECTION('',(1.,-6.162975822039E-32,5.551115123126E-16));
#411 = ADVANCED_FACE('',(#412),#431,.F.);
#412 = FACE_BOUND('',#413,.F.);
#413 = EDGE_LOOP('',(#414,#422,#429,#430));
#414 = ORIENTED_EDGE('',*,*,#415,.T.);
#415 = EDGE_CURVE('',#78,#416,#418,.T.);
#416 = VERTEX_POINT('',#417);
#417 = CARTESIAN_POINT('',(12.15,12.5,5.));
#418 = LINE('',#419,#420);
#419 = CARTESIAN_POINT('',(12.15,12.5,11.));
#420 = VECTOR('',#421,1.);
#421 = DIRECTION('',(5.551115123126E-16,1.110223024625E-16,-1.));
#422 = ORIENTED_EDGE('',*,*,#423,.T.);
#423 = EDGE_CURVE('',#416,#416,#424,.T.);
#424 = CIRCLE('',#425,1.5);
#425 = AXIS2_PLACEMENT_3D('',#426,#427,#428);
#426 = CARTESIAN_POINT('',(10.65,12.5,5.));
#427 = DIRECTION('',(-5.551115123126E-16,-1.110223024625E-16,1.));
#428 = DIRECTION('',(1.,-6.162975822039E-32,5.551115123126E-16));
#429 = ORIENTED_EDGE('',*,*,#415,.F.);
#430 = ORIENTED_EDGE('',*,*,#77,.F.);
#431 = CYLINDRICAL_SURFACE('',#432,1.5);
#432 = AXIS2_PLACEMENT_3D('',#433,#434,#435);
#433 = CARTESIAN_POINT('',(10.65,12.5,11.));
#434 = DIRECTION('',(-5.551115123126E-16,-1.110223024625E-16,1.));
#435 = DIRECTION('',(1.,-6.162975822039E-32,5.551115123126E-16));
#436 = ADVANCED_FACE('',(#437),#456,.F.);
#437 = FACE_BOUND('',#438,.F.);
#438 = EDGE_LOOP('',(#439,#447,#454,#455));
#439 = ORIENTED_EDGE('',*,*,#440,.T.);
#440 = EDGE_CURVE('',#89,#441,#443,.T.);
#441 = VERTEX_POINT('',#442);
#442 = CARTESIAN_POINT('',(32.15,12.5,5.));
#443 = LINE('',#444,#445);
#444 = CARTESIAN_POINT('',(32.15,12.5,11.));
#445 = VECTOR('',#446,1.);
#446 = DIRECTION('',(5.551115123126E-16,1.110223024625E-16,-1.));
#447 = ORIENTED_EDGE('',*,*,#448,.T.);
#448 = EDGE_CURVE('',#441,#441,#449,.T.);
#449 = CIRCLE('',#450,1.5);
#450 = AXIS2_PLACEMENT_3D('',#451,#452,#453);
#451 = CARTESIAN_POINT('',(30.65,12.5,5.));
#452 = DIRECTION('',(-5.551115123126E-16,-1.110223024625E-16,1.));
#453 = DIRECTION('',(1.,-6.162975822039E-32,5.551115123126E-16));
#454 = ORIENTED_EDGE('',*,*,#440,.F.);
#455 = ORIENTED_EDGE('',*,*,#88,.F.);
#456 = CYLINDRICAL_SURFACE('',#457,1.5);
#457 = AXIS2_PLACEMENT_3D('',#458,#459,#460);
#458 = CARTESIAN_POINT('',(30.65,12.5,11.));
#459 = DIRECTION('',(-5.551115123126E-16,-1.110223024625E-16,1.));
#460 = DIRECTION('',(1.,-6.162975822039E-32,5.551115123126E-16));
#461 = ADVANCED_FACE('',(#462),#473,.F.);
#462 = FACE_BOUND('',#463,.F.);
#463 = EDGE_LOOP('',(#464,#470,#471,#472));
#464 = ORIENTED_EDGE('',*,*,#465,.T.);
#465 = EDGE_CURVE('',#220,#326,#466,.T.);
#466 = LINE('',#467,#468);
#467 = CARTESIAN_POINT('',(1.407804806599E-14,16.,-1.234400763875E-14));
#468 = VECTOR('',#469,1.);
#469 = DIRECTION('',(1.,-7.771561172376E-16,5.551115123126E-16));
#470 = ORIENTED_EDGE('',*,*,#333,.T.);
#471 = ORIENTED_EDGE('',*,*,#105,.F.);
#472 = ORIENTED_EDGE('',*,*,#227,.F.);
#473 = PLANE('',#474);
#474 = AXIS2_PLACEMENT_3D('',#475,#476,#477);
#475 = CARTESIAN_POINT('',(1.407804806599E-14,16.,-1.236453971728E-14));
#476 = DIRECTION('',(-7.771561172376E-16,-1.,-1.110223024625E-16));
#477 = DIRECTION('',(-5.551115123126E-16,-1.110223024625E-16,1.));
#478 = ADVANCED_FACE('',(#479),#490,.F.);
#479 = FACE_BOUND('',#480,.F.);
#480 = EDGE_LOOP('',(#481,#482,#483,#489));
#481 = ORIENTED_EDGE('',*,*,#350,.T.);
#482 = ORIENTED_EDGE('',*,*,#251,.T.);
#483 = ORIENTED_EDGE('',*,*,#484,.F.);
#484 = EDGE_CURVE('',#146,#252,#485,.T.);
#485 = LINE('',#486,#487);
#486 = CARTESIAN_POINT('',(-1.434366136441E-14,-16.,-1.42108547152E-14)
  );
#487 = VECTOR('',#488,1.);
#488 = DIRECTION('',(1.,-7.771561172376E-16,5.551115123126E-16));
#489 = ORIENTED_EDGE('',*,*,#145,.F.);
#490 = PLANE('',#491);
#491 = AXIS2_PLACEMENT_3D('',#492,#493,#494);
#492 = CARTESIAN_POINT('',(-1.989477648754E-14,-16.,10.));
#493 = DIRECTION('',(7.771561172376E-16,1.,1.110223024625E-16));
#494 = DIRECTION('',(5.551115123126E-16,1.110223024625E-16,-1.));
#495 = ADVANCED_FACE('',(#496),#507,.F.);
#496 = FACE_BOUND('',#497,.F.);
#497 = EDGE_LOOP('',(#498,#499,#500,#506));
#498 = ORIENTED_EDGE('',*,*,#484,.T.);
#499 = ORIENTED_EDGE('',*,*,#259,.T.);
#500 = ORIENTED_EDGE('',*,*,#501,.F.);
#501 = EDGE_CURVE('',#154,#260,#502,.T.);
#502 = LINE('',#503,#504);
#503 = CARTESIAN_POINT('',(-1.29003714324E-14,-15.,-1.));
#504 = VECTOR('',#505,1.);
#505 = DIRECTION('',(1.,-7.771561172376E-16,5.551115123126E-16));
#506 = ORIENTED_EDGE('',*,*,#153,.F.);
#507 = PLANE('',#508);
#508 = AXIS2_PLACEMENT_3D('',#509,#510,#511);
#509 = CARTESIAN_POINT('',(-1.434366136441E-14,-16.,-1.42108547152E-14)
  );
#510 = DIRECTION('',(1.570092458684E-16,0.707106781187,0.707106781187));
#511 = DIRECTION('',(1.020560098144E-15,0.707106781187,-0.707106781187)
  );
#512 = ADVANCED_FACE('',(#513),#524,.F.);
#513 = FACE_BOUND('',#514,.F.);
#514 = EDGE_LOOP('',(#515,#516,#517,#523));
#515 = ORIENTED_EDGE('',*,*,#501,.T.);
#516 = ORIENTED_EDGE('',*,*,#267,.T.);
#517 = ORIENTED_EDGE('',*,*,#518,.F.);
#518 = EDGE_CURVE('',#162,#268,#519,.T.);
#519 = LINE('',#520,#521);
#520 = CARTESIAN_POINT('',(-6.947885851387E-15,-8.298097038858,-1.));
#521 = VECTOR('',#522,1.);
#522 = DIRECTION('',(1.,-7.771561172376E-16,5.551115123126E-16));
#523 = ORIENTED_EDGE('',*,*,#161,.F.);
#524 = PLANE('',#525);
#525 = AXIS2_PLACEMENT_3D('',#526,#527,#528);
#526 = CARTESIAN_POINT('',(-1.29003714324E-14,-15.,-1.));
#527 = DIRECTION('',(-5.551115123126E-16,-1.110223024625E-16,1.));
#528 = DIRECTION('',(8.881784197001E-16,1.,1.110223024625E-16));
#529 = ADVANCED_FACE('',(#530),#541,.F.);
#530 = FACE_BOUND('',#531,.F.);
#531 = EDGE_LOOP('',(#532,#533,#534,#540));
#532 = ORIENTED_EDGE('',*,*,#518,.T.);
#533 = ORIENTED_EDGE('',*,*,#275,.T.);
#534 = ORIENTED_EDGE('',*,*,#535,.F.);
#535 = EDGE_CURVE('',#170,#276,#536,.T.);
#536 = LINE('',#537,#538);
#537 = CARTESIAN_POINT('',(-1.016647626714E-14,-8.298097038858,
    4.798097038813));
#538 = VECTOR('',#539,1.);
#539 = DIRECTION('',(1.,-7.771561172376E-16,5.551115123126E-16));
#540 = ORIENTED_EDGE('',*,*,#169,.F.);
#541 = PLANE('',#542);
#542 = AXIS2_PLACEMENT_3D('',#543,#544,#545);
#543 = CARTESIAN_POINT('',(-6.947885851387E-15,-8.298097038858,-1.));
#544 = DIRECTION('',(-7.771561172376E-16,-1.,-1.110223024625E-16));
#545 = DIRECTION('',(-5.551115123126E-16,-1.110223024625E-16,1.));
#546 = ADVANCED_FACE('',(#547),#558,.F.);
#547 = FACE_BOUND('',#548,.F.);
#548 = EDGE_LOOP('',(#549,#550,#551,#557));
#549 = ORIENTED_EDGE('',*,*,#535,.T.);
#550 = ORIENTED_EDGE('',*,*,#283,.T.);
#551 = ORIENTED_EDGE('',*,*,#552,.F.);
#552 = EDGE_CURVE('',#178,#284,#553,.T.);
#553 = LINE('',#554,#555);
#554 = CARTESIAN_POINT('',(-9.833409359701E-15,-7.298097038774,
    5.798097038858));
#555 = VECTOR('',#556,1.);
#556 = DIRECTION('',(1.,-7.771561172376E-16,5.551115123126E-16));
#557 = ORIENTED_EDGE('',*,*,#177,.F.);
#558 = CYLINDRICAL_SURFACE('',#559,1.);
#559 = AXIS2_PLACEMENT_3D('',#560,#561,#562);
#560 = CARTESIAN_POINT('',(-9.278297847463E-15,-7.298097038858,
    4.798097038858));
#561 = DIRECTION('',(-1.,8.881784197001E-16,-5.551115123126E-16));
#562 = DIRECTION('',(-8.881784197001E-16,-1.,-1.110223024625E-16));
#563 = ADVANCED_FACE('',(#564),#575,.F.);
#564 = FACE_BOUND('',#565,.F.);
#565 = EDGE_LOOP('',(#566,#567,#568,#574));
#566 = ORIENTED_EDGE('',*,*,#552,.T.);
#567 = ORIENTED_EDGE('',*,*,#292,.T.);
#568 = ORIENTED_EDGE('',*,*,#569,.F.);
#569 = EDGE_CURVE('',#187,#293,#570,.T.);
#570 = LINE('',#571,#572);
#571 = CARTESIAN_POINT('',(3.130615229807E-15,7.298097038858,
    5.798097038858));
#572 = VECTOR('',#573,1.);
#573 = DIRECTION('',(1.,-7.771561172376E-16,5.551115123126E-16));
#574 = ORIENTED_EDGE('',*,*,#186,.F.);
#575 = PLANE('',#576);
#576 = AXIS2_PLACEMENT_3D('',#577,#578,#579);
#577 = CARTESIAN_POINT('',(-9.833409359701E-15,-7.298097038774,
    5.798097038858));
#578 = DIRECTION('',(-5.551115123126E-16,-1.110223024625E-16,1.));
#579 = DIRECTION('',(8.881784197001E-16,1.,1.110223024625E-16));
#580 = ADVANCED_FACE('',(#581),#592,.F.);
#581 = FACE_BOUND('',#582,.F.);
#582 = EDGE_LOOP('',(#583,#584,#585,#591));
#583 = ORIENTED_EDGE('',*,*,#569,.T.);
#584 = ORIENTED_EDGE('',*,*,#300,.T.);
#585 = ORIENTED_EDGE('',*,*,#586,.F.);
#586 = EDGE_CURVE('',#195,#301,#587,.T.);
#587 = LINE('',#588,#589);
#588 = CARTESIAN_POINT('',(4.573905161819E-15,8.298097038858,
    4.798097038858));
#589 = VECTOR('',#590,1.);
#590 = DIRECTION('',(1.,-7.771561172376E-16,5.551115123126E-16));
#591 = ORIENTED_EDGE('',*,*,#194,.F.);
#592 = CYLINDRICAL_SURFACE('',#593,1.);
#593 = AXIS2_PLACEMENT_3D('',#594,#595,#596);
#594 = CARTESIAN_POINT('',(3.685726742119E-15,7.298097038858,
    4.798097038858));
#595 = DIRECTION('',(-1.,8.881784197001E-16,-5.551115123126E-16));
#596 = DIRECTION('',(-8.881784197001E-16,-1.,-1.110223024625E-16));
#597 = ADVANCED_FACE('',(#598),#609,.F.);
#598 = FACE_BOUND('',#599,.F.);
#599 = EDGE_LOOP('',(#600,#601,#602,#608));
#600 = ORIENTED_EDGE('',*,*,#586,.T.);
#601 = ORIENTED_EDGE('',*,*,#309,.T.);
#602 = ORIENTED_EDGE('',*,*,#603,.F.);
#603 = EDGE_CURVE('',#204,#310,#604,.T.);
#604 = LINE('',#605,#606);
#605 = CARTESIAN_POINT('',(7.792495577595E-15,8.298097038858,-1.));
#606 = VECTOR('',#607,1.);
#607 = DIRECTION('',(1.,-7.771561172376E-16,5.551115123126E-16));
#608 = ORIENTED_EDGE('',*,*,#203,.F.);
#609 = PLANE('',#610);
#610 = AXIS2_PLACEMENT_3D('',#611,#612,#613);
#611 = CARTESIAN_POINT('',(4.573905161819E-15,8.298097038858,
    4.798097038858));
#612 = DIRECTION('',(7.771561172376E-16,1.,1.110223024625E-16));
#613 = DIRECTION('',(5.551115123126E-16,1.110223024625E-16,-1.));
#614 = ADVANCED_FACE('',(#615),#626,.F.);
#615 = FACE_BOUND('',#616,.F.);
#616 = EDGE_LOOP('',(#617,#618,#619,#625));
#617 = ORIENTED_EDGE('',*,*,#603,.T.);
#618 = ORIENTED_EDGE('',*,*,#317,.T.);
#619 = ORIENTED_EDGE('',*,*,#620,.F.);
#620 = EDGE_CURVE('',#212,#318,#621,.T.);
#621 = LINE('',#622,#623);
#622 = CARTESIAN_POINT('',(1.374498115861E-14,15.,-1.));
#623 = VECTOR('',#624,1.);
#624 = DIRECTION('',(1.,-7.771561172376E-16,5.551115123126E-16));
#625 = ORIENTED_EDGE('',*,*,#211,.F.);
#626 = PLANE('',#627);
#627 = AXIS2_PLACEMENT_3D('',#628,#629,#630);
#628 = CARTESIAN_POINT('',(7.792495577595E-15,8.298097038858,-1.));
#629 = DIRECTION('',(-5.551115123126E-16,-1.110223024625E-16,1.));
#630 = DIRECTION('',(8.881784197001E-16,1.,1.110223024625E-16));
#631 = ADVANCED_FACE('',(#632),#638,.F.);
#632 = FACE_BOUND('',#633,.F.);
#633 = EDGE_LOOP('',(#634,#635,#636,#637));
#634 = ORIENTED_EDGE('',*,*,#620,.T.);
#635 = ORIENTED_EDGE('',*,*,#325,.T.);
#636 = ORIENTED_EDGE('',*,*,#465,.F.);
#637 = ORIENTED_EDGE('',*,*,#219,.F.);
#638 = PLANE('',#639);
#639 = AXIS2_PLACEMENT_3D('',#640,#641,#642);
#640 = CARTESIAN_POINT('',(1.374498115861E-14,15.,-1.));
#641 = DIRECTION('',(-9.420554752103E-16,-0.707106781187,0.707106781187)
  );
#642 = DIRECTION('',(2.355138688026E-16,0.707106781187,0.707106781187));
#643 = ADVANCED_FACE('',(#644),#647,.T.);
#644 = FACE_BOUND('',#645,.T.);
#645 = EDGE_LOOP('',(#646));
#646 = ORIENTED_EDGE('',*,*,#373,.T.);
#647 = PLANE('',#648);
#648 = AXIS2_PLACEMENT_3D('',#649,#650,#651);
#649 = CARTESIAN_POINT('',(30.65,-12.5,5.));
#650 = DIRECTION('',(-3.947459643112E-16,-6.837200662697E-16,1.));
#651 = DIRECTION('',(0.,1.,6.837200662697E-16));
#652 = ADVANCED_FACE('',(#653),#656,.T.);
#653 = FACE_BOUND('',#654,.T.);
#654 = EDGE_LOOP('',(#655));
#655 = ORIENTED_EDGE('',*,*,#398,.T.);
#656 = PLANE('',#657);
#657 = AXIS2_PLACEMENT_3D('',#658,#659,#660);
#658 = CARTESIAN_POINT('',(10.65,-12.5,5.));
#659 = DIRECTION('',(-7.894919286223E-16,0.,1.));
#660 = DIRECTION('',(1.,0.,7.894919286223E-16));
#661 = ADVANCED_FACE('',(#662),#665,.T.);
#662 = FACE_BOUND('',#663,.T.);
#663 = EDGE_LOOP('',(#664));
#664 = ORIENTED_EDGE('',*,*,#423,.T.);
#665 = PLANE('',#666);
#666 = AXIS2_PLACEMENT_3D('',#667,#668,#669);
#667 = CARTESIAN_POINT('',(10.65,12.5,5.));
#668 = DIRECTION('',(-7.894919286223E-16,0.,1.));
#669 = DIRECTION('',(1.,0.,7.894919286223E-16));
#670 = ADVANCED_FACE('',(#671),#674,.T.);
#671 = FACE_BOUND('',#672,.T.);
#672 = EDGE_LOOP('',(#673));
#673 = ORIENTED_EDGE('',*,*,#448,.T.);
#674 = PLANE('',#675);
#675 = AXIS2_PLACEMENT_3D('',#676,#677,#678);
#676 = CARTESIAN_POINT('',(30.65,12.5,5.));
#677 = DIRECTION('',(-7.894919286223E-16,0.,1.));
#678 = DIRECTION('',(1.,0.,7.894919286223E-16));
#679 = ( GEOMETRIC_REPRESENTATION_CONTEXT(3) 
GLOBAL_UNCERTAINTY_ASSIGNED_CONTEXT((#683)) GLOBAL_UNIT_ASSIGNED_CONTEXT
((#680,#681,#682)) REPRESENTATION_CONTEXT('Context #1',
  '3D Context with UNIT and UNCERTAINTY') );
#680 = ( LENGTH_UNIT() NAMED_UNIT(*) SI_UNIT(.MILLI.,.METRE.) );
#681 = ( NAMED_UNIT(*) PLANE_ANGLE_UNIT() SI_UNIT($,.RADIAN.) );
#682 = ( NAMED_UNIT(*) SI_UNIT($,.STERADIAN.) SOLID_ANGLE_UNIT() );
#683 = UNCERTAINTY_MEASURE_WITH_UNIT(LENGTH_MEASURE(1.E-07),#680,
  'distance_accuracy_value','confusion accuracy');
#684 = PRODUCT_RELATED_PRODUCT_CATEGORY('part',$,(#7));
#685 = MECHANICAL_DESIGN_GEOMETRIC_PRESENTATION_REPRESENTATION('',(#686)
  ,#679);
#686 = STYLED_ITEM('color',(#687),#15);
#687 = PRESENTATION_STYLE_ASSIGNMENT((#688,#694));
#688 = SURFACE_STYLE_USAGE(.BOTH.,#689);
#689 = SURFACE_SIDE_STYLE('',(#690));
#690 = SURFACE_STYLE_FILL_AREA(#691);
#691 = FILL_AREA_STYLE('',(#692));
#692 = FILL_AREA_STYLE_COLOUR('',#693);
#693 = COLOUR_RGB('',0.478431373835,0.478431373835,0.478431373835);
#694 = CURVE_STYLE('',#695,POSITIVE_LENGTH_MEASURE(0.1),#696);
#695 = DRAUGHTING_PRE_DEFINED_CURVE_FONT('continuous');
#696 = DRAUGHTING_PRE_DEFINED_COLOUR('black');
ENDSEC;
END-ISO-10303-21;
