ISO-10303-21;
HEADER;
FILE_DESCRIPTION(('FreeCAD Model'),'2;1');
FILE_NAME(
'/home/fandres/Proyectos/Impresora3D_Big/Impresora 3D 
Big/partes/MGN15H/Guia_lineal_MGN15H.step','2019-08-05T17:09:48',(
    'Author'),(''),'Open CASCADE STEP processor 7.3','FreeCAD','Unknown'
  );
FILE_SCHEMA(('AUTOMOTIVE_DESIGN { 1 0 10303 214 1 1 1 1 }'));
ENDSEC;
DATA;
#1 = APPLICATION_PROTOCOL_DEFINITION('international standard',
  'automotive_design',2000,#2);
#2 = APPLICATION_CONTEXT(
  'core data for automotive mechanical design processes');
#3 = SHAPE_DEFINITION_REPRESENTATION(#4,#10);
#4 = PRODUCT_DEFINITION_SHAPE('','',#5);
#5 = PRODUCT_DEFINITION('design','',#6,#9);
#6 = PRODUCT_DEFINITION_FORMATION('','',#7);
#7 = PRODUCT('Guia_lineal_MHNH15_001','Guia_lineal_MHNH15_001','',(#8));
#8 = PRODUCT_CONTEXT('',#2,'mechanical');
#9 = PRODUCT_DEFINITION_CONTEXT('part definition',#2,'design');
#10 = ADVANCED_BREP_SHAPE_REPRESENTATION('',(#11,#15),#1368);
#11 = AXIS2_PLACEMENT_3D('',#12,#13,#14);
#12 = CARTESIAN_POINT('',(0.,0.,0.));
#13 = DIRECTION('',(0.,0.,1.));
#14 = DIRECTION('',(1.,0.,-0.));
#15 = MANIFOLD_SOLID_BREP('',#16);
#16 = CLOSED_SHELL('',(#17,#57,#88,#119,#248,#377,#394,#620,#637,#654,
    #671,#688,#705,#722,#739,#756,#982,#999,#1016,#1033,#1045,#1062,
    #1079,#1096,#1113,#1130,#1147,#1164,#1181,#1198,#1215,#1232,#1249,
    #1266,#1283,#1300,#1317,#1334,#1351));
#17 = ADVANCED_FACE('',(#18),#52,.F.);
#18 = FACE_BOUND('',#19,.F.);
#19 = EDGE_LOOP('',(#20,#30,#38,#46));
#20 = ORIENTED_EDGE('',*,*,#21,.T.);
#21 = EDGE_CURVE('',#22,#24,#26,.T.);
#22 = VERTEX_POINT('',#23);
#23 = CARTESIAN_POINT('',(-375.,5.17735026919,7.5));
#24 = VERTEX_POINT('',#25);
#25 = CARTESIAN_POINT('',(375.,5.17735026919,7.5));
#26 = LINE('',#27,#28);
#27 = CARTESIAN_POINT('',(-375.,5.17735026919,7.5));
#28 = VECTOR('',#29,1.);
#29 = DIRECTION('',(1.,2.8E-16,4.4E-16));
#30 = ORIENTED_EDGE('',*,*,#31,.T.);
#31 = EDGE_CURVE('',#24,#32,#34,.T.);
#32 = VERTEX_POINT('',#33);
#33 = CARTESIAN_POINT('',(375.,0.57735026919,7.5));
#34 = LINE('',#35,#36);
#35 = CARTESIAN_POINT('',(375.,5.17735026919,7.5));
#36 = VECTOR('',#37,1.);
#37 = DIRECTION('',(0.,-1.,0.));
#38 = ORIENTED_EDGE('',*,*,#39,.F.);
#39 = EDGE_CURVE('',#40,#32,#42,.T.);
#40 = VERTEX_POINT('',#41);
#41 = CARTESIAN_POINT('',(-375.,0.57735026919,7.5));
#42 = LINE('',#43,#44);
#43 = CARTESIAN_POINT('',(-375.,0.57735026919,7.5));
#44 = VECTOR('',#45,1.);
#45 = DIRECTION('',(1.,2.8E-16,4.4E-16));
#46 = ORIENTED_EDGE('',*,*,#47,.F.);
#47 = EDGE_CURVE('',#22,#40,#48,.T.);
#48 = LINE('',#49,#50);
#49 = CARTESIAN_POINT('',(-375.,5.17735026919,7.5));
#50 = VECTOR('',#51,1.);
#51 = DIRECTION('',(0.,-1.,0.));
#52 = PLANE('',#53);
#53 = AXIS2_PLACEMENT_3D('',#54,#55,#56);
#54 = CARTESIAN_POINT('',(-375.,5.17735026919,7.5));
#55 = DIRECTION('',(4.4E-16,-2.2E-16,-1.));
#56 = DIRECTION('',(4.4E-16,-1.,2.2E-16));
#57 = ADVANCED_FACE('',(#58),#83,.T.);
#58 = FACE_BOUND('',#59,.T.);
#59 = EDGE_LOOP('',(#60,#61,#69,#77));
#60 = ORIENTED_EDGE('',*,*,#21,.T.);
#61 = ORIENTED_EDGE('',*,*,#62,.T.);
#62 = EDGE_CURVE('',#24,#63,#65,.T.);
#63 = VERTEX_POINT('',#64);
#64 = CARTESIAN_POINT('',(375.,6.088675134595,6.973846343639));
#65 = LINE('',#66,#67);
#66 = CARTESIAN_POINT('',(375.,5.17735026919,7.5));
#67 = VECTOR('',#68,1.);
#68 = DIRECTION('',(0.,0.866025403784,-0.5));
#69 = ORIENTED_EDGE('',*,*,#70,.F.);
#70 = EDGE_CURVE('',#71,#63,#73,.T.);
#71 = VERTEX_POINT('',#72);
#72 = CARTESIAN_POINT('',(-375.,6.088675134595,6.973846343639));
#73 = LINE('',#74,#75);
#74 = CARTESIAN_POINT('',(-375.,6.088675134595,6.973846343639));
#75 = VECTOR('',#76,1.);
#76 = DIRECTION('',(1.,2.8E-16,4.4E-16));
#77 = ORIENTED_EDGE('',*,*,#78,.F.);
#78 = EDGE_CURVE('',#22,#71,#79,.T.);
#79 = LINE('',#80,#81);
#80 = CARTESIAN_POINT('',(-375.,5.17735026919,7.5));
#81 = VECTOR('',#82,1.);
#82 = DIRECTION('',(0.,0.866025403784,-0.5));
#83 = PLANE('',#84);
#84 = AXIS2_PLACEMENT_3D('',#85,#86,#87);
#85 = CARTESIAN_POINT('',(-375.,5.17735026919,7.5));
#86 = DIRECTION('',(-5.2E-16,0.5,0.866025403784));
#87 = DIRECTION('',(-2.7E-16,0.866025403784,-0.5));
#88 = ADVANCED_FACE('',(#89),#114,.F.);
#89 = FACE_BOUND('',#90,.F.);
#90 = EDGE_LOOP('',(#91,#92,#100,#108));
#91 = ORIENTED_EDGE('',*,*,#39,.T.);
#92 = ORIENTED_EDGE('',*,*,#93,.T.);
#93 = EDGE_CURVE('',#32,#94,#96,.T.);
#94 = VERTEX_POINT('',#95);
#95 = CARTESIAN_POINT('',(375.,2.096101070492E-13,6.5));
#96 = LINE('',#97,#98);
#97 = CARTESIAN_POINT('',(375.,0.57735026919,7.5));
#98 = VECTOR('',#99,1.);
#99 = DIRECTION('',(0.,-0.5,-0.866025403784));
#100 = ORIENTED_EDGE('',*,*,#101,.F.);
#101 = EDGE_CURVE('',#102,#94,#104,.T.);
#102 = VERTEX_POINT('',#103);
#103 = CARTESIAN_POINT('',(-375.,1.7763568394E-15,6.5));
#104 = LINE('',#105,#106);
#105 = CARTESIAN_POINT('',(-375.,2.6645352591E-15,6.5));
#106 = VECTOR('',#107,1.);
#107 = DIRECTION('',(1.,2.8E-16,4.4E-16));
#108 = ORIENTED_EDGE('',*,*,#109,.F.);
#109 = EDGE_CURVE('',#40,#102,#110,.T.);
#110 = LINE('',#111,#112);
#111 = CARTESIAN_POINT('',(-375.,0.57735026919,7.5));
#112 = VECTOR('',#113,1.);
#113 = DIRECTION('',(0.,-0.5,-0.866025403784));
#114 = PLANE('',#115);
#115 = AXIS2_PLACEMENT_3D('',#116,#117,#118);
#116 = CARTESIAN_POINT('',(-375.,0.57735026919,7.5));
#117 = DIRECTION('',(-2.E-17,0.866025403784,-0.5));
#118 = DIRECTION('',(4.1E-16,-0.5,-0.866025403784));
#119 = ADVANCED_FACE('',(#120),#243,.F.);
#120 = FACE_BOUND('',#121,.F.);
#121 = EDGE_LOOP('',(#122,#123,#124,#132,#140,#148,#156,#164,#172,#180,
    #188,#196,#204,#212,#220,#228,#236,#242));
#122 = ORIENTED_EDGE('',*,*,#47,.T.);
#123 = ORIENTED_EDGE('',*,*,#109,.T.);
#124 = ORIENTED_EDGE('',*,*,#125,.T.);
#125 = EDGE_CURVE('',#102,#126,#128,.T.);
#126 = VERTEX_POINT('',#127);
#127 = CARTESIAN_POINT('',(-375.,-1.7763568394E-15,-6.5));
#128 = LINE('',#129,#130);
#129 = CARTESIAN_POINT('',(-375.,0.,6.5));
#130 = VECTOR('',#131,1.);
#131 = DIRECTION('',(0.,0.,-1.));
#132 = ORIENTED_EDGE('',*,*,#133,.T.);
#133 = EDGE_CURVE('',#126,#134,#136,.T.);
#134 = VERTEX_POINT('',#135);
#135 = CARTESIAN_POINT('',(-375.,0.57735026919,-7.5));
#136 = LINE('',#137,#138);
#137 = CARTESIAN_POINT('',(-375.,0.,-6.5));
#138 = VECTOR('',#139,1.);
#139 = DIRECTION('',(0.,0.5,-0.866025403784));
#140 = ORIENTED_EDGE('',*,*,#141,.T.);
#141 = EDGE_CURVE('',#134,#142,#144,.T.);
#142 = VERTEX_POINT('',#143);
#143 = CARTESIAN_POINT('',(-375.,5.17735026919,-7.5));
#144 = LINE('',#145,#146);
#145 = CARTESIAN_POINT('',(-375.,0.57735026919,-7.5));
#146 = VECTOR('',#147,1.);
#147 = DIRECTION('',(0.,1.,0.));
#148 = ORIENTED_EDGE('',*,*,#149,.T.);
#149 = EDGE_CURVE('',#142,#150,#152,.T.);
#150 = VERTEX_POINT('',#151);
#151 = CARTESIAN_POINT('',(-375.,6.088675134595,-6.973846343639));
#152 = LINE('',#153,#154);
#153 = CARTESIAN_POINT('',(-375.,5.17735026919,-7.5));
#154 = VECTOR('',#155,1.);
#155 = DIRECTION('',(0.,0.866025403784,0.5));
#156 = ORIENTED_EDGE('',*,*,#157,.T.);
#157 = EDGE_CURVE('',#150,#158,#160,.T.);
#158 = VERTEX_POINT('',#159);
#159 = CARTESIAN_POINT('',(-375.,6.088675134595,-5.9));
#160 = LINE('',#161,#162);
#161 = CARTESIAN_POINT('',(-375.,6.088675134595,-6.973846343639));
#162 = VECTOR('',#163,1.);
#163 = DIRECTION('',(0.,0.,1.));
#164 = ORIENTED_EDGE('',*,*,#165,.T.);
#165 = EDGE_CURVE('',#158,#166,#168,.T.);
#166 = VERTEX_POINT('',#167);
#167 = CARTESIAN_POINT('',(-375.,7.088675134595,-5.9));
#168 = LINE('',#169,#170);
#169 = CARTESIAN_POINT('',(-375.,6.088675134595,-5.9));
#170 = VECTOR('',#171,1.);
#171 = DIRECTION('',(0.,1.,0.));
#172 = ORIENTED_EDGE('',*,*,#173,.T.);
#173 = EDGE_CURVE('',#166,#174,#176,.T.);
#174 = VERTEX_POINT('',#175);
#175 = CARTESIAN_POINT('',(-375.,7.088675134595,-6.973846343639));
#176 = LINE('',#177,#178);
#177 = CARTESIAN_POINT('',(-375.,7.088675134595,-5.9));
#178 = VECTOR('',#179,1.);
#179 = DIRECTION('',(0.,0.,-1.));
#180 = ORIENTED_EDGE('',*,*,#181,.T.);
#181 = EDGE_CURVE('',#174,#182,#184,.T.);
#182 = VERTEX_POINT('',#183);
#183 = CARTESIAN_POINT('',(-375.,8.,-7.5));
#184 = LINE('',#185,#186);
#185 = CARTESIAN_POINT('',(-375.,7.088675134595,-6.973846343639));
#186 = VECTOR('',#187,1.);
#187 = DIRECTION('',(0.,0.866025403784,-0.5));
#188 = ORIENTED_EDGE('',*,*,#189,.T.);
#189 = EDGE_CURVE('',#182,#190,#192,.T.);
#190 = VERTEX_POINT('',#191);
#191 = CARTESIAN_POINT('',(-375.,10.,-7.5));
#192 = LINE('',#193,#194);
#193 = CARTESIAN_POINT('',(-375.,8.,-7.5));
#194 = VECTOR('',#195,1.);
#195 = DIRECTION('',(0.,1.,0.));
#196 = ORIENTED_EDGE('',*,*,#197,.T.);
#197 = EDGE_CURVE('',#190,#198,#200,.T.);
#198 = VERTEX_POINT('',#199);
#199 = CARTESIAN_POINT('',(-375.,10.,7.5));
#200 = LINE('',#201,#202);
#201 = CARTESIAN_POINT('',(-375.,10.,-7.5));
#202 = VECTOR('',#203,1.);
#203 = DIRECTION('',(0.,0.,1.));
#204 = ORIENTED_EDGE('',*,*,#205,.T.);
#205 = EDGE_CURVE('',#198,#206,#208,.T.);
#206 = VERTEX_POINT('',#207);
#207 = CARTESIAN_POINT('',(-375.,8.,7.5));
#208 = LINE('',#209,#210);
#209 = CARTESIAN_POINT('',(-375.,10.,7.5));
#210 = VECTOR('',#211,1.);
#211 = DIRECTION('',(0.,-1.,0.));
#212 = ORIENTED_EDGE('',*,*,#213,.F.);
#213 = EDGE_CURVE('',#214,#206,#216,.T.);
#214 = VERTEX_POINT('',#215);
#215 = CARTESIAN_POINT('',(-375.,7.088675134595,6.973846343639));
#216 = LINE('',#217,#218);
#217 = CARTESIAN_POINT('',(-375.,7.088675134595,6.973846343639));
#218 = VECTOR('',#219,1.);
#219 = DIRECTION('',(0.,0.866025403784,0.5));
#220 = ORIENTED_EDGE('',*,*,#221,.F.);
#221 = EDGE_CURVE('',#222,#214,#224,.T.);
#222 = VERTEX_POINT('',#223);
#223 = CARTESIAN_POINT('',(-375.,7.088675134595,5.9));
#224 = LINE('',#225,#226);
#225 = CARTESIAN_POINT('',(-375.,7.088675134595,5.9));
#226 = VECTOR('',#227,1.);
#227 = DIRECTION('',(0.,9.51E-15,1.));
#228 = ORIENTED_EDGE('',*,*,#229,.T.);
#229 = EDGE_CURVE('',#222,#230,#232,.T.);
#230 = VERTEX_POINT('',#231);
#231 = CARTESIAN_POINT('',(-375.,6.088675134595,5.9));
#232 = LINE('',#233,#234);
#233 = CARTESIAN_POINT('',(-375.,7.088675134595,5.9));
#234 = VECTOR('',#235,1.);
#235 = DIRECTION('',(0.,-1.,0.));
#236 = ORIENTED_EDGE('',*,*,#237,.F.);
#237 = EDGE_CURVE('',#71,#230,#238,.T.);
#238 = LINE('',#239,#240);
#239 = CARTESIAN_POINT('',(-375.,6.088675134595,6.973846343639));
#240 = VECTOR('',#241,1.);
#241 = DIRECTION('',(0.,0.,-1.));
#242 = ORIENTED_EDGE('',*,*,#78,.F.);
#243 = PLANE('',#244);
#244 = AXIS2_PLACEMENT_3D('',#245,#246,#247);
#245 = CARTESIAN_POINT('',(-375.,5.227342915607,-3.72E-15));
#246 = DIRECTION('',(1.,2.2E-16,2.2E-16));
#247 = DIRECTION('',(-2.2E-16,1.,0.));
#248 = ADVANCED_FACE('',(#249),#372,.T.);
#249 = FACE_BOUND('',#250,.T.);
#250 = EDGE_LOOP('',(#251,#252,#253,#261,#269,#277,#285,#293,#301,#309,
    #317,#325,#333,#341,#349,#357,#365,#371));
#251 = ORIENTED_EDGE('',*,*,#31,.T.);
#252 = ORIENTED_EDGE('',*,*,#93,.T.);
#253 = ORIENTED_EDGE('',*,*,#254,.T.);
#254 = EDGE_CURVE('',#94,#255,#257,.T.);
#255 = VERTEX_POINT('',#256);
#256 = CARTESIAN_POINT('',(375.,2.060573933704E-13,-6.5));
#257 = LINE('',#258,#259);
#258 = CARTESIAN_POINT('',(375.,2.078337502098E-13,6.5));
#259 = VECTOR('',#260,1.);
#260 = DIRECTION('',(0.,0.,-1.));
#261 = ORIENTED_EDGE('',*,*,#262,.T.);
#262 = EDGE_CURVE('',#255,#263,#265,.T.);
#263 = VERTEX_POINT('',#264);
#264 = CARTESIAN_POINT('',(375.,0.57735026919,-7.5));
#265 = LINE('',#266,#267);
#266 = CARTESIAN_POINT('',(375.,2.078337502098E-13,-6.5));
#267 = VECTOR('',#268,1.);
#268 = DIRECTION('',(0.,0.5,-0.866025403784));
#269 = ORIENTED_EDGE('',*,*,#270,.T.);
#270 = EDGE_CURVE('',#263,#271,#273,.T.);
#271 = VERTEX_POINT('',#272);
#272 = CARTESIAN_POINT('',(375.,5.17735026919,-7.5));
#273 = LINE('',#274,#275);
#274 = CARTESIAN_POINT('',(375.,0.57735026919,-7.5));
#275 = VECTOR('',#276,1.);
#276 = DIRECTION('',(0.,1.,0.));
#277 = ORIENTED_EDGE('',*,*,#278,.T.);
#278 = EDGE_CURVE('',#271,#279,#281,.T.);
#279 = VERTEX_POINT('',#280);
#280 = CARTESIAN_POINT('',(375.,6.088675134595,-6.973846343639));
#281 = LINE('',#282,#283);
#282 = CARTESIAN_POINT('',(375.,5.17735026919,-7.5));
#283 = VECTOR('',#284,1.);
#284 = DIRECTION('',(0.,0.866025403784,0.5));
#285 = ORIENTED_EDGE('',*,*,#286,.T.);
#286 = EDGE_CURVE('',#279,#287,#289,.T.);
#287 = VERTEX_POINT('',#288);
#288 = CARTESIAN_POINT('',(375.,6.088675134595,-5.9));
#289 = LINE('',#290,#291);
#290 = CARTESIAN_POINT('',(375.,6.088675134595,-6.973846343639));
#291 = VECTOR('',#292,1.);
#292 = DIRECTION('',(0.,0.,1.));
#293 = ORIENTED_EDGE('',*,*,#294,.T.);
#294 = EDGE_CURVE('',#287,#295,#297,.T.);
#295 = VERTEX_POINT('',#296);
#296 = CARTESIAN_POINT('',(375.,7.088675134595,-5.9));
#297 = LINE('',#298,#299);
#298 = CARTESIAN_POINT('',(375.,6.088675134595,-5.9));
#299 = VECTOR('',#300,1.);
#300 = DIRECTION('',(0.,1.,0.));
#301 = ORIENTED_EDGE('',*,*,#302,.T.);
#302 = EDGE_CURVE('',#295,#303,#305,.T.);
#303 = VERTEX_POINT('',#304);
#304 = CARTESIAN_POINT('',(375.,7.088675134595,-6.973846343639));
#305 = LINE('',#306,#307);
#306 = CARTESIAN_POINT('',(375.,7.088675134595,-5.9));
#307 = VECTOR('',#308,1.);
#308 = DIRECTION('',(0.,0.,-1.));
#309 = ORIENTED_EDGE('',*,*,#310,.T.);
#310 = EDGE_CURVE('',#303,#311,#313,.T.);
#311 = VERTEX_POINT('',#312);
#312 = CARTESIAN_POINT('',(375.,8.,-7.5));
#313 = LINE('',#314,#315);
#314 = CARTESIAN_POINT('',(375.,7.088675134595,-6.973846343639));
#315 = VECTOR('',#316,1.);
#316 = DIRECTION('',(0.,0.866025403784,-0.5));
#317 = ORIENTED_EDGE('',*,*,#318,.T.);
#318 = EDGE_CURVE('',#311,#319,#321,.T.);
#319 = VERTEX_POINT('',#320);
#320 = CARTESIAN_POINT('',(375.,10.,-7.5));
#321 = LINE('',#322,#323);
#322 = CARTESIAN_POINT('',(375.,8.,-7.5));
#323 = VECTOR('',#324,1.);
#324 = DIRECTION('',(0.,1.,0.));
#325 = ORIENTED_EDGE('',*,*,#326,.T.);
#326 = EDGE_CURVE('',#319,#327,#329,.T.);
#327 = VERTEX_POINT('',#328);
#328 = CARTESIAN_POINT('',(375.,10.,7.5));
#329 = LINE('',#330,#331);
#330 = CARTESIAN_POINT('',(375.,10.,-7.5));
#331 = VECTOR('',#332,1.);
#332 = DIRECTION('',(0.,0.,1.));
#333 = ORIENTED_EDGE('',*,*,#334,.T.);
#334 = EDGE_CURVE('',#327,#335,#337,.T.);
#335 = VERTEX_POINT('',#336);
#336 = CARTESIAN_POINT('',(375.,8.,7.5));
#337 = LINE('',#338,#339);
#338 = CARTESIAN_POINT('',(375.,10.,7.5));
#339 = VECTOR('',#340,1.);
#340 = DIRECTION('',(0.,-1.,0.));
#341 = ORIENTED_EDGE('',*,*,#342,.F.);
#342 = EDGE_CURVE('',#343,#335,#345,.T.);
#343 = VERTEX_POINT('',#344);
#344 = CARTESIAN_POINT('',(375.,7.088675134595,6.973846343639));
#345 = LINE('',#346,#347);
#346 = CARTESIAN_POINT('',(375.,7.088675134595,6.973846343639));
#347 = VECTOR('',#348,1.);
#348 = DIRECTION('',(0.,0.866025403784,0.5));
#349 = ORIENTED_EDGE('',*,*,#350,.F.);
#350 = EDGE_CURVE('',#351,#343,#353,.T.);
#351 = VERTEX_POINT('',#352);
#352 = CARTESIAN_POINT('',(375.,7.088675134595,5.9));
#353 = LINE('',#354,#355);
#354 = CARTESIAN_POINT('',(375.,7.088675134595,5.9));
#355 = VECTOR('',#356,1.);
#356 = DIRECTION('',(0.,9.51E-15,1.));
#357 = ORIENTED_EDGE('',*,*,#358,.T.);
#358 = EDGE_CURVE('',#351,#359,#361,.T.);
#359 = VERTEX_POINT('',#360);
#360 = CARTESIAN_POINT('',(375.,6.088675134595,5.9));
#361 = LINE('',#362,#363);
#362 = CARTESIAN_POINT('',(375.,7.088675134595,5.9));
#363 = VECTOR('',#364,1.);
#364 = DIRECTION('',(0.,-1.,0.));
#365 = ORIENTED_EDGE('',*,*,#366,.F.);
#366 = EDGE_CURVE('',#63,#359,#367,.T.);
#367 = LINE('',#368,#369);
#368 = CARTESIAN_POINT('',(375.,6.088675134595,6.973846343639));
#369 = VECTOR('',#370,1.);
#370 = DIRECTION('',(0.,0.,-1.));
#371 = ORIENTED_EDGE('',*,*,#62,.F.);
#372 = PLANE('',#373);
#373 = AXIS2_PLACEMENT_3D('',#374,#375,#376);
#374 = CARTESIAN_POINT('',(375.,5.227342915607,3.2928E-13));
#375 = DIRECTION('',(1.,2.2E-16,2.2E-16));
#376 = DIRECTION('',(-2.2E-16,1.,0.));
#377 = ADVANCED_FACE('',(#378),#389,.T.);
#378 = FACE_BOUND('',#379,.T.);
#379 = EDGE_LOOP('',(#380,#381,#382,#388));
#380 = ORIENTED_EDGE('',*,*,#70,.T.);
#381 = ORIENTED_EDGE('',*,*,#366,.T.);
#382 = ORIENTED_EDGE('',*,*,#383,.F.);
#383 = EDGE_CURVE('',#230,#359,#384,.T.);
#384 = LINE('',#385,#386);
#385 = CARTESIAN_POINT('',(-375.,6.088675134595,5.9));
#386 = VECTOR('',#387,1.);
#387 = DIRECTION('',(1.,2.8E-16,4.4E-16));
#388 = ORIENTED_EDGE('',*,*,#237,.F.);
#389 = PLANE('',#390);
#390 = AXIS2_PLACEMENT_3D('',#391,#392,#393);
#391 = CARTESIAN_POINT('',(-375.,6.088675134595,6.973846343639));
#392 = DIRECTION('',(-2.8E-16,1.,-4.4E-16));
#393 = DIRECTION('',(2.2E-16,-4.4E-16,-1.));
#394 = ADVANCED_FACE('',(#395,#406,#417,#428,#439,#450,#461,#472,#483,
    #494,#505,#516,#527,#538,#549,#560,#571,#582,#593,#604),#615,.F.);
#395 = FACE_BOUND('',#396,.F.);
#396 = EDGE_LOOP('',(#397,#398,#399,#405));
#397 = ORIENTED_EDGE('',*,*,#101,.T.);
#398 = ORIENTED_EDGE('',*,*,#254,.T.);
#399 = ORIENTED_EDGE('',*,*,#400,.F.);
#400 = EDGE_CURVE('',#126,#255,#401,.T.);
#401 = LINE('',#402,#403);
#402 = CARTESIAN_POINT('',(-375.,-4.440892098501E-15,-6.5));
#403 = VECTOR('',#404,1.);
#404 = DIRECTION('',(1.,2.8E-16,4.4E-16));
#405 = ORIENTED_EDGE('',*,*,#125,.F.);
#406 = FACE_BOUND('',#407,.F.);
#407 = EDGE_LOOP('',(#408));
#408 = ORIENTED_EDGE('',*,*,#409,.T.);
#409 = EDGE_CURVE('',#410,#410,#412,.T.);
#410 = VERTEX_POINT('',#411);
#411 = CARTESIAN_POINT('',(-160.,8.171241461241E-14,-1.75));
#412 = CIRCLE('',#413,1.75);
#413 = AXIS2_PLACEMENT_3D('',#414,#415,#416);
#414 = CARTESIAN_POINT('',(-160.,-8.881784197001E-16,3.E-15));
#415 = DIRECTION('',(0.,-1.,1.E-15));
#416 = DIRECTION('',(0.,-1.E-15,-1.));
#417 = FACE_BOUND('',#418,.F.);
#418 = EDGE_LOOP('',(#419));
#419 = ORIENTED_EDGE('',*,*,#420,.T.);
#420 = EDGE_CURVE('',#421,#421,#423,.T.);
#421 = VERTEX_POINT('',#422);
#422 = CARTESIAN_POINT('',(-120.,9.681144774731E-14,-1.75));
#423 = CIRCLE('',#424,1.75);
#424 = AXIS2_PLACEMENT_3D('',#425,#426,#427);
#425 = CARTESIAN_POINT('',(-120.,-8.881784197001E-16,3.E-15));
#426 = DIRECTION('',(0.,-1.,1.E-15));
#427 = DIRECTION('',(0.,-1.E-15,-1.));
#428 = FACE_BOUND('',#429,.F.);
#429 = EDGE_LOOP('',(#430));
#430 = ORIENTED_EDGE('',*,*,#431,.T.);
#431 = EDGE_CURVE('',#432,#432,#434,.T.);
#432 = VERTEX_POINT('',#433);
#433 = CARTESIAN_POINT('',(-80.,1.127986593019E-13,-1.75));
#434 = CIRCLE('',#435,1.75);
#435 = AXIS2_PLACEMENT_3D('',#436,#437,#438);
#436 = CARTESIAN_POINT('',(-80.,-8.881784197001E-16,3.E-15));
#437 = DIRECTION('',(0.,-1.,1.E-15));
#438 = DIRECTION('',(0.,-1.E-15,-1.));
#439 = FACE_BOUND('',#440,.F.);
#440 = EDGE_LOOP('',(#441));
#441 = ORIENTED_EDGE('',*,*,#442,.T.);
#442 = EDGE_CURVE('',#443,#443,#445,.T.);
#443 = VERTEX_POINT('',#444);
#444 = CARTESIAN_POINT('',(-40.,1.278976924368E-13,-1.75));
#445 = CIRCLE('',#446,1.75);
#446 = AXIS2_PLACEMENT_3D('',#447,#448,#449);
#447 = CARTESIAN_POINT('',(-40.,-8.881784197001E-16,3.E-15));
#448 = DIRECTION('',(0.,-1.,1.E-15));
#449 = DIRECTION('',(0.,-1.E-15,-1.));
#450 = FACE_BOUND('',#451,.F.);
#451 = EDGE_LOOP('',(#452));
#452 = ORIENTED_EDGE('',*,*,#453,.T.);
#453 = EDGE_CURVE('',#454,#454,#456,.T.);
#454 = VERTEX_POINT('',#455);
#455 = CARTESIAN_POINT('',(80.,1.749711486809E-13,-1.75));
#456 = CIRCLE('',#457,1.75);
#457 = AXIS2_PLACEMENT_3D('',#458,#459,#460);
#458 = CARTESIAN_POINT('',(80.,-8.881784197001E-16,3.E-15));
#459 = DIRECTION('',(0.,-1.,1.E-15));
#460 = DIRECTION('',(0.,-1.E-15,-1.));
#461 = FACE_BOUND('',#462,.F.);
#462 = EDGE_LOOP('',(#463));
#463 = ORIENTED_EDGE('',*,*,#464,.T.);
#464 = EDGE_CURVE('',#465,#465,#467,.T.);
#465 = VERTEX_POINT('',#466);
#466 = CARTESIAN_POINT('',(40.,1.589839371263E-13,-1.75));
#467 = CIRCLE('',#468,1.75);
#468 = AXIS2_PLACEMENT_3D('',#469,#470,#471);
#469 = CARTESIAN_POINT('',(40.,-8.881784197001E-16,3.E-15));
#470 = DIRECTION('',(0.,-1.,1.E-15));
#471 = DIRECTION('',(0.,-1.E-15,-1.));
#472 = FACE_BOUND('',#473,.F.);
#473 = EDGE_LOOP('',(#474));
#474 = ORIENTED_EDGE('',*,*,#475,.T.);
#475 = EDGE_CURVE('',#476,#476,#478,.T.);
#476 = VERTEX_POINT('',#477);
#477 = CARTESIAN_POINT('',(0.,1.438849039914E-13,-1.75));
#478 = CIRCLE('',#479,1.75);
#479 = AXIS2_PLACEMENT_3D('',#480,#481,#482);
#480 = CARTESIAN_POINT('',(0.,-8.881784197001E-16,3.E-15));
#481 = DIRECTION('',(0.,-1.,1.E-15));
#482 = DIRECTION('',(0.,-1.E-15,-1.));
#483 = FACE_BOUND('',#484,.F.);
#484 = EDGE_LOOP('',(#485));
#485 = ORIENTED_EDGE('',*,*,#486,.T.);
#486 = EDGE_CURVE('',#487,#487,#489,.T.);
#487 = VERTEX_POINT('',#488);
#488 = CARTESIAN_POINT('',(360.,2.833289158843E-13,-1.75));
#489 = CIRCLE('',#490,1.75);
#490 = AXIS2_PLACEMENT_3D('',#491,#492,#493);
#491 = CARTESIAN_POINT('',(360.,-8.881784197001E-16,3.E-15));
#492 = DIRECTION('',(0.,-1.,1.E-15));
#493 = DIRECTION('',(0.,-1.E-15,-1.));
#494 = FACE_BOUND('',#495,.F.);
#495 = EDGE_LOOP('',(#496));
#496 = ORIENTED_EDGE('',*,*,#497,.T.);
#497 = EDGE_CURVE('',#498,#498,#500,.T.);
#498 = VERTEX_POINT('',#499);
#499 = CARTESIAN_POINT('',(320.,2.682298827494E-13,-1.75));
#500 = CIRCLE('',#501,1.75);
#501 = AXIS2_PLACEMENT_3D('',#502,#503,#504);
#502 = CARTESIAN_POINT('',(320.,-8.881784197001E-16,3.E-15));
#503 = DIRECTION('',(0.,-1.,1.E-15));
#504 = DIRECTION('',(0.,-1.E-15,-1.));
#505 = FACE_BOUND('',#506,.F.);
#506 = EDGE_LOOP('',(#507));
#507 = ORIENTED_EDGE('',*,*,#508,.T.);
#508 = EDGE_CURVE('',#509,#509,#511,.T.);
#509 = VERTEX_POINT('',#510);
#510 = CARTESIAN_POINT('',(240.,2.371436380599E-13,-1.75));
#511 = CIRCLE('',#512,1.75);
#512 = AXIS2_PLACEMENT_3D('',#513,#514,#515);
#513 = CARTESIAN_POINT('',(240.,-8.881784197001E-16,3.E-15));
#514 = DIRECTION('',(0.,-1.,1.E-15));
#515 = DIRECTION('',(0.,-1.E-15,-1.));
#516 = FACE_BOUND('',#517,.F.);
#517 = EDGE_LOOP('',(#518));
#518 = ORIENTED_EDGE('',*,*,#519,.T.);
#519 = EDGE_CURVE('',#520,#520,#522,.T.);
#520 = VERTEX_POINT('',#521);
#521 = CARTESIAN_POINT('',(280.,2.522426711948E-13,-1.75));
#522 = CIRCLE('',#523,1.75);
#523 = AXIS2_PLACEMENT_3D('',#524,#525,#526);
#524 = CARTESIAN_POINT('',(280.,-8.881784197001E-16,3.E-15));
#525 = DIRECTION('',(0.,-1.,1.E-15));
#526 = DIRECTION('',(0.,-1.E-15,-1.));
#527 = FACE_BOUND('',#528,.F.);
#528 = EDGE_LOOP('',(#529));
#529 = ORIENTED_EDGE('',*,*,#530,.T.);
#530 = EDGE_CURVE('',#531,#531,#533,.T.);
#531 = VERTEX_POINT('',#532);
#532 = CARTESIAN_POINT('',(160.,2.060573933704E-13,-1.75));
#533 = CIRCLE('',#534,1.75);
#534 = AXIS2_PLACEMENT_3D('',#535,#536,#537);
#535 = CARTESIAN_POINT('',(160.,-8.881784197001E-16,3.E-15));
#536 = DIRECTION('',(0.,-1.,1.E-15));
#537 = DIRECTION('',(0.,-1.E-15,-1.));
#538 = FACE_BOUND('',#539,.F.);
#539 = EDGE_LOOP('',(#540));
#540 = ORIENTED_EDGE('',*,*,#541,.T.);
#541 = EDGE_CURVE('',#542,#542,#544,.T.);
#542 = VERTEX_POINT('',#543);
#543 = CARTESIAN_POINT('',(200.,2.211564265053E-13,-1.75));
#544 = CIRCLE('',#545,1.75);
#545 = AXIS2_PLACEMENT_3D('',#546,#547,#548);
#546 = CARTESIAN_POINT('',(200.,-8.881784197001E-16,3.E-15));
#547 = DIRECTION('',(0.,-1.,1.E-15));
#548 = DIRECTION('',(0.,-1.E-15,-1.));
#549 = FACE_BOUND('',#550,.F.);
#550 = EDGE_LOOP('',(#551));
#551 = ORIENTED_EDGE('',*,*,#552,.T.);
#552 = EDGE_CURVE('',#553,#553,#555,.T.);
#553 = VERTEX_POINT('',#554);
#554 = CARTESIAN_POINT('',(120.,1.900701818158E-13,-1.75));
#555 = CIRCLE('',#556,1.75);
#556 = AXIS2_PLACEMENT_3D('',#557,#558,#559);
#557 = CARTESIAN_POINT('',(120.,-8.881784197001E-16,3.E-15));
#558 = DIRECTION('',(0.,-1.,1.E-15));
#559 = DIRECTION('',(0.,-1.E-15,-1.));
#560 = FACE_BOUND('',#561,.F.);
#561 = EDGE_LOOP('',(#562));
#562 = ORIENTED_EDGE('',*,*,#563,.T.);
#563 = EDGE_CURVE('',#564,#564,#566,.T.);
#564 = VERTEX_POINT('',#565);
#565 = CARTESIAN_POINT('',(-360.,4.440892098501E-15,-1.75));
#566 = CIRCLE('',#567,1.75);
#567 = AXIS2_PLACEMENT_3D('',#568,#569,#570);
#568 = CARTESIAN_POINT('',(-360.,-8.881784197001E-16,3.E-15));
#569 = DIRECTION('',(0.,-1.,1.E-15));
#570 = DIRECTION('',(0.,-1.E-15,-1.));
#571 = FACE_BOUND('',#572,.F.);
#572 = EDGE_LOOP('',(#573));
#573 = ORIENTED_EDGE('',*,*,#574,.T.);
#574 = EDGE_CURVE('',#575,#575,#577,.T.);
#575 = VERTEX_POINT('',#576);
#576 = CARTESIAN_POINT('',(-320.,2.04281036531E-14,-1.75));
#577 = CIRCLE('',#578,1.75);
#578 = AXIS2_PLACEMENT_3D('',#579,#580,#581);
#579 = CARTESIAN_POINT('',(-320.,-8.881784197001E-16,3.E-15));
#580 = DIRECTION('',(0.,-1.,1.E-15));
#581 = DIRECTION('',(0.,-1.E-15,-1.));
#582 = FACE_BOUND('',#583,.F.);
#583 = EDGE_LOOP('',(#584));
#584 = ORIENTED_EDGE('',*,*,#585,.T.);
#585 = EDGE_CURVE('',#586,#586,#588,.T.);
#586 = VERTEX_POINT('',#587);
#587 = CARTESIAN_POINT('',(-280.,3.46389583683E-14,-1.75));
#588 = CIRCLE('',#589,1.75);
#589 = AXIS2_PLACEMENT_3D('',#590,#591,#592);
#590 = CARTESIAN_POINT('',(-280.,-8.881784197001E-16,3.E-15));
#591 = DIRECTION('',(0.,-1.,1.E-15));
#592 = DIRECTION('',(0.,-1.E-15,-1.));
#593 = FACE_BOUND('',#594,.F.);
#594 = EDGE_LOOP('',(#595));
#595 = ORIENTED_EDGE('',*,*,#596,.T.);
#596 = EDGE_CURVE('',#597,#597,#599,.T.);
#597 = VERTEX_POINT('',#598);
#598 = CARTESIAN_POINT('',(-200.,6.572520305781E-14,-1.75));
#599 = CIRCLE('',#600,1.75);
#600 = AXIS2_PLACEMENT_3D('',#601,#602,#603);
#601 = CARTESIAN_POINT('',(-200.,-8.881784197001E-16,3.E-15));
#602 = DIRECTION('',(0.,-1.,1.E-15));
#603 = DIRECTION('',(0.,-1.E-15,-1.));
#604 = FACE_BOUND('',#605,.F.);
#605 = EDGE_LOOP('',(#606));
#606 = ORIENTED_EDGE('',*,*,#607,.T.);
#607 = EDGE_CURVE('',#608,#608,#610,.T.);
#608 = VERTEX_POINT('',#609);
#609 = CARTESIAN_POINT('',(-240.,5.062616992291E-14,-1.75));
#610 = CIRCLE('',#611,1.75);
#611 = AXIS2_PLACEMENT_3D('',#612,#613,#614);
#612 = CARTESIAN_POINT('',(-240.,-8.881784197001E-16,3.E-15));
#613 = DIRECTION('',(0.,-1.,1.E-15));
#614 = DIRECTION('',(0.,-1.E-15,-1.));
#615 = PLANE('',#616);
#616 = AXIS2_PLACEMENT_3D('',#617,#618,#619);
#617 = CARTESIAN_POINT('',(-375.,1.7763568394E-15,6.5));
#618 = DIRECTION('',(-2.8E-16,1.,-4.4E-16));
#619 = DIRECTION('',(2.2E-16,-4.4E-16,-1.));
#620 = ADVANCED_FACE('',(#621),#632,.F.);
#621 = FACE_BOUND('',#622,.F.);
#622 = EDGE_LOOP('',(#623,#624,#625,#631));
#623 = ORIENTED_EDGE('',*,*,#400,.T.);
#624 = ORIENTED_EDGE('',*,*,#262,.T.);
#625 = ORIENTED_EDGE('',*,*,#626,.F.);
#626 = EDGE_CURVE('',#134,#263,#627,.T.);
#627 = LINE('',#628,#629);
#628 = CARTESIAN_POINT('',(-375.,0.57735026919,-7.5));
#629 = VECTOR('',#630,1.);
#630 = DIRECTION('',(1.,2.8E-16,4.4E-16));
#631 = ORIENTED_EDGE('',*,*,#133,.F.);
#632 = PLANE('',#633);
#633 = AXIS2_PLACEMENT_3D('',#634,#635,#636);
#634 = CARTESIAN_POINT('',(-375.,-3.552713678801E-15,-6.5));
#635 = DIRECTION('',(-4.6E-16,0.866025403784,0.5));
#636 = DIRECTION('',(-3.E-17,0.5,-0.866025403784));
#637 = ADVANCED_FACE('',(#638),#649,.F.);
#638 = FACE_BOUND('',#639,.F.);
#639 = EDGE_LOOP('',(#640,#641,#642,#648));
#640 = ORIENTED_EDGE('',*,*,#626,.T.);
#641 = ORIENTED_EDGE('',*,*,#270,.T.);
#642 = ORIENTED_EDGE('',*,*,#643,.F.);
#643 = EDGE_CURVE('',#142,#271,#644,.T.);
#644 = LINE('',#645,#646);
#645 = CARTESIAN_POINT('',(-375.,5.17735026919,-7.5));
#646 = VECTOR('',#647,1.);
#647 = DIRECTION('',(1.,2.8E-16,4.4E-16));
#648 = ORIENTED_EDGE('',*,*,#141,.F.);
#649 = PLANE('',#650);
#650 = AXIS2_PLACEMENT_3D('',#651,#652,#653);
#651 = CARTESIAN_POINT('',(-375.,0.57735026919,-7.5));
#652 = DIRECTION('',(-4.4E-16,2.2E-16,1.));
#653 = DIRECTION('',(-4.4E-16,1.,-2.2E-16));
#654 = ADVANCED_FACE('',(#655),#666,.F.);
#655 = FACE_BOUND('',#656,.F.);
#656 = EDGE_LOOP('',(#657,#658,#659,#665));
#657 = ORIENTED_EDGE('',*,*,#643,.T.);
#658 = ORIENTED_EDGE('',*,*,#278,.T.);
#659 = ORIENTED_EDGE('',*,*,#660,.F.);
#660 = EDGE_CURVE('',#150,#279,#661,.T.);
#661 = LINE('',#662,#663);
#662 = CARTESIAN_POINT('',(-375.,6.088675134595,-6.973846343639));
#663 = VECTOR('',#664,1.);
#664 = DIRECTION('',(1.,2.8E-16,4.4E-16));
#665 = ORIENTED_EDGE('',*,*,#149,.F.);
#666 = PLANE('',#667);
#667 = AXIS2_PLACEMENT_3D('',#668,#669,#670);
#668 = CARTESIAN_POINT('',(-375.,5.17735026919,-7.5));
#669 = DIRECTION('',(-2.5E-16,-0.5,0.866025403784));
#670 = DIRECTION('',(-5.E-16,0.866025403784,0.5));
#671 = ADVANCED_FACE('',(#672),#683,.F.);
#672 = FACE_BOUND('',#673,.F.);
#673 = EDGE_LOOP('',(#674,#675,#676,#682));
#674 = ORIENTED_EDGE('',*,*,#660,.T.);
#675 = ORIENTED_EDGE('',*,*,#286,.T.);
#676 = ORIENTED_EDGE('',*,*,#677,.F.);
#677 = EDGE_CURVE('',#158,#287,#678,.T.);
#678 = LINE('',#679,#680);
#679 = CARTESIAN_POINT('',(-375.,6.088675134595,-5.9));
#680 = VECTOR('',#681,1.);
#681 = DIRECTION('',(1.,2.8E-16,4.4E-16));
#682 = ORIENTED_EDGE('',*,*,#157,.F.);
#683 = PLANE('',#684);
#684 = AXIS2_PLACEMENT_3D('',#685,#686,#687);
#685 = CARTESIAN_POINT('',(-375.,6.088675134595,-6.973846343639));
#686 = DIRECTION('',(2.8E-16,-1.,4.4E-16));
#687 = DIRECTION('',(-2.2E-16,4.4E-16,1.));
#688 = ADVANCED_FACE('',(#689),#700,.F.);
#689 = FACE_BOUND('',#690,.F.);
#690 = EDGE_LOOP('',(#691,#692,#693,#699));
#691 = ORIENTED_EDGE('',*,*,#677,.T.);
#692 = ORIENTED_EDGE('',*,*,#294,.T.);
#693 = ORIENTED_EDGE('',*,*,#694,.F.);
#694 = EDGE_CURVE('',#166,#295,#695,.T.);
#695 = LINE('',#696,#697);
#696 = CARTESIAN_POINT('',(-375.,7.088675134595,-5.9));
#697 = VECTOR('',#698,1.);
#698 = DIRECTION('',(1.,2.8E-16,4.4E-16));
#699 = ORIENTED_EDGE('',*,*,#165,.F.);
#700 = PLANE('',#701);
#701 = AXIS2_PLACEMENT_3D('',#702,#703,#704);
#702 = CARTESIAN_POINT('',(-375.,6.088675134595,-5.9));
#703 = DIRECTION('',(-4.4E-16,2.2E-16,1.));
#704 = DIRECTION('',(-4.4E-16,1.,-2.2E-16));
#705 = ADVANCED_FACE('',(#706),#717,.F.);
#706 = FACE_BOUND('',#707,.F.);
#707 = EDGE_LOOP('',(#708,#709,#710,#716));
#708 = ORIENTED_EDGE('',*,*,#694,.T.);
#709 = ORIENTED_EDGE('',*,*,#302,.T.);
#710 = ORIENTED_EDGE('',*,*,#711,.F.);
#711 = EDGE_CURVE('',#174,#303,#712,.T.);
#712 = LINE('',#713,#714);
#713 = CARTESIAN_POINT('',(-375.,7.088675134595,-6.973846343639));
#714 = VECTOR('',#715,1.);
#715 = DIRECTION('',(1.,2.8E-16,4.4E-16));
#716 = ORIENTED_EDGE('',*,*,#173,.F.);
#717 = PLANE('',#718);
#718 = AXIS2_PLACEMENT_3D('',#719,#720,#721);
#719 = CARTESIAN_POINT('',(-375.,7.088675134595,-5.9));
#720 = DIRECTION('',(-2.8E-16,1.,-4.4E-16));
#721 = DIRECTION('',(2.2E-16,-4.4E-16,-1.));
#722 = ADVANCED_FACE('',(#723),#734,.F.);
#723 = FACE_BOUND('',#724,.F.);
#724 = EDGE_LOOP('',(#725,#726,#727,#733));
#725 = ORIENTED_EDGE('',*,*,#711,.T.);
#726 = ORIENTED_EDGE('',*,*,#310,.T.);
#727 = ORIENTED_EDGE('',*,*,#728,.F.);
#728 = EDGE_CURVE('',#182,#311,#729,.T.);
#729 = LINE('',#730,#731);
#730 = CARTESIAN_POINT('',(-375.,8.,-7.5));
#731 = VECTOR('',#732,1.);
#732 = DIRECTION('',(1.,2.8E-16,4.4E-16));
#733 = ORIENTED_EDGE('',*,*,#181,.F.);
#734 = PLANE('',#735);
#735 = AXIS2_PLACEMENT_3D('',#736,#737,#738);
#736 = CARTESIAN_POINT('',(-375.,7.088675134595,-6.973846343639));
#737 = DIRECTION('',(-5.2E-16,0.5,0.866025403784));
#738 = DIRECTION('',(-2.7E-16,0.866025403784,-0.5));
#739 = ADVANCED_FACE('',(#740),#751,.F.);
#740 = FACE_BOUND('',#741,.F.);
#741 = EDGE_LOOP('',(#742,#743,#744,#750));
#742 = ORIENTED_EDGE('',*,*,#728,.T.);
#743 = ORIENTED_EDGE('',*,*,#318,.T.);
#744 = ORIENTED_EDGE('',*,*,#745,.F.);
#745 = EDGE_CURVE('',#190,#319,#746,.T.);
#746 = LINE('',#747,#748);
#747 = CARTESIAN_POINT('',(-375.,10.,-7.5));
#748 = VECTOR('',#749,1.);
#749 = DIRECTION('',(1.,2.8E-16,4.4E-16));
#750 = ORIENTED_EDGE('',*,*,#189,.F.);
#751 = PLANE('',#752);
#752 = AXIS2_PLACEMENT_3D('',#753,#754,#755);
#753 = CARTESIAN_POINT('',(-375.,8.,-7.5));
#754 = DIRECTION('',(-4.4E-16,2.2E-16,1.));
#755 = DIRECTION('',(-4.4E-16,1.,-2.2E-16));
#756 = ADVANCED_FACE('',(#757,#768,#779,#790,#801,#812,#823,#834,#845,
    #856,#867,#878,#889,#900,#911,#922,#933,#944,#955,#966),#977,.F.);
#757 = FACE_BOUND('',#758,.F.);
#758 = EDGE_LOOP('',(#759,#760,#761,#767));
#759 = ORIENTED_EDGE('',*,*,#745,.T.);
#760 = ORIENTED_EDGE('',*,*,#326,.T.);
#761 = ORIENTED_EDGE('',*,*,#762,.F.);
#762 = EDGE_CURVE('',#198,#327,#763,.T.);
#763 = LINE('',#764,#765);
#764 = CARTESIAN_POINT('',(-375.,10.,7.5));
#765 = VECTOR('',#766,1.);
#766 = DIRECTION('',(1.,2.8E-16,4.4E-16));
#767 = ORIENTED_EDGE('',*,*,#197,.F.);
#768 = FACE_BOUND('',#769,.F.);
#769 = EDGE_LOOP('',(#770));
#770 = ORIENTED_EDGE('',*,*,#771,.F.);
#771 = EDGE_CURVE('',#772,#772,#774,.T.);
#772 = VERTEX_POINT('',#773);
#773 = CARTESIAN_POINT('',(-160.,10.,-1.75));
#774 = CIRCLE('',#775,1.75);
#775 = AXIS2_PLACEMENT_3D('',#776,#777,#778);
#776 = CARTESIAN_POINT('',(-160.,10.,-3.E-15));
#777 = DIRECTION('',(0.,-1.,1.E-15));
#778 = DIRECTION('',(0.,-1.E-15,-1.));
#779 = FACE_BOUND('',#780,.F.);
#780 = EDGE_LOOP('',(#781));
#781 = ORIENTED_EDGE('',*,*,#782,.F.);
#782 = EDGE_CURVE('',#783,#783,#785,.T.);
#783 = VERTEX_POINT('',#784);
#784 = CARTESIAN_POINT('',(-80.,10.,-1.75));
#785 = CIRCLE('',#786,1.75);
#786 = AXIS2_PLACEMENT_3D('',#787,#788,#789);
#787 = CARTESIAN_POINT('',(-80.,10.,-3.E-15));
#788 = DIRECTION('',(0.,-1.,1.E-15));
#789 = DIRECTION('',(0.,-1.E-15,-1.));
#790 = FACE_BOUND('',#791,.F.);
#791 = EDGE_LOOP('',(#792));
#792 = ORIENTED_EDGE('',*,*,#793,.F.);
#793 = EDGE_CURVE('',#794,#794,#796,.T.);
#794 = VERTEX_POINT('',#795);
#795 = CARTESIAN_POINT('',(-120.,10.,-1.75));
#796 = CIRCLE('',#797,1.75);
#797 = AXIS2_PLACEMENT_3D('',#798,#799,#800);
#798 = CARTESIAN_POINT('',(-120.,10.,-3.E-15));
#799 = DIRECTION('',(0.,-1.,1.E-15));
#800 = DIRECTION('',(0.,-1.E-15,-1.));
#801 = FACE_BOUND('',#802,.F.);
#802 = EDGE_LOOP('',(#803));
#803 = ORIENTED_EDGE('',*,*,#804,.F.);
#804 = EDGE_CURVE('',#805,#805,#807,.T.);
#805 = VERTEX_POINT('',#806);
#806 = CARTESIAN_POINT('',(80.,10.,-1.75));
#807 = CIRCLE('',#808,1.75);
#808 = AXIS2_PLACEMENT_3D('',#809,#810,#811);
#809 = CARTESIAN_POINT('',(80.,10.,-3.E-15));
#810 = DIRECTION('',(0.,-1.,1.E-15));
#811 = DIRECTION('',(0.,-1.E-15,-1.));
#812 = FACE_BOUND('',#813,.F.);
#813 = EDGE_LOOP('',(#814));
#814 = ORIENTED_EDGE('',*,*,#815,.F.);
#815 = EDGE_CURVE('',#816,#816,#818,.T.);
#816 = VERTEX_POINT('',#817);
#817 = CARTESIAN_POINT('',(40.,10.,-1.75));
#818 = CIRCLE('',#819,1.75);
#819 = AXIS2_PLACEMENT_3D('',#820,#821,#822);
#820 = CARTESIAN_POINT('',(40.,10.,-3.E-15));
#821 = DIRECTION('',(0.,-1.,1.E-15));
#822 = DIRECTION('',(0.,-1.E-15,-1.));
#823 = FACE_BOUND('',#824,.F.);
#824 = EDGE_LOOP('',(#825));
#825 = ORIENTED_EDGE('',*,*,#826,.F.);
#826 = EDGE_CURVE('',#827,#827,#829,.T.);
#827 = VERTEX_POINT('',#828);
#828 = CARTESIAN_POINT('',(-40.,10.,-1.75));
#829 = CIRCLE('',#830,1.75);
#830 = AXIS2_PLACEMENT_3D('',#831,#832,#833);
#831 = CARTESIAN_POINT('',(-40.,10.,-3.E-15));
#832 = DIRECTION('',(0.,-1.,1.E-15));
#833 = DIRECTION('',(0.,-1.E-15,-1.));
#834 = FACE_BOUND('',#835,.F.);
#835 = EDGE_LOOP('',(#836));
#836 = ORIENTED_EDGE('',*,*,#837,.F.);
#837 = EDGE_CURVE('',#838,#838,#840,.T.);
#838 = VERTEX_POINT('',#839);
#839 = CARTESIAN_POINT('',(0.,10.,-1.75));
#840 = CIRCLE('',#841,1.75);
#841 = AXIS2_PLACEMENT_3D('',#842,#843,#844);
#842 = CARTESIAN_POINT('',(0.,10.,-3.E-15));
#843 = DIRECTION('',(0.,-1.,1.E-15));
#844 = DIRECTION('',(0.,-1.E-15,-1.));
#845 = FACE_BOUND('',#846,.F.);
#846 = EDGE_LOOP('',(#847));
#847 = ORIENTED_EDGE('',*,*,#848,.F.);
#848 = EDGE_CURVE('',#849,#849,#851,.T.);
#849 = VERTEX_POINT('',#850);
#850 = CARTESIAN_POINT('',(360.,10.,-1.75));
#851 = CIRCLE('',#852,1.75);
#852 = AXIS2_PLACEMENT_3D('',#853,#854,#855);
#853 = CARTESIAN_POINT('',(360.,10.,-3.E-15));
#854 = DIRECTION('',(0.,-1.,1.E-15));
#855 = DIRECTION('',(0.,-1.E-15,-1.));
#856 = FACE_BOUND('',#857,.F.);
#857 = EDGE_LOOP('',(#858));
#858 = ORIENTED_EDGE('',*,*,#859,.F.);
#859 = EDGE_CURVE('',#860,#860,#862,.T.);
#860 = VERTEX_POINT('',#861);
#861 = CARTESIAN_POINT('',(320.,10.,-1.75));
#862 = CIRCLE('',#863,1.75);
#863 = AXIS2_PLACEMENT_3D('',#864,#865,#866);
#864 = CARTESIAN_POINT('',(320.,10.,-3.E-15));
#865 = DIRECTION('',(0.,-1.,1.E-15));
#866 = DIRECTION('',(0.,-1.E-15,-1.));
#867 = FACE_BOUND('',#868,.F.);
#868 = EDGE_LOOP('',(#869));
#869 = ORIENTED_EDGE('',*,*,#870,.F.);
#870 = EDGE_CURVE('',#871,#871,#873,.T.);
#871 = VERTEX_POINT('',#872);
#872 = CARTESIAN_POINT('',(240.,10.,-1.75));
#873 = CIRCLE('',#874,1.75);
#874 = AXIS2_PLACEMENT_3D('',#875,#876,#877);
#875 = CARTESIAN_POINT('',(240.,10.,-3.E-15));
#876 = DIRECTION('',(0.,-1.,1.E-15));
#877 = DIRECTION('',(0.,-1.E-15,-1.));
#878 = FACE_BOUND('',#879,.F.);
#879 = EDGE_LOOP('',(#880));
#880 = ORIENTED_EDGE('',*,*,#881,.F.);
#881 = EDGE_CURVE('',#882,#882,#884,.T.);
#882 = VERTEX_POINT('',#883);
#883 = CARTESIAN_POINT('',(280.,10.,-1.75));
#884 = CIRCLE('',#885,1.75);
#885 = AXIS2_PLACEMENT_3D('',#886,#887,#888);
#886 = CARTESIAN_POINT('',(280.,10.,-3.E-15));
#887 = DIRECTION('',(0.,-1.,1.E-15));
#888 = DIRECTION('',(0.,-1.E-15,-1.));
#889 = FACE_BOUND('',#890,.F.);
#890 = EDGE_LOOP('',(#891));
#891 = ORIENTED_EDGE('',*,*,#892,.F.);
#892 = EDGE_CURVE('',#893,#893,#895,.T.);
#893 = VERTEX_POINT('',#894);
#894 = CARTESIAN_POINT('',(160.,10.,-1.75));
#895 = CIRCLE('',#896,1.75);
#896 = AXIS2_PLACEMENT_3D('',#897,#898,#899);
#897 = CARTESIAN_POINT('',(160.,10.,-3.E-15));
#898 = DIRECTION('',(0.,-1.,1.E-15));
#899 = DIRECTION('',(0.,-1.E-15,-1.));
#900 = FACE_BOUND('',#901,.F.);
#901 = EDGE_LOOP('',(#902));
#902 = ORIENTED_EDGE('',*,*,#903,.F.);
#903 = EDGE_CURVE('',#904,#904,#906,.T.);
#904 = VERTEX_POINT('',#905);
#905 = CARTESIAN_POINT('',(200.,10.,-1.75));
#906 = CIRCLE('',#907,1.75);
#907 = AXIS2_PLACEMENT_3D('',#908,#909,#910);
#908 = CARTESIAN_POINT('',(200.,10.,-3.E-15));
#909 = DIRECTION('',(0.,-1.,1.E-15));
#910 = DIRECTION('',(0.,-1.E-15,-1.));
#911 = FACE_BOUND('',#912,.F.);
#912 = EDGE_LOOP('',(#913));
#913 = ORIENTED_EDGE('',*,*,#914,.F.);
#914 = EDGE_CURVE('',#915,#915,#917,.T.);
#915 = VERTEX_POINT('',#916);
#916 = CARTESIAN_POINT('',(120.,10.,-1.75));
#917 = CIRCLE('',#918,1.75);
#918 = AXIS2_PLACEMENT_3D('',#919,#920,#921);
#919 = CARTESIAN_POINT('',(120.,10.,-3.E-15));
#920 = DIRECTION('',(0.,-1.,1.E-15));
#921 = DIRECTION('',(0.,-1.E-15,-1.));
#922 = FACE_BOUND('',#923,.F.);
#923 = EDGE_LOOP('',(#924));
#924 = ORIENTED_EDGE('',*,*,#925,.F.);
#925 = EDGE_CURVE('',#926,#926,#928,.T.);
#926 = VERTEX_POINT('',#927);
#927 = CARTESIAN_POINT('',(-360.,10.,-1.75));
#928 = CIRCLE('',#929,1.75);
#929 = AXIS2_PLACEMENT_3D('',#930,#931,#932);
#930 = CARTESIAN_POINT('',(-360.,10.,-3.E-15));
#931 = DIRECTION('',(0.,-1.,1.E-15));
#932 = DIRECTION('',(0.,-1.E-15,-1.));
#933 = FACE_BOUND('',#934,.F.);
#934 = EDGE_LOOP('',(#935));
#935 = ORIENTED_EDGE('',*,*,#936,.F.);
#936 = EDGE_CURVE('',#937,#937,#939,.T.);
#937 = VERTEX_POINT('',#938);
#938 = CARTESIAN_POINT('',(-320.,10.,-1.75));
#939 = CIRCLE('',#940,1.75);
#940 = AXIS2_PLACEMENT_3D('',#941,#942,#943);
#941 = CARTESIAN_POINT('',(-320.,10.,-3.E-15));
#942 = DIRECTION('',(0.,-1.,1.E-15));
#943 = DIRECTION('',(0.,-1.E-15,-1.));
#944 = FACE_BOUND('',#945,.F.);
#945 = EDGE_LOOP('',(#946));
#946 = ORIENTED_EDGE('',*,*,#947,.F.);
#947 = EDGE_CURVE('',#948,#948,#950,.T.);
#948 = VERTEX_POINT('',#949);
#949 = CARTESIAN_POINT('',(-280.,10.,-1.75));
#950 = CIRCLE('',#951,1.75);
#951 = AXIS2_PLACEMENT_3D('',#952,#953,#954);
#952 = CARTESIAN_POINT('',(-280.,10.,-3.E-15));
#953 = DIRECTION('',(0.,-1.,1.E-15));
#954 = DIRECTION('',(0.,-1.E-15,-1.));
#955 = FACE_BOUND('',#956,.F.);
#956 = EDGE_LOOP('',(#957));
#957 = ORIENTED_EDGE('',*,*,#958,.F.);
#958 = EDGE_CURVE('',#959,#959,#961,.T.);
#959 = VERTEX_POINT('',#960);
#960 = CARTESIAN_POINT('',(-200.,10.,-1.75));
#961 = CIRCLE('',#962,1.75);
#962 = AXIS2_PLACEMENT_3D('',#963,#964,#965);
#963 = CARTESIAN_POINT('',(-200.,10.,-3.E-15));
#964 = DIRECTION('',(0.,-1.,1.E-15));
#965 = DIRECTION('',(0.,-1.E-15,-1.));
#966 = FACE_BOUND('',#967,.F.);
#967 = EDGE_LOOP('',(#968));
#968 = ORIENTED_EDGE('',*,*,#969,.F.);
#969 = EDGE_CURVE('',#970,#970,#972,.T.);
#970 = VERTEX_POINT('',#971);
#971 = CARTESIAN_POINT('',(-240.,10.,-1.75));
#972 = CIRCLE('',#973,1.75);
#973 = AXIS2_PLACEMENT_3D('',#974,#975,#976);
#974 = CARTESIAN_POINT('',(-240.,10.,-3.E-15));
#975 = DIRECTION('',(0.,-1.,1.E-15));
#976 = DIRECTION('',(0.,-1.E-15,-1.));
#977 = PLANE('',#978);
#978 = AXIS2_PLACEMENT_3D('',#979,#980,#981);
#979 = CARTESIAN_POINT('',(-375.,10.,-7.5));
#980 = DIRECTION('',(2.8E-16,-1.,4.4E-16));
#981 = DIRECTION('',(-2.2E-16,4.4E-16,1.));
#982 = ADVANCED_FACE('',(#983),#994,.F.);
#983 = FACE_BOUND('',#984,.F.);
#984 = EDGE_LOOP('',(#985,#986,#987,#993));
#985 = ORIENTED_EDGE('',*,*,#762,.T.);
#986 = ORIENTED_EDGE('',*,*,#334,.T.);
#987 = ORIENTED_EDGE('',*,*,#988,.F.);
#988 = EDGE_CURVE('',#206,#335,#989,.T.);
#989 = LINE('',#990,#991);
#990 = CARTESIAN_POINT('',(-375.,8.,7.5));
#991 = VECTOR('',#992,1.);
#992 = DIRECTION('',(1.,2.8E-16,4.4E-16));
#993 = ORIENTED_EDGE('',*,*,#205,.F.);
#994 = PLANE('',#995);
#995 = AXIS2_PLACEMENT_3D('',#996,#997,#998);
#996 = CARTESIAN_POINT('',(-375.,10.,7.5));
#997 = DIRECTION('',(4.4E-16,-2.2E-16,-1.));
#998 = DIRECTION('',(4.4E-16,-1.,2.2E-16));
#999 = ADVANCED_FACE('',(#1000),#1011,.T.);
#1000 = FACE_BOUND('',#1001,.T.);
#1001 = EDGE_LOOP('',(#1002,#1008,#1009,#1010));
#1002 = ORIENTED_EDGE('',*,*,#1003,.T.);
#1003 = EDGE_CURVE('',#214,#343,#1004,.T.);
#1004 = LINE('',#1005,#1006);
#1005 = CARTESIAN_POINT('',(-375.,7.088675134595,6.973846343639));
#1006 = VECTOR('',#1007,1.);
#1007 = DIRECTION('',(1.,2.8E-16,4.4E-16));
#1008 = ORIENTED_EDGE('',*,*,#342,.T.);
#1009 = ORIENTED_EDGE('',*,*,#988,.F.);
#1010 = ORIENTED_EDGE('',*,*,#213,.F.);
#1011 = PLANE('',#1012);
#1012 = AXIS2_PLACEMENT_3D('',#1013,#1014,#1015);
#1013 = CARTESIAN_POINT('',(-375.,7.088675134595,6.973846343639));
#1014 = DIRECTION('',(-2.5E-16,-0.5,0.866025403784));
#1015 = DIRECTION('',(-5.E-16,0.866025403784,0.5));
#1016 = ADVANCED_FACE('',(#1017),#1028,.T.);
#1017 = FACE_BOUND('',#1018,.T.);
#1018 = EDGE_LOOP('',(#1019,#1025,#1026,#1027));
#1019 = ORIENTED_EDGE('',*,*,#1020,.T.);
#1020 = EDGE_CURVE('',#222,#351,#1021,.T.);
#1021 = LINE('',#1022,#1023);
#1022 = CARTESIAN_POINT('',(-375.,7.088675134595,5.9));
#1023 = VECTOR('',#1024,1.);
#1024 = DIRECTION('',(1.,2.8E-16,4.4E-16));
#1025 = ORIENTED_EDGE('',*,*,#350,.T.);
#1026 = ORIENTED_EDGE('',*,*,#1003,.F.);
#1027 = ORIENTED_EDGE('',*,*,#221,.F.);
#1028 = PLANE('',#1029);
#1029 = AXIS2_PLACEMENT_3D('',#1030,#1031,#1032);
#1030 = CARTESIAN_POINT('',(-375.,7.088675134595,5.9));
#1031 = DIRECTION('',(2.8E-16,-1.,9.96E-15));
#1032 = DIRECTION('',(-2.2E-16,9.96E-15,1.));
#1033 = ADVANCED_FACE('',(#1034),#1040,.F.);
#1034 = FACE_BOUND('',#1035,.F.);
#1035 = EDGE_LOOP('',(#1036,#1037,#1038,#1039));
#1036 = ORIENTED_EDGE('',*,*,#1020,.T.);
#1037 = ORIENTED_EDGE('',*,*,#358,.T.);
#1038 = ORIENTED_EDGE('',*,*,#383,.F.);
#1039 = ORIENTED_EDGE('',*,*,#229,.F.);
#1040 = PLANE('',#1041);
#1041 = AXIS2_PLACEMENT_3D('',#1042,#1043,#1044);
#1042 = CARTESIAN_POINT('',(-375.,7.088675134595,5.9));
#1043 = DIRECTION('',(4.4E-16,-2.2E-16,-1.));
#1044 = DIRECTION('',(4.4E-16,-1.,2.2E-16));
#1045 = ADVANCED_FACE('',(#1046),#1057,.F.);
#1046 = FACE_BOUND('',#1047,.F.);
#1047 = EDGE_LOOP('',(#1048,#1054,#1055,#1056));
#1048 = ORIENTED_EDGE('',*,*,#1049,.T.);
#1049 = EDGE_CURVE('',#410,#772,#1050,.T.);
#1050 = LINE('',#1051,#1052);
#1051 = CARTESIAN_POINT('',(-160.,8.082423619271E-14,-1.75));
#1052 = VECTOR('',#1053,1.);
#1053 = DIRECTION('',(-6.1E-16,1.,-5.6E-16));
#1054 = ORIENTED_EDGE('',*,*,#771,.T.);
#1055 = ORIENTED_EDGE('',*,*,#1049,.F.);
#1056 = ORIENTED_EDGE('',*,*,#409,.F.);
#1057 = CYLINDRICAL_SURFACE('',#1058,1.75);
#1058 = AXIS2_PLACEMENT_3D('',#1059,#1060,#1061);
#1059 = CARTESIAN_POINT('',(-160.,8.171241461241E-14,9.825E-14));
#1060 = DIRECTION('',(3.9E-16,-1.,7.8E-16));
#1061 = DIRECTION('',(2.2E-16,-7.8E-16,-1.));
#1062 = ADVANCED_FACE('',(#1063),#1074,.F.);
#1063 = FACE_BOUND('',#1064,.F.);
#1064 = EDGE_LOOP('',(#1065,#1071,#1072,#1073));
#1065 = ORIENTED_EDGE('',*,*,#1066,.T.);
#1066 = EDGE_CURVE('',#421,#794,#1067,.T.);
#1067 = LINE('',#1068,#1069);
#1068 = CARTESIAN_POINT('',(-120.,9.592326932761E-14,-1.75));
#1069 = VECTOR('',#1070,1.);
#1070 = DIRECTION('',(-6.1E-16,1.,-5.6E-16));
#1071 = ORIENTED_EDGE('',*,*,#793,.T.);
#1072 = ORIENTED_EDGE('',*,*,#1066,.F.);
#1073 = ORIENTED_EDGE('',*,*,#420,.F.);
#1074 = CYLINDRICAL_SURFACE('',#1075,1.75);
#1075 = AXIS2_PLACEMENT_3D('',#1076,#1077,#1078);
#1076 = CARTESIAN_POINT('',(-120.,9.769962616701E-14,1.1602E-13));
#1077 = DIRECTION('',(3.9E-16,-1.,7.8E-16));
#1078 = DIRECTION('',(2.2E-16,-7.8E-16,-1.));
#1079 = ADVANCED_FACE('',(#1080),#1091,.F.);
#1080 = FACE_BOUND('',#1081,.F.);
#1081 = EDGE_LOOP('',(#1082,#1088,#1089,#1090));
#1082 = ORIENTED_EDGE('',*,*,#1083,.T.);
#1083 = EDGE_CURVE('',#432,#783,#1084,.T.);
#1084 = LINE('',#1085,#1086);
#1085 = CARTESIAN_POINT('',(-80.,1.119104808822E-13,-1.75));
#1086 = VECTOR('',#1087,1.);
#1087 = DIRECTION('',(-6.1E-16,1.,-5.6E-16));
#1088 = ORIENTED_EDGE('',*,*,#782,.T.);
#1089 = ORIENTED_EDGE('',*,*,#1083,.F.);
#1090 = ORIENTED_EDGE('',*,*,#431,.F.);
#1091 = CYLINDRICAL_SURFACE('',#1092,1.75);
#1092 = AXIS2_PLACEMENT_3D('',#1093,#1094,#1095);
#1093 = CARTESIAN_POINT('',(-80.,1.127986593019E-13,1.3378E-13));
#1094 = DIRECTION('',(3.9E-16,-1.,7.8E-16));
#1095 = DIRECTION('',(2.2E-16,-7.8E-16,-1.));
#1096 = ADVANCED_FACE('',(#1097),#1108,.F.);
#1097 = FACE_BOUND('',#1098,.F.);
#1098 = EDGE_LOOP('',(#1099,#1105,#1106,#1107));
#1099 = ORIENTED_EDGE('',*,*,#1100,.T.);
#1100 = EDGE_CURVE('',#443,#827,#1101,.T.);
#1101 = LINE('',#1102,#1103);
#1102 = CARTESIAN_POINT('',(-40.,1.270095140171E-13,-1.75));
#1103 = VECTOR('',#1104,1.);
#1104 = DIRECTION('',(-6.1E-16,1.,-5.6E-16));
#1105 = ORIENTED_EDGE('',*,*,#826,.T.);
#1106 = ORIENTED_EDGE('',*,*,#1100,.F.);
#1107 = ORIENTED_EDGE('',*,*,#442,.F.);
#1108 = CYLINDRICAL_SURFACE('',#1109,1.75);
#1109 = AXIS2_PLACEMENT_3D('',#1110,#1111,#1112);
#1110 = CARTESIAN_POINT('',(-40.,1.287858708565E-13,1.5155E-13));
#1111 = DIRECTION('',(3.9E-16,-1.,7.8E-16));
#1112 = DIRECTION('',(2.2E-16,-7.8E-16,-1.));
#1113 = ADVANCED_FACE('',(#1114),#1125,.F.);
#1114 = FACE_BOUND('',#1115,.F.);
#1115 = EDGE_LOOP('',(#1116,#1122,#1123,#1124));
#1116 = ORIENTED_EDGE('',*,*,#1117,.T.);
#1117 = EDGE_CURVE('',#454,#805,#1118,.T.);
#1118 = LINE('',#1119,#1120);
#1119 = CARTESIAN_POINT('',(80.,1.740829702612E-13,-1.75));
#1120 = VECTOR('',#1121,1.);
#1121 = DIRECTION('',(-6.1E-16,1.,-5.6E-16));
#1122 = ORIENTED_EDGE('',*,*,#804,.T.);
#1123 = ORIENTED_EDGE('',*,*,#1117,.F.);
#1124 = ORIENTED_EDGE('',*,*,#453,.F.);
#1125 = CYLINDRICAL_SURFACE('',#1126,1.75);
#1126 = AXIS2_PLACEMENT_3D('',#1127,#1128,#1129);
#1127 = CARTESIAN_POINT('',(80.,1.749711486809E-13,2.0484E-13));
#1128 = DIRECTION('',(3.9E-16,-1.,7.8E-16));
#1129 = DIRECTION('',(2.2E-16,-7.8E-16,-1.));
#1130 = ADVANCED_FACE('',(#1131),#1142,.F.);
#1131 = FACE_BOUND('',#1132,.F.);
#1132 = EDGE_LOOP('',(#1133,#1139,#1140,#1141));
#1133 = ORIENTED_EDGE('',*,*,#1134,.T.);
#1134 = EDGE_CURVE('',#465,#816,#1135,.T.);
#1135 = LINE('',#1136,#1137);
#1136 = CARTESIAN_POINT('',(40.,1.580957587066E-13,-1.75));
#1137 = VECTOR('',#1138,1.);
#1138 = DIRECTION('',(-6.1E-16,1.,-5.6E-16));
#1139 = ORIENTED_EDGE('',*,*,#815,.T.);
#1140 = ORIENTED_EDGE('',*,*,#1134,.F.);
#1141 = ORIENTED_EDGE('',*,*,#464,.F.);
#1142 = CYLINDRICAL_SURFACE('',#1143,1.75);
#1143 = AXIS2_PLACEMENT_3D('',#1144,#1145,#1146);
#1144 = CARTESIAN_POINT('',(40.,1.59872115546E-13,1.8707E-13));
#1145 = DIRECTION('',(3.9E-16,-1.,7.8E-16));
#1146 = DIRECTION('',(2.2E-16,-7.8E-16,-1.));
#1147 = ADVANCED_FACE('',(#1148),#1159,.F.);
#1148 = FACE_BOUND('',#1149,.F.);
#1149 = EDGE_LOOP('',(#1150,#1156,#1157,#1158));
#1150 = ORIENTED_EDGE('',*,*,#1151,.T.);
#1151 = EDGE_CURVE('',#476,#838,#1152,.T.);
#1152 = LINE('',#1153,#1154);
#1153 = CARTESIAN_POINT('',(5.684341886081E-14,1.429967255717E-13,-1.75)
  );
#1154 = VECTOR('',#1155,1.);
#1155 = DIRECTION('',(-6.1E-16,1.,-5.6E-16));
#1156 = ORIENTED_EDGE('',*,*,#837,.T.);
#1157 = ORIENTED_EDGE('',*,*,#1151,.F.);
#1158 = ORIENTED_EDGE('',*,*,#475,.F.);
#1159 = CYLINDRICAL_SURFACE('',#1160,1.75);
#1160 = AXIS2_PLACEMENT_3D('',#1161,#1162,#1163);
#1161 = CARTESIAN_POINT('',(5.684341886081E-14,1.438849039914E-13,
    1.6931E-13));
#1162 = DIRECTION('',(3.9E-16,-1.,7.8E-16));
#1163 = DIRECTION('',(2.2E-16,-7.8E-16,-1.));
#1164 = ADVANCED_FACE('',(#1165),#1176,.F.);
#1165 = FACE_BOUND('',#1166,.F.);
#1166 = EDGE_LOOP('',(#1167,#1173,#1174,#1175));
#1167 = ORIENTED_EDGE('',*,*,#1168,.T.);
#1168 = EDGE_CURVE('',#487,#849,#1169,.T.);
#1169 = LINE('',#1170,#1171);
#1170 = CARTESIAN_POINT('',(360.,2.824407374646E-13,-1.75));
#1171 = VECTOR('',#1172,1.);
#1172 = DIRECTION('',(-6.1E-16,1.,-5.6E-16));
#1173 = ORIENTED_EDGE('',*,*,#848,.T.);
#1174 = ORIENTED_EDGE('',*,*,#1168,.F.);
#1175 = ORIENTED_EDGE('',*,*,#486,.F.);
#1176 = CYLINDRICAL_SURFACE('',#1177,1.75);
#1177 = AXIS2_PLACEMENT_3D('',#1178,#1179,#1180);
#1178 = CARTESIAN_POINT('',(360.,2.84217094304E-13,3.2918E-13));
#1179 = DIRECTION('',(3.9E-16,-1.,7.8E-16));
#1180 = DIRECTION('',(2.2E-16,-7.8E-16,-1.));
#1181 = ADVANCED_FACE('',(#1182),#1193,.F.);
#1182 = FACE_BOUND('',#1183,.F.);
#1183 = EDGE_LOOP('',(#1184,#1190,#1191,#1192));
#1184 = ORIENTED_EDGE('',*,*,#1185,.T.);
#1185 = EDGE_CURVE('',#498,#860,#1186,.T.);
#1186 = LINE('',#1187,#1188);
#1187 = CARTESIAN_POINT('',(320.,2.673417043297E-13,-1.75));
#1188 = VECTOR('',#1189,1.);
#1189 = DIRECTION('',(-6.1E-16,1.,-5.6E-16));
#1190 = ORIENTED_EDGE('',*,*,#859,.T.);
#1191 = ORIENTED_EDGE('',*,*,#1185,.F.);
#1192 = ORIENTED_EDGE('',*,*,#497,.F.);
#1193 = CYLINDRICAL_SURFACE('',#1194,1.75);
#1194 = AXIS2_PLACEMENT_3D('',#1195,#1196,#1197);
#1195 = CARTESIAN_POINT('',(320.,2.682298827494E-13,3.1142E-13));
#1196 = DIRECTION('',(3.9E-16,-1.,7.8E-16));
#1197 = DIRECTION('',(2.2E-16,-7.8E-16,-1.));
#1198 = ADVANCED_FACE('',(#1199),#1210,.F.);
#1199 = FACE_BOUND('',#1200,.F.);
#1200 = EDGE_LOOP('',(#1201,#1207,#1208,#1209));
#1201 = ORIENTED_EDGE('',*,*,#1202,.T.);
#1202 = EDGE_CURVE('',#509,#871,#1203,.T.);
#1203 = LINE('',#1204,#1205);
#1204 = CARTESIAN_POINT('',(240.,2.362554596402E-13,-1.75));
#1205 = VECTOR('',#1206,1.);
#1206 = DIRECTION('',(-6.1E-16,1.,-5.6E-16));
#1207 = ORIENTED_EDGE('',*,*,#870,.T.);
#1208 = ORIENTED_EDGE('',*,*,#1202,.F.);
#1209 = ORIENTED_EDGE('',*,*,#508,.F.);
#1210 = CYLINDRICAL_SURFACE('',#1211,1.75);
#1211 = AXIS2_PLACEMENT_3D('',#1212,#1213,#1214);
#1212 = CARTESIAN_POINT('',(240.,2.371436380599E-13,2.7589E-13));
#1213 = DIRECTION('',(3.9E-16,-1.,7.8E-16));
#1214 = DIRECTION('',(2.2E-16,-7.8E-16,-1.));
#1215 = ADVANCED_FACE('',(#1216),#1227,.F.);
#1216 = FACE_BOUND('',#1217,.F.);
#1217 = EDGE_LOOP('',(#1218,#1224,#1225,#1226));
#1218 = ORIENTED_EDGE('',*,*,#1219,.T.);
#1219 = EDGE_CURVE('',#520,#882,#1220,.T.);
#1220 = LINE('',#1221,#1222);
#1221 = CARTESIAN_POINT('',(280.,2.513544927751E-13,-1.75));
#1222 = VECTOR('',#1223,1.);
#1223 = DIRECTION('',(-6.1E-16,1.,-5.6E-16));
#1224 = ORIENTED_EDGE('',*,*,#881,.T.);
#1225 = ORIENTED_EDGE('',*,*,#1219,.F.);
#1226 = ORIENTED_EDGE('',*,*,#519,.F.);
#1227 = CYLINDRICAL_SURFACE('',#1228,1.75);
#1228 = AXIS2_PLACEMENT_3D('',#1229,#1230,#1231);
#1229 = CARTESIAN_POINT('',(280.,2.531308496145E-13,2.9365E-13));
#1230 = DIRECTION('',(3.9E-16,-1.,7.8E-16));
#1231 = DIRECTION('',(2.2E-16,-7.8E-16,-1.));
#1232 = ADVANCED_FACE('',(#1233),#1244,.F.);
#1233 = FACE_BOUND('',#1234,.F.);
#1234 = EDGE_LOOP('',(#1235,#1241,#1242,#1243));
#1235 = ORIENTED_EDGE('',*,*,#1236,.T.);
#1236 = EDGE_CURVE('',#531,#893,#1237,.T.);
#1237 = LINE('',#1238,#1239);
#1238 = CARTESIAN_POINT('',(160.,2.051692149507E-13,-1.75));
#1239 = VECTOR('',#1240,1.);
#1240 = DIRECTION('',(-6.1E-16,1.,-5.6E-16));
#1241 = ORIENTED_EDGE('',*,*,#892,.T.);
#1242 = ORIENTED_EDGE('',*,*,#1236,.F.);
#1243 = ORIENTED_EDGE('',*,*,#530,.F.);
#1244 = CYLINDRICAL_SURFACE('',#1245,1.75);
#1245 = AXIS2_PLACEMENT_3D('',#1246,#1247,#1248);
#1246 = CARTESIAN_POINT('',(160.,2.060573933704E-13,2.4036E-13));
#1247 = DIRECTION('',(3.9E-16,-1.,7.8E-16));
#1248 = DIRECTION('',(2.2E-16,-7.8E-16,-1.));
#1249 = ADVANCED_FACE('',(#1250),#1261,.F.);
#1250 = FACE_BOUND('',#1251,.F.);
#1251 = EDGE_LOOP('',(#1252,#1258,#1259,#1260));
#1252 = ORIENTED_EDGE('',*,*,#1253,.T.);
#1253 = EDGE_CURVE('',#542,#904,#1254,.T.);
#1254 = LINE('',#1255,#1256);
#1255 = CARTESIAN_POINT('',(200.,2.202682480856E-13,-1.75));
#1256 = VECTOR('',#1257,1.);
#1257 = DIRECTION('',(-6.1E-16,1.,-5.6E-16));
#1258 = ORIENTED_EDGE('',*,*,#903,.T.);
#1259 = ORIENTED_EDGE('',*,*,#1253,.F.);
#1260 = ORIENTED_EDGE('',*,*,#541,.F.);
#1261 = CYLINDRICAL_SURFACE('',#1262,1.75);
#1262 = AXIS2_PLACEMENT_3D('',#1263,#1264,#1265);
#1263 = CARTESIAN_POINT('',(200.,2.22044604925E-13,2.5813E-13));
#1264 = DIRECTION('',(3.9E-16,-1.,7.8E-16));
#1265 = DIRECTION('',(2.2E-16,-7.8E-16,-1.));
#1266 = ADVANCED_FACE('',(#1267),#1278,.F.);
#1267 = FACE_BOUND('',#1268,.F.);
#1268 = EDGE_LOOP('',(#1269,#1275,#1276,#1277));
#1269 = ORIENTED_EDGE('',*,*,#1270,.T.);
#1270 = EDGE_CURVE('',#553,#915,#1271,.T.);
#1271 = LINE('',#1272,#1273);
#1272 = CARTESIAN_POINT('',(120.,1.891820033961E-13,-1.75));
#1273 = VECTOR('',#1274,1.);
#1274 = DIRECTION('',(-6.1E-16,1.,-5.6E-16));
#1275 = ORIENTED_EDGE('',*,*,#914,.T.);
#1276 = ORIENTED_EDGE('',*,*,#1270,.F.);
#1277 = ORIENTED_EDGE('',*,*,#552,.F.);
#1278 = CYLINDRICAL_SURFACE('',#1279,1.75);
#1279 = AXIS2_PLACEMENT_3D('',#1280,#1281,#1282);
#1280 = CARTESIAN_POINT('',(120.,1.909583602355E-13,2.226E-13));
#1281 = DIRECTION('',(3.9E-16,-1.,7.8E-16));
#1282 = DIRECTION('',(2.2E-16,-7.8E-16,-1.));
#1283 = ADVANCED_FACE('',(#1284),#1295,.F.);
#1284 = FACE_BOUND('',#1285,.F.);
#1285 = EDGE_LOOP('',(#1286,#1292,#1293,#1294));
#1286 = ORIENTED_EDGE('',*,*,#1287,.T.);
#1287 = EDGE_CURVE('',#564,#926,#1288,.T.);
#1288 = LINE('',#1289,#1290);
#1289 = CARTESIAN_POINT('',(-360.,2.6645352591E-15,-1.75));
#1290 = VECTOR('',#1291,1.);
#1291 = DIRECTION('',(-6.1E-16,1.,-5.6E-16));
#1292 = ORIENTED_EDGE('',*,*,#925,.T.);
#1293 = ORIENTED_EDGE('',*,*,#1287,.F.);
#1294 = ORIENTED_EDGE('',*,*,#563,.F.);
#1295 = CYLINDRICAL_SURFACE('',#1296,1.75);
#1296 = AXIS2_PLACEMENT_3D('',#1297,#1298,#1299);
#1297 = CARTESIAN_POINT('',(-360.,4.440892098501E-15,9.44E-15));
#1298 = DIRECTION('',(3.9E-16,-1.,7.8E-16));
#1299 = DIRECTION('',(2.2E-16,-7.8E-16,-1.));
#1300 = ADVANCED_FACE('',(#1301),#1312,.F.);
#1301 = FACE_BOUND('',#1302,.F.);
#1302 = EDGE_LOOP('',(#1303,#1309,#1310,#1311));
#1303 = ORIENTED_EDGE('',*,*,#1304,.T.);
#1304 = EDGE_CURVE('',#575,#937,#1305,.T.);
#1305 = LINE('',#1306,#1307);
#1306 = CARTESIAN_POINT('',(-320.,1.86517468137E-14,-1.75));
#1307 = VECTOR('',#1308,1.);
#1308 = DIRECTION('',(-6.1E-16,1.,-5.6E-16));
#1309 = ORIENTED_EDGE('',*,*,#936,.T.);
#1310 = ORIENTED_EDGE('',*,*,#1304,.F.);
#1311 = ORIENTED_EDGE('',*,*,#574,.F.);
#1312 = CYLINDRICAL_SURFACE('',#1313,1.75);
#1313 = AXIS2_PLACEMENT_3D('',#1314,#1315,#1316);
#1314 = CARTESIAN_POINT('',(-320.,1.95399252334E-14,2.72E-14));
#1315 = DIRECTION('',(3.9E-16,-1.,7.8E-16));
#1316 = DIRECTION('',(2.2E-16,-7.8E-16,-1.));
#1317 = ADVANCED_FACE('',(#1318),#1329,.F.);
#1318 = FACE_BOUND('',#1319,.F.);
#1319 = EDGE_LOOP('',(#1320,#1326,#1327,#1328));
#1320 = ORIENTED_EDGE('',*,*,#1321,.T.);
#1321 = EDGE_CURVE('',#586,#948,#1322,.T.);
#1322 = LINE('',#1323,#1324);
#1323 = CARTESIAN_POINT('',(-280.,3.37507799486E-14,-1.75));
#1324 = VECTOR('',#1325,1.);
#1325 = DIRECTION('',(-6.1E-16,1.,-5.6E-16));
#1326 = ORIENTED_EDGE('',*,*,#947,.T.);
#1327 = ORIENTED_EDGE('',*,*,#1321,.F.);
#1328 = ORIENTED_EDGE('',*,*,#585,.F.);
#1329 = CYLINDRICAL_SURFACE('',#1330,1.75);
#1330 = AXIS2_PLACEMENT_3D('',#1331,#1332,#1333);
#1331 = CARTESIAN_POINT('',(-280.,3.552713678801E-14,4.496E-14));
#1332 = DIRECTION('',(3.9E-16,-1.,7.8E-16));
#1333 = DIRECTION('',(2.2E-16,-7.8E-16,-1.));
#1334 = ADVANCED_FACE('',(#1335),#1346,.F.);
#1335 = FACE_BOUND('',#1336,.F.);
#1336 = EDGE_LOOP('',(#1337,#1343,#1344,#1345));
#1337 = ORIENTED_EDGE('',*,*,#1338,.T.);
#1338 = EDGE_CURVE('',#597,#959,#1339,.T.);
#1339 = LINE('',#1340,#1341);
#1340 = CARTESIAN_POINT('',(-200.,6.483702463811E-14,-1.75));
#1341 = VECTOR('',#1342,1.);
#1342 = DIRECTION('',(-6.1E-16,1.,-5.6E-16));
#1343 = ORIENTED_EDGE('',*,*,#958,.T.);
#1344 = ORIENTED_EDGE('',*,*,#1338,.F.);
#1345 = ORIENTED_EDGE('',*,*,#596,.F.);
#1346 = CYLINDRICAL_SURFACE('',#1347,1.75);
#1347 = AXIS2_PLACEMENT_3D('',#1348,#1349,#1350);
#1348 = CARTESIAN_POINT('',(-200.,6.661338147751E-14,8.049E-14));
#1349 = DIRECTION('',(3.9E-16,-1.,7.8E-16));
#1350 = DIRECTION('',(2.2E-16,-7.8E-16,-1.));
#1351 = ADVANCED_FACE('',(#1352),#1363,.F.);
#1352 = FACE_BOUND('',#1353,.F.);
#1353 = EDGE_LOOP('',(#1354,#1360,#1361,#1362));
#1354 = ORIENTED_EDGE('',*,*,#1355,.T.);
#1355 = EDGE_CURVE('',#608,#970,#1356,.T.);
#1356 = LINE('',#1357,#1358);
#1357 = CARTESIAN_POINT('',(-240.,4.973799150321E-14,-1.75));
#1358 = VECTOR('',#1359,1.);
#1359 = DIRECTION('',(-6.1E-16,1.,-5.6E-16));
#1360 = ORIENTED_EDGE('',*,*,#969,.T.);
#1361 = ORIENTED_EDGE('',*,*,#1355,.F.);
#1362 = ORIENTED_EDGE('',*,*,#607,.F.);
#1363 = CYLINDRICAL_SURFACE('',#1364,1.75);
#1364 = AXIS2_PLACEMENT_3D('',#1365,#1366,#1367);
#1365 = CARTESIAN_POINT('',(-240.,5.062616992291E-14,6.273E-14));
#1366 = DIRECTION('',(3.9E-16,-1.,7.8E-16));
#1367 = DIRECTION('',(2.2E-16,-7.8E-16,-1.));
#1368 = ( GEOMETRIC_REPRESENTATION_CONTEXT(3) 
GLOBAL_UNCERTAINTY_ASSIGNED_CONTEXT((#1372)) 
GLOBAL_UNIT_ASSIGNED_CONTEXT((#1369,#1370,#1371)) REPRESENTATION_CONTEXT
('Context #1','3D Context with UNIT and UNCERTAINTY') );
#1369 = ( LENGTH_UNIT() NAMED_UNIT(*) SI_UNIT(.MILLI.,.METRE.) );
#1370 = ( NAMED_UNIT(*) PLANE_ANGLE_UNIT() SI_UNIT($,.RADIAN.) );
#1371 = ( NAMED_UNIT(*) SI_UNIT($,.STERADIAN.) SOLID_ANGLE_UNIT() );
#1372 = UNCERTAINTY_MEASURE_WITH_UNIT(LENGTH_MEASURE(1.E-07),#1369,
  'distance_accuracy_value','confusion accuracy');
#1373 = PRODUCT_RELATED_PRODUCT_CATEGORY('part',$,(#7));
#1374 = MECHANICAL_DESIGN_GEOMETRIC_PRESENTATION_REPRESENTATION('',(
    #1375),#1368);
#1375 = STYLED_ITEM('color',(#1376),#15);
#1376 = PRESENTATION_STYLE_ASSIGNMENT((#1377,#1383));
#1377 = SURFACE_STYLE_USAGE(.BOTH.,#1378);
#1378 = SURFACE_SIDE_STYLE('',(#1379));
#1379 = SURFACE_STYLE_FILL_AREA(#1380);
#1380 = FILL_AREA_STYLE('',(#1381));
#1381 = FILL_AREA_STYLE_COLOUR('',#1382);
#1382 = COLOUR_RGB('',0.301960796118,0.301960796118,0.301960796118);
#1383 = CURVE_STYLE('',#1384,POSITIVE_LENGTH_MEASURE(0.1),#1382);
#1384 = DRAUGHTING_PRE_DEFINED_CURVE_FONT('continuous');
ENDSEC;
END-ISO-10303-21;
