ISO-10303-21;
HEADER;
FILE_DESCRIPTION(('FreeCAD Model'),'2;1');
FILE_NAME('/home/fandres/Guia_lineal_MGN15_Kande.step',
  '2020-02-10T14:28:30',('Author'),(''),
  'Open CASCADE STEP processor 7.3','FreeCAD','Unknown');
FILE_SCHEMA(('AUTOMOTIVE_DESIGN { 1 0 10303 214 1 1 1 1 }'));
ENDSEC;
DATA;
#1 = APPLICATION_PROTOCOL_DEFINITION('international standard',
  'automotive_design',2000,#2);
#2 = APPLICATION_CONTEXT(
  'core data for automotive mechanical design processes');
#3 = SHAPE_DEFINITION_REPRESENTATION(#4,#10);
#4 = PRODUCT_DEFINITION_SHAPE('','',#5);
#5 = PRODUCT_DEFINITION('design','',#6,#9);
#6 = PRODUCT_DEFINITION_FORMATION('','',#7);
#7 = PRODUCT('Guia_lineal_MGN015_000','Guia_lineal_MGN015_000','',(#8));
#8 = PRODUCT_CONTEXT('',#2,'mechanical');
#9 = PRODUCT_DEFINITION_CONTEXT('part definition',#2,'design');
#10 = ADVANCED_BREP_SHAPE_REPRESENTATION('',(#11,#15),#1242);
#11 = AXIS2_PLACEMENT_3D('',#12,#13,#14);
#12 = CARTESIAN_POINT('',(0.,0.,0.));
#13 = DIRECTION('',(0.,0.,1.));
#14 = DIRECTION('',(1.,0.,-0.));
#15 = MANIFOLD_SOLID_BREP('',#16);
#16 = CLOSED_SHELL('',(#17,#112,#137,#170,#323,#476,#493,#518,#543,#568,
    #593,#618,#635,#657,#674,#746,#763,#780,#797,#814,#831,#848,#860,
    #877,#894,#911,#928,#945,#957,#982,#1007,#1032,#1057,#1077,#1094,
    #1119,#1144,#1169,#1194,#1206,#1218,#1230));
#17 = ADVANCED_FACE('',(#18,#29,#63,#74,#85,#96),#107,.F.);
#18 = FACE_BOUND('',#19,.F.);
#19 = EDGE_LOOP('',(#20));
#20 = ORIENTED_EDGE('',*,*,#21,.T.);
#21 = EDGE_CURVE('',#22,#22,#24,.T.);
#22 = VERTEX_POINT('',#23);
#23 = CARTESIAN_POINT('',(-3.5,5.,20.));
#24 = CIRCLE('',#25,3.5);
#25 = AXIS2_PLACEMENT_3D('',#26,#27,#28);
#26 = CARTESIAN_POINT('',(-1.86517468137E-14,5.,20.));
#27 = DIRECTION('',(1.110223024625E-15,1.,-4.996003610813E-16));
#28 = DIRECTION('',(-1.,1.110223024625E-15,-2.368475785867E-15));
#29 = FACE_BOUND('',#30,.F.);
#30 = EDGE_LOOP('',(#31,#41,#49,#57));
#31 = ORIENTED_EDGE('',*,*,#32,.T.);
#32 = EDGE_CURVE('',#33,#35,#37,.T.);
#33 = VERTEX_POINT('',#34);
#34 = CARTESIAN_POINT('',(7.,5.,-3.996802888651E-15));
#35 = VERTEX_POINT('',#36);
#36 = CARTESIAN_POINT('',(7.,5.,200.));
#37 = LINE('',#38,#39);
#38 = CARTESIAN_POINT('',(7.,5.,-3.996802888651E-15));
#39 = VECTOR('',#40,1.);
#40 = DIRECTION('',(-8.881784197001E-16,4.996003610813E-16,1.));
#41 = ORIENTED_EDGE('',*,*,#42,.T.);
#42 = EDGE_CURVE('',#35,#43,#45,.T.);
#43 = VERTEX_POINT('',#44);
#44 = CARTESIAN_POINT('',(-7.,5.,200.));
#45 = LINE('',#46,#47);
#46 = CARTESIAN_POINT('',(7.,5.,200.));
#47 = VECTOR('',#48,1.);
#48 = DIRECTION('',(-1.,1.110223024625E-15,-2.22044604925E-16));
#49 = ORIENTED_EDGE('',*,*,#50,.F.);
#50 = EDGE_CURVE('',#51,#43,#53,.T.);
#51 = VERTEX_POINT('',#52);
#52 = CARTESIAN_POINT('',(-7.,5.,-7.105427357601E-15));
#53 = LINE('',#54,#55);
#54 = CARTESIAN_POINT('',(-7.,5.,-7.105427357601E-15));
#55 = VECTOR('',#56,1.);
#56 = DIRECTION('',(-8.881784197001E-16,4.996003610813E-16,1.));
#57 = ORIENTED_EDGE('',*,*,#58,.F.);
#58 = EDGE_CURVE('',#33,#51,#59,.T.);
#59 = LINE('',#60,#61);
#60 = CARTESIAN_POINT('',(7.,5.,-3.996802888651E-15));
#61 = VECTOR('',#62,1.);
#62 = DIRECTION('',(-1.,1.110223024625E-15,-2.22044604925E-16));
#63 = FACE_BOUND('',#64,.F.);
#64 = EDGE_LOOP('',(#65));
#65 = ORIENTED_EDGE('',*,*,#66,.T.);
#66 = EDGE_CURVE('',#67,#67,#69,.T.);
#67 = VERTEX_POINT('',#68);
#68 = CARTESIAN_POINT('',(-3.5,5.,60.));
#69 = CIRCLE('',#70,3.5);
#70 = AXIS2_PLACEMENT_3D('',#71,#72,#73);
#71 = CARTESIAN_POINT('',(-5.506706202141E-14,5.,60.));
#72 = DIRECTION('',(1.110223024625E-15,1.,-4.996003610813E-16));
#73 = DIRECTION('',(-1.,1.110223024625E-15,1.516092052222E-30));
#74 = FACE_BOUND('',#75,.F.);
#75 = EDGE_LOOP('',(#76));
#76 = ORIENTED_EDGE('',*,*,#77,.T.);
#77 = EDGE_CURVE('',#78,#78,#80,.T.);
#78 = VERTEX_POINT('',#79);
#79 = CARTESIAN_POINT('',(-3.5,5.,100.));
#80 = CIRCLE('',#81,3.5);
#81 = AXIS2_PLACEMENT_3D('',#82,#83,#84);
#82 = CARTESIAN_POINT('',(-9.059419880941E-14,5.,100.));
#83 = DIRECTION('',(1.110223024625E-15,1.,-4.996003610813E-16));
#84 = DIRECTION('',(-1.,1.110223024625E-15,3.14311766924E-30));
#85 = FACE_BOUND('',#86,.F.);
#86 = EDGE_LOOP('',(#87));
#87 = ORIENTED_EDGE('',*,*,#88,.T.);
#88 = EDGE_CURVE('',#89,#89,#91,.T.);
#89 = VERTEX_POINT('',#90);
#90 = CARTESIAN_POINT('',(-3.5,5.,140.));
#91 = CIRCLE('',#92,3.5);
#92 = AXIS2_PLACEMENT_3D('',#93,#94,#95);
#93 = CARTESIAN_POINT('',(-1.261213355974E-13,5.,140.));
#94 = DIRECTION('',(1.110223024625E-15,1.,-4.996003610813E-16));
#95 = DIRECTION('',(-1.,1.110223024625E-15,4.474320446801E-30));
#96 = FACE_BOUND('',#97,.F.);
#97 = EDGE_LOOP('',(#98));
#98 = ORIENTED_EDGE('',*,*,#99,.T.);
#99 = EDGE_CURVE('',#100,#100,#102,.T.);
#100 = VERTEX_POINT('',#101);
#101 = CARTESIAN_POINT('',(-3.5,5.,180.));
#102 = CIRCLE('',#103,3.5);
#103 = AXIS2_PLACEMENT_3D('',#104,#105,#106);
#104 = CARTESIAN_POINT('',(-1.616484723854E-13,5.,180.));
#105 = DIRECTION('',(1.110223024625E-15,1.,-4.996003610813E-16));
#106 = DIRECTION('',(-1.,1.110223024625E-15,6.101346063819E-30));
#107 = PLANE('',#108);
#108 = AXIS2_PLACEMENT_3D('',#109,#110,#111);
#109 = CARTESIAN_POINT('',(7.,5.,-3.996802888651E-15));
#110 = DIRECTION('',(-6.661338147751E-16,-1.,9.436895709314E-16));
#111 = DIRECTION('',(-1.,1.110223024625E-15,-2.22044604925E-16));
#112 = ADVANCED_FACE('',(#113),#132,.F.);
#113 = FACE_BOUND('',#114,.T.);
#114 = EDGE_LOOP('',(#115,#123,#124,#125));
#115 = ORIENTED_EDGE('',*,*,#116,.F.);
#116 = EDGE_CURVE('',#22,#117,#119,.T.);
#117 = VERTEX_POINT('',#118);
#118 = CARTESIAN_POINT('',(-3.,4.5,20.));
#119 = LINE('',#120,#121);
#120 = CARTESIAN_POINT('',(-3.,4.5,20.));
#121 = VECTOR('',#122,1.);
#122 = DIRECTION('',(0.707106781187,-0.707106781187,2.028036092467E-15)
  );
#123 = ORIENTED_EDGE('',*,*,#21,.T.);
#124 = ORIENTED_EDGE('',*,*,#116,.T.);
#125 = ORIENTED_EDGE('',*,*,#126,.F.);
#126 = EDGE_CURVE('',#117,#117,#127,.T.);
#127 = CIRCLE('',#128,3.);
#128 = AXIS2_PLACEMENT_3D('',#129,#130,#131);
#129 = CARTESIAN_POINT('',(-1.920685832602E-14,4.5,20.));
#130 = DIRECTION('',(1.110223024625E-15,1.,-4.996003610813E-16));
#131 = DIRECTION('',(-1.,1.110223024625E-15,-2.368475785867E-15));
#132 = CONICAL_SURFACE('',#133,3.,0.785398163397);
#133 = AXIS2_PLACEMENT_3D('',#134,#135,#136);
#134 = CARTESIAN_POINT('',(-1.920685832602E-14,4.5,20.));
#135 = DIRECTION('',(1.110223024625E-15,1.,-4.996003610813E-16));
#136 = DIRECTION('',(-1.,1.110223024625E-15,-2.368475785867E-15));
#137 = ADVANCED_FACE('',(#138),#165,.T.);
#138 = FACE_BOUND('',#139,.F.);
#139 = EDGE_LOOP('',(#140,#150,#157,#158));
#140 = ORIENTED_EDGE('',*,*,#141,.T.);
#141 = EDGE_CURVE('',#142,#144,#146,.T.);
#142 = VERTEX_POINT('',#143);
#143 = CARTESIAN_POINT('',(7.5,4.5,-3.330669073875E-15));
#144 = VERTEX_POINT('',#145);
#145 = CARTESIAN_POINT('',(7.5,4.5,200.));
#146 = LINE('',#147,#148);
#147 = CARTESIAN_POINT('',(7.5,4.5,-3.330669073875E-15));
#148 = VECTOR('',#149,1.);
#149 = DIRECTION('',(-8.881784197001E-16,4.996003610813E-16,1.));
#150 = ORIENTED_EDGE('',*,*,#151,.T.);
#151 = EDGE_CURVE('',#144,#35,#152,.T.);
#152 = CIRCLE('',#153,0.5);
#153 = AXIS2_PLACEMENT_3D('',#154,#155,#156);
#154 = CARTESIAN_POINT('',(7.,4.5,200.));
#155 = DIRECTION('',(-2.22044604925E-16,1.110223024625E-15,1.));
#156 = DIRECTION('',(1.,-1.110223024625E-15,2.22044604925E-16));
#157 = ORIENTED_EDGE('',*,*,#32,.F.);
#158 = ORIENTED_EDGE('',*,*,#159,.F.);
#159 = EDGE_CURVE('',#142,#33,#160,.T.);
#160 = CIRCLE('',#161,0.5);
#161 = AXIS2_PLACEMENT_3D('',#162,#163,#164);
#162 = CARTESIAN_POINT('',(7.,4.5,-3.441691376338E-15));
#163 = DIRECTION('',(-2.22044604925E-16,1.110223024625E-15,1.));
#164 = DIRECTION('',(1.,-1.110223024625E-15,2.22044604925E-16));
#165 = CYLINDRICAL_SURFACE('',#166,0.5);
#166 = AXIS2_PLACEMENT_3D('',#167,#168,#169);
#167 = CARTESIAN_POINT('',(7.,4.5,-3.441691376338E-15));
#168 = DIRECTION('',(6.661338147751E-16,-6.661338147751E-16,-1.));
#169 = DIRECTION('',(1.,-1.110223024625E-15,2.22044604925E-16));
#170 = ADVANCED_FACE('',(#171),#318,.F.);
#171 = FACE_BOUND('',#172,.F.);
#172 = EDGE_LOOP('',(#173,#183,#191,#199,#207,#215,#223,#231,#239,#247,
    #255,#261,#262,#263,#272,#280,#288,#296,#304,#312));
#173 = ORIENTED_EDGE('',*,*,#174,.T.);
#174 = EDGE_CURVE('',#175,#177,#179,.T.);
#175 = VERTEX_POINT('',#176);
#176 = CARTESIAN_POINT('',(-7.5,0.803553390593,-2.55745801269E-15));
#177 = VERTEX_POINT('',#178);
#178 = CARTESIAN_POINT('',(-7.5,-4.646446609407,3.493257471517E-15));
#179 = LINE('',#180,#181);
#180 = CARTESIAN_POINT('',(-7.5,0.803553390593,-2.55745801269E-15));
#181 = VECTOR('',#182,1.);
#182 = DIRECTION('',(-4.440892098501E-16,-1.,1.110223024625E-15));
#183 = ORIENTED_EDGE('',*,*,#184,.T.);
#184 = EDGE_CURVE('',#177,#185,#187,.T.);
#185 = VERTEX_POINT('',#186);
#186 = CARTESIAN_POINT('',(-7.146446609407,-5.,3.964285209122E-15));
#187 = LINE('',#188,#189);
#188 = CARTESIAN_POINT('',(-7.5,-4.646446609407,3.493257471517E-15));
#189 = VECTOR('',#190,1.);
#190 = DIRECTION('',(0.707106781187,-0.707106781187,9.420554752103E-16)
  );
#191 = ORIENTED_EDGE('',*,*,#192,.T.);
#192 = EDGE_CURVE('',#185,#193,#195,.T.);
#193 = VERTEX_POINT('',#194);
#194 = CARTESIAN_POINT('',(7.146446609407,-5.,7.137945037129E-15));
#195 = LINE('',#196,#197);
#196 = CARTESIAN_POINT('',(-7.146446609407,-5.,3.964285209122E-15));
#197 = VECTOR('',#198,1.);
#198 = DIRECTION('',(1.,-1.110223024625E-15,2.22044604925E-16));
#199 = ORIENTED_EDGE('',*,*,#200,.T.);
#200 = EDGE_CURVE('',#193,#201,#203,.T.);
#201 = VERTEX_POINT('',#202);
#202 = CARTESIAN_POINT('',(7.5,-4.646446609407,6.823926545393E-15));
#203 = LINE('',#204,#205);
#204 = CARTESIAN_POINT('',(7.146446609407,-5.,7.137945037129E-15));
#205 = VECTOR('',#206,1.);
#206 = DIRECTION('',(0.707106781187,0.707106781187,-6.280369834735E-16)
  );
#207 = ORIENTED_EDGE('',*,*,#208,.T.);
#208 = EDGE_CURVE('',#201,#209,#211,.T.);
#209 = VERTEX_POINT('',#210);
#210 = CARTESIAN_POINT('',(7.5,0.803553390593,7.732110611855E-16));
#211 = LINE('',#212,#213);
#212 = CARTESIAN_POINT('',(7.5,-4.646446609407,6.823926545393E-15));
#213 = VECTOR('',#214,1.);
#214 = DIRECTION('',(4.440892098501E-16,1.,-1.110223024625E-15));
#215 = ORIENTED_EDGE('',*,*,#216,.T.);
#216 = EDGE_CURVE('',#209,#217,#219,.T.);
#217 = VERTEX_POINT('',#218);
#218 = CARTESIAN_POINT('',(6.853553390598,1.449999999999,
    -8.802883075796E-17));
#219 = LINE('',#220,#221);
#220 = CARTESIAN_POINT('',(7.5,0.803553390593,7.732110611855E-16));
#221 = VECTOR('',#222,1.);
#222 = DIRECTION('',(-0.707106781185,0.707106781189,-9.42055475212E-16)
  );
#223 = ORIENTED_EDGE('',*,*,#224,.T.);
#224 = EDGE_CURVE('',#217,#225,#227,.T.);
#225 = VERTEX_POINT('',#226);
#226 = CARTESIAN_POINT('',(5.7,1.449999999999,-3.441691376331E-16));
#227 = LINE('',#228,#229);
#228 = CARTESIAN_POINT('',(6.853553390598,1.449999999999,
    -8.802883075796E-17));
#229 = VECTOR('',#230,1.);
#230 = DIRECTION('',(-1.,1.110223024625E-15,-2.22044604925E-16));
#231 = ORIENTED_EDGE('',*,*,#232,.T.);
#232 = EDGE_CURVE('',#225,#233,#235,.T.);
#233 = VERTEX_POINT('',#234);
#234 = CARTESIAN_POINT('',(5.7,2.449999999999,-1.454392162258E-15));
#235 = LINE('',#236,#237);
#236 = CARTESIAN_POINT('',(5.7,1.449999999999,-3.441691376331E-16));
#237 = VECTOR('',#238,1.);
#238 = DIRECTION('',(4.440892098501E-16,1.,-1.110223024625E-15));
#239 = ORIENTED_EDGE('',*,*,#240,.T.);
#240 = EDGE_CURVE('',#233,#241,#243,.T.);
#241 = VERTEX_POINT('',#242);
#242 = CARTESIAN_POINT('',(6.853553390598,2.449999999999,
    -1.198251855383E-15));
#243 = LINE('',#244,#245);
#244 = CARTESIAN_POINT('',(5.7,2.449999999999,-1.454392162258E-15));
#245 = VECTOR('',#246,1.);
#246 = DIRECTION('',(1.,-1.110223024625E-15,2.22044604925E-16));
#247 = ORIENTED_EDGE('',*,*,#248,.T.);
#248 = EDGE_CURVE('',#241,#249,#251,.T.);
#249 = VERTEX_POINT('',#250);
#250 = CARTESIAN_POINT('',(7.5,3.096446609406,-1.772411783347E-15));
#251 = LINE('',#252,#253);
#252 = CARTESIAN_POINT('',(6.853553390598,2.449999999999,
    -1.198251855383E-15));
#253 = VECTOR('',#254,1.);
#254 = DIRECTION('',(0.707106781184,0.707106781189,-6.280369834762E-16)
  );
#255 = ORIENTED_EDGE('',*,*,#256,.T.);
#256 = EDGE_CURVE('',#249,#142,#257,.T.);
#257 = LINE('',#258,#259);
#258 = CARTESIAN_POINT('',(7.5,3.096446609406,-1.772411783347E-15));
#259 = VECTOR('',#260,1.);
#260 = DIRECTION('',(4.440892098501E-16,1.,-1.110223024625E-15));
#261 = ORIENTED_EDGE('',*,*,#159,.T.);
#262 = ORIENTED_EDGE('',*,*,#58,.T.);
#263 = ORIENTED_EDGE('',*,*,#264,.T.);
#264 = EDGE_CURVE('',#51,#265,#267,.T.);
#265 = VERTEX_POINT('',#266);
#266 = CARTESIAN_POINT('',(-7.5,4.5,-6.661338147751E-15));
#267 = CIRCLE('',#268,0.5);
#268 = AXIS2_PLACEMENT_3D('',#269,#270,#271);
#269 = CARTESIAN_POINT('',(-7.,4.5,-6.550315845288E-15));
#270 = DIRECTION('',(-2.22044604925E-16,1.110223024625E-15,1.));
#271 = DIRECTION('',(1.,-1.110223024625E-15,2.22044604925E-16));
#272 = ORIENTED_EDGE('',*,*,#273,.T.);
#273 = EDGE_CURVE('',#265,#274,#276,.T.);
#274 = VERTEX_POINT('',#275);
#275 = CARTESIAN_POINT('',(-7.5,3.096446609406,-5.103080857222E-15));
#276 = LINE('',#277,#278);
#277 = CARTESIAN_POINT('',(-7.5,4.5,-6.661338147751E-15));
#278 = VECTOR('',#279,1.);
#279 = DIRECTION('',(-4.440892098501E-16,-1.,1.110223024625E-15));
#280 = ORIENTED_EDGE('',*,*,#281,.F.);
#281 = EDGE_CURVE('',#282,#274,#284,.T.);
#282 = VERTEX_POINT('',#283);
#283 = CARTESIAN_POINT('',(-6.853553390598,2.45,-4.24184096528E-15));
#284 = LINE('',#285,#286);
#285 = CARTESIAN_POINT('',(-6.853553390598,2.45,-4.24184096528E-15));
#286 = VECTOR('',#287,1.);
#287 = DIRECTION('',(-0.707106781185,0.707106781188,-9.420554752119E-16)
  );
#288 = ORIENTED_EDGE('',*,*,#289,.F.);
#289 = EDGE_CURVE('',#290,#282,#292,.T.);
#290 = VERTEX_POINT('',#291);
#291 = CARTESIAN_POINT('',(-5.7,2.449999999999,-3.985700658404E-15));
#292 = LINE('',#293,#294);
#293 = CARTESIAN_POINT('',(-5.7,2.449999999999,-3.985700658404E-15));
#294 = VECTOR('',#295,1.);
#295 = DIRECTION('',(-1.,5.30450840044E-13,-2.220446049256E-16));
#296 = ORIENTED_EDGE('',*,*,#297,.T.);
#297 = EDGE_CURVE('',#290,#298,#300,.T.);
#298 = VERTEX_POINT('',#299);
#299 = CARTESIAN_POINT('',(-5.7,1.449999999999,-2.875477633778E-15));
#300 = LINE('',#301,#302);
#301 = CARTESIAN_POINT('',(-5.7,2.449999999999,-3.985700658404E-15));
#302 = VECTOR('',#303,1.);
#303 = DIRECTION('',(-4.440892098501E-16,-1.,1.110223024625E-15));
#304 = ORIENTED_EDGE('',*,*,#305,.F.);
#305 = EDGE_CURVE('',#306,#298,#308,.T.);
#306 = VERTEX_POINT('',#307);
#307 = CARTESIAN_POINT('',(-6.853553390598,1.45,-3.131617940654E-15));
#308 = LINE('',#309,#310);
#309 = CARTESIAN_POINT('',(-6.853553390598,1.45,-3.131617940654E-15));
#310 = VECTOR('',#311,1.);
#311 = DIRECTION('',(1.,-4.636576785511E-13,2.220446049255E-16));
#312 = ORIENTED_EDGE('',*,*,#313,.F.);
#313 = EDGE_CURVE('',#175,#306,#314,.T.);
#314 = LINE('',#315,#316);
#315 = CARTESIAN_POINT('',(-7.5,0.803553390593,-2.55745801269E-15));
#316 = VECTOR('',#317,1.);
#317 = DIRECTION('',(0.707106781184,0.707106781189,-6.280369834766E-16)
  );
#318 = PLANE('',#319);
#319 = AXIS2_PLACEMENT_3D('',#320,#321,#322);
#320 = CARTESIAN_POINT('',(-5.512518245213E-15,0.199369325296,
    -2.213444153481E-16));
#321 = DIRECTION('',(-8.881784197001E-16,4.440892098501E-16,1.));
#322 = DIRECTION('',(2.22044604925E-16,1.,-1.110223024625E-15));
#323 = ADVANCED_FACE('',(#324),#471,.T.);
#324 = FACE_BOUND('',#325,.T.);
#325 = EDGE_LOOP('',(#326,#336,#344,#352,#360,#368,#376,#384,#392,#400,
    #408,#414,#415,#416,#425,#433,#441,#449,#457,#465));
#326 = ORIENTED_EDGE('',*,*,#327,.T.);
#327 = EDGE_CURVE('',#328,#330,#332,.T.);
#328 = VERTEX_POINT('',#329);
#329 = CARTESIAN_POINT('',(-7.5,0.803553390593,200.));
#330 = VERTEX_POINT('',#331);
#331 = CARTESIAN_POINT('',(-7.5,-4.646446609407,200.));
#332 = LINE('',#333,#334);
#333 = CARTESIAN_POINT('',(-7.5,0.803553390593,200.));
#334 = VECTOR('',#335,1.);
#335 = DIRECTION('',(-4.440892098501E-16,-1.,1.110223024625E-15));
#336 = ORIENTED_EDGE('',*,*,#337,.T.);
#337 = EDGE_CURVE('',#330,#338,#340,.T.);
#338 = VERTEX_POINT('',#339);
#339 = CARTESIAN_POINT('',(-7.146446609407,-5.,200.));
#340 = LINE('',#341,#342);
#341 = CARTESIAN_POINT('',(-7.5,-4.646446609407,200.));
#342 = VECTOR('',#343,1.);
#343 = DIRECTION('',(0.707106781187,-0.707106781187,9.420554752103E-16)
  );
#344 = ORIENTED_EDGE('',*,*,#345,.T.);
#345 = EDGE_CURVE('',#338,#346,#348,.T.);
#346 = VERTEX_POINT('',#347);
#347 = CARTESIAN_POINT('',(7.146446609407,-5.,200.));
#348 = LINE('',#349,#350);
#349 = CARTESIAN_POINT('',(-7.146446609407,-5.,200.));
#350 = VECTOR('',#351,1.);
#351 = DIRECTION('',(1.,-1.110223024625E-15,2.22044604925E-16));
#352 = ORIENTED_EDGE('',*,*,#353,.T.);
#353 = EDGE_CURVE('',#346,#354,#356,.T.);
#354 = VERTEX_POINT('',#355);
#355 = CARTESIAN_POINT('',(7.5,-4.646446609407,200.));
#356 = LINE('',#357,#358);
#357 = CARTESIAN_POINT('',(7.146446609407,-5.,200.));
#358 = VECTOR('',#359,1.);
#359 = DIRECTION('',(0.707106781187,0.707106781187,-6.280369834735E-16)
  );
#360 = ORIENTED_EDGE('',*,*,#361,.T.);
#361 = EDGE_CURVE('',#354,#362,#364,.T.);
#362 = VERTEX_POINT('',#363);
#363 = CARTESIAN_POINT('',(7.5,0.803553390593,200.));
#364 = LINE('',#365,#366);
#365 = CARTESIAN_POINT('',(7.5,-4.646446609407,200.));
#366 = VECTOR('',#367,1.);
#367 = DIRECTION('',(4.440892098501E-16,1.,-1.110223024625E-15));
#368 = ORIENTED_EDGE('',*,*,#369,.T.);
#369 = EDGE_CURVE('',#362,#370,#372,.T.);
#370 = VERTEX_POINT('',#371);
#371 = CARTESIAN_POINT('',(6.853553390597,1.449999999999,200.));
#372 = LINE('',#373,#374);
#373 = CARTESIAN_POINT('',(7.5,0.803553390593,200.));
#374 = VECTOR('',#375,1.);
#375 = DIRECTION('',(-0.707106781185,0.707106781189,-9.42055475212E-16)
  );
#376 = ORIENTED_EDGE('',*,*,#377,.T.);
#377 = EDGE_CURVE('',#370,#378,#380,.T.);
#378 = VERTEX_POINT('',#379);
#379 = CARTESIAN_POINT('',(5.7,1.449999999999,200.));
#380 = LINE('',#381,#382);
#381 = CARTESIAN_POINT('',(6.853553390597,1.449999999999,200.));
#382 = VECTOR('',#383,1.);
#383 = DIRECTION('',(-1.,1.110223024625E-15,-2.22044604925E-16));
#384 = ORIENTED_EDGE('',*,*,#385,.T.);
#385 = EDGE_CURVE('',#378,#386,#388,.T.);
#386 = VERTEX_POINT('',#387);
#387 = CARTESIAN_POINT('',(5.7,2.449999999999,200.));
#388 = LINE('',#389,#390);
#389 = CARTESIAN_POINT('',(5.7,1.449999999999,200.));
#390 = VECTOR('',#391,1.);
#391 = DIRECTION('',(4.440892098501E-16,1.,-1.110223024625E-15));
#392 = ORIENTED_EDGE('',*,*,#393,.T.);
#393 = EDGE_CURVE('',#386,#394,#396,.T.);
#394 = VERTEX_POINT('',#395);
#395 = CARTESIAN_POINT('',(6.853553390597,2.449999999999,200.));
#396 = LINE('',#397,#398);
#397 = CARTESIAN_POINT('',(5.7,2.449999999999,200.));
#398 = VECTOR('',#399,1.);
#399 = DIRECTION('',(1.,-1.110223024625E-15,2.22044604925E-16));
#400 = ORIENTED_EDGE('',*,*,#401,.T.);
#401 = EDGE_CURVE('',#394,#402,#404,.T.);
#402 = VERTEX_POINT('',#403);
#403 = CARTESIAN_POINT('',(7.5,3.096446609406,200.));
#404 = LINE('',#405,#406);
#405 = CARTESIAN_POINT('',(6.853553390597,2.449999999999,200.));
#406 = VECTOR('',#407,1.);
#407 = DIRECTION('',(0.707106781184,0.707106781189,-6.280369834762E-16)
  );
#408 = ORIENTED_EDGE('',*,*,#409,.T.);
#409 = EDGE_CURVE('',#402,#144,#410,.T.);
#410 = LINE('',#411,#412);
#411 = CARTESIAN_POINT('',(7.5,3.096446609406,200.));
#412 = VECTOR('',#413,1.);
#413 = DIRECTION('',(4.440892098501E-16,1.,-1.110223024625E-15));
#414 = ORIENTED_EDGE('',*,*,#151,.T.);
#415 = ORIENTED_EDGE('',*,*,#42,.T.);
#416 = ORIENTED_EDGE('',*,*,#417,.T.);
#417 = EDGE_CURVE('',#43,#418,#420,.T.);
#418 = VERTEX_POINT('',#419);
#419 = CARTESIAN_POINT('',(-7.5,4.5,200.));
#420 = CIRCLE('',#421,0.5);
#421 = AXIS2_PLACEMENT_3D('',#422,#423,#424);
#422 = CARTESIAN_POINT('',(-7.,4.5,200.));
#423 = DIRECTION('',(-2.22044604925E-16,1.110223024625E-15,1.));
#424 = DIRECTION('',(1.,-1.110223024625E-15,2.22044604925E-16));
#425 = ORIENTED_EDGE('',*,*,#426,.T.);
#426 = EDGE_CURVE('',#418,#427,#429,.T.);
#427 = VERTEX_POINT('',#428);
#428 = CARTESIAN_POINT('',(-7.5,3.096446609406,200.));
#429 = LINE('',#430,#431);
#430 = CARTESIAN_POINT('',(-7.5,4.5,200.));
#431 = VECTOR('',#432,1.);
#432 = DIRECTION('',(-4.440892098501E-16,-1.,1.110223024625E-15));
#433 = ORIENTED_EDGE('',*,*,#434,.F.);
#434 = EDGE_CURVE('',#435,#427,#437,.T.);
#435 = VERTEX_POINT('',#436);
#436 = CARTESIAN_POINT('',(-6.853553390598,2.45,200.));
#437 = LINE('',#438,#439);
#438 = CARTESIAN_POINT('',(-6.853553390598,2.45,200.));
#439 = VECTOR('',#440,1.);
#440 = DIRECTION('',(-0.707106781185,0.707106781188,-9.420554752119E-16)
  );
#441 = ORIENTED_EDGE('',*,*,#442,.F.);
#442 = EDGE_CURVE('',#443,#435,#445,.T.);
#443 = VERTEX_POINT('',#444);
#444 = CARTESIAN_POINT('',(-5.7,2.449999999999,200.));
#445 = LINE('',#446,#447);
#446 = CARTESIAN_POINT('',(-5.7,2.449999999999,200.));
#447 = VECTOR('',#448,1.);
#448 = DIRECTION('',(-1.,5.30450840044E-13,-2.220446049256E-16));
#449 = ORIENTED_EDGE('',*,*,#450,.T.);
#450 = EDGE_CURVE('',#443,#451,#453,.T.);
#451 = VERTEX_POINT('',#452);
#452 = CARTESIAN_POINT('',(-5.7,1.449999999999,200.));
#453 = LINE('',#454,#455);
#454 = CARTESIAN_POINT('',(-5.7,2.449999999999,200.));
#455 = VECTOR('',#456,1.);
#456 = DIRECTION('',(-4.440892098501E-16,-1.,1.110223024625E-15));
#457 = ORIENTED_EDGE('',*,*,#458,.F.);
#458 = EDGE_CURVE('',#459,#451,#461,.T.);
#459 = VERTEX_POINT('',#460);
#460 = CARTESIAN_POINT('',(-6.853553390598,1.45,200.));
#461 = LINE('',#462,#463);
#462 = CARTESIAN_POINT('',(-6.853553390598,1.45,200.));
#463 = VECTOR('',#464,1.);
#464 = DIRECTION('',(1.,-4.636576785511E-13,2.220446049255E-16));
#465 = ORIENTED_EDGE('',*,*,#466,.F.);
#466 = EDGE_CURVE('',#328,#459,#467,.T.);
#467 = LINE('',#468,#469);
#468 = CARTESIAN_POINT('',(-7.5,0.803553390593,200.));
#469 = VECTOR('',#470,1.);
#470 = DIRECTION('',(0.707106781184,0.707106781189,-6.280369834766E-16)
  );
#471 = PLANE('',#472);
#472 = AXIS2_PLACEMENT_3D('',#473,#474,#475);
#473 = CARTESIAN_POINT('',(-1.831482021852E-13,0.199369325297,200.));
#474 = DIRECTION('',(-8.881784197001E-16,4.440892098501E-16,1.));
#475 = DIRECTION('',(2.22044604925E-16,1.,-1.110223024625E-15));
#476 = ADVANCED_FACE('',(#477),#488,.T.);
#477 = FACE_BOUND('',#478,.F.);
#478 = EDGE_LOOP('',(#479,#480,#481,#487));
#479 = ORIENTED_EDGE('',*,*,#50,.T.);
#480 = ORIENTED_EDGE('',*,*,#417,.T.);
#481 = ORIENTED_EDGE('',*,*,#482,.F.);
#482 = EDGE_CURVE('',#265,#418,#483,.T.);
#483 = LINE('',#484,#485);
#484 = CARTESIAN_POINT('',(-7.5,4.5,-6.661338147751E-15));
#485 = VECTOR('',#486,1.);
#486 = DIRECTION('',(-8.881784197001E-16,4.996003610813E-16,1.));
#487 = ORIENTED_EDGE('',*,*,#264,.F.);
#488 = CYLINDRICAL_SURFACE('',#489,0.5);
#489 = AXIS2_PLACEMENT_3D('',#490,#491,#492);
#490 = CARTESIAN_POINT('',(-7.,4.5,-6.550315845288E-15));
#491 = DIRECTION('',(6.661338147751E-16,-6.661338147751E-16,-1.));
#492 = DIRECTION('',(1.,-1.110223024625E-15,2.22044604925E-16));
#493 = ADVANCED_FACE('',(#494),#513,.F.);
#494 = FACE_BOUND('',#495,.T.);
#495 = EDGE_LOOP('',(#496,#504,#505,#506));
#496 = ORIENTED_EDGE('',*,*,#497,.F.);
#497 = EDGE_CURVE('',#67,#498,#500,.T.);
#498 = VERTEX_POINT('',#499);
#499 = CARTESIAN_POINT('',(-3.,4.5,60.));
#500 = LINE('',#501,#502);
#501 = CARTESIAN_POINT('',(-3.,4.5,60.));
#502 = VECTOR('',#503,1.);
#503 = DIRECTION('',(0.707106781187,-0.707106781187,3.532708032038E-16)
  );
#504 = ORIENTED_EDGE('',*,*,#66,.T.);
#505 = ORIENTED_EDGE('',*,*,#497,.T.);
#506 = ORIENTED_EDGE('',*,*,#507,.F.);
#507 = EDGE_CURVE('',#498,#498,#508,.T.);
#508 = CIRCLE('',#509,3.);
#509 = AXIS2_PLACEMENT_3D('',#510,#511,#512);
#510 = CARTESIAN_POINT('',(-5.562217353372E-14,4.5,60.));
#511 = DIRECTION('',(1.110223024625E-15,1.,-4.996003610813E-16));
#512 = DIRECTION('',(-1.,1.110223024625E-15,1.516092052222E-30));
#513 = CONICAL_SURFACE('',#514,3.,0.785398163397);
#514 = AXIS2_PLACEMENT_3D('',#515,#516,#517);
#515 = CARTESIAN_POINT('',(-5.562217353372E-14,4.5,60.));
#516 = DIRECTION('',(1.110223024625E-15,1.,-4.996003610813E-16));
#517 = DIRECTION('',(-1.,1.110223024625E-15,1.516092052222E-30));
#518 = ADVANCED_FACE('',(#519),#538,.F.);
#519 = FACE_BOUND('',#520,.T.);
#520 = EDGE_LOOP('',(#521,#529,#530,#531));
#521 = ORIENTED_EDGE('',*,*,#522,.F.);
#522 = EDGE_CURVE('',#78,#523,#525,.T.);
#523 = VERTEX_POINT('',#524);
#524 = CARTESIAN_POINT('',(-3.,4.5,100.));
#525 = LINE('',#526,#527);
#526 = CARTESIAN_POINT('',(-3.,4.5,100.));
#527 = VECTOR('',#528,1.);
#528 = DIRECTION('',(0.707106781187,-0.707106781187,3.532708032038E-16)
  );
#529 = ORIENTED_EDGE('',*,*,#77,.T.);
#530 = ORIENTED_EDGE('',*,*,#522,.T.);
#531 = ORIENTED_EDGE('',*,*,#532,.F.);
#532 = EDGE_CURVE('',#523,#523,#533,.T.);
#533 = CIRCLE('',#534,3.);
#534 = AXIS2_PLACEMENT_3D('',#535,#536,#537);
#535 = CARTESIAN_POINT('',(-9.114931032173E-14,4.5,100.));
#536 = DIRECTION('',(1.110223024625E-15,1.,-4.996003610813E-16));
#537 = DIRECTION('',(-1.,1.110223024625E-15,3.14311766924E-30));
#538 = CONICAL_SURFACE('',#539,3.,0.785398163397);
#539 = AXIS2_PLACEMENT_3D('',#540,#541,#542);
#540 = CARTESIAN_POINT('',(-9.114931032173E-14,4.5,100.));
#541 = DIRECTION('',(1.110223024625E-15,1.,-4.996003610813E-16));
#542 = DIRECTION('',(-1.,1.110223024625E-15,3.14311766924E-30));
#543 = ADVANCED_FACE('',(#544),#563,.F.);
#544 = FACE_BOUND('',#545,.T.);
#545 = EDGE_LOOP('',(#546,#554,#555,#556));
#546 = ORIENTED_EDGE('',*,*,#547,.F.);
#547 = EDGE_CURVE('',#89,#548,#550,.T.);
#548 = VERTEX_POINT('',#549);
#549 = CARTESIAN_POINT('',(-3.,4.5,140.));
#550 = LINE('',#551,#552);
#551 = CARTESIAN_POINT('',(-3.,4.5,140.));
#552 = VECTOR('',#553,1.);
#553 = DIRECTION('',(0.707106781187,-0.707106781187,3.532708032038E-16)
  );
#554 = ORIENTED_EDGE('',*,*,#88,.T.);
#555 = ORIENTED_EDGE('',*,*,#547,.T.);
#556 = ORIENTED_EDGE('',*,*,#557,.F.);
#557 = EDGE_CURVE('',#548,#548,#558,.T.);
#558 = CIRCLE('',#559,3.);
#559 = AXIS2_PLACEMENT_3D('',#560,#561,#562);
#560 = CARTESIAN_POINT('',(-1.266764471097E-13,4.5,140.));
#561 = DIRECTION('',(1.110223024625E-15,1.,-4.996003610813E-16));
#562 = DIRECTION('',(-1.,1.110223024625E-15,4.474320446801E-30));
#563 = CONICAL_SURFACE('',#564,3.,0.785398163397);
#564 = AXIS2_PLACEMENT_3D('',#565,#566,#567);
#565 = CARTESIAN_POINT('',(-1.266764471097E-13,4.5,140.));
#566 = DIRECTION('',(1.110223024625E-15,1.,-4.996003610813E-16));
#567 = DIRECTION('',(-1.,1.110223024625E-15,4.474320446801E-30));
#568 = ADVANCED_FACE('',(#569),#588,.F.);
#569 = FACE_BOUND('',#570,.T.);
#570 = EDGE_LOOP('',(#571,#579,#580,#581));
#571 = ORIENTED_EDGE('',*,*,#572,.F.);
#572 = EDGE_CURVE('',#100,#573,#575,.T.);
#573 = VERTEX_POINT('',#574);
#574 = CARTESIAN_POINT('',(-3.,4.5,180.));
#575 = LINE('',#576,#577);
#576 = CARTESIAN_POINT('',(-3.,4.5,180.));
#577 = VECTOR('',#578,1.);
#578 = DIRECTION('',(0.707106781187,-0.707106781187,3.532708032038E-16)
  );
#579 = ORIENTED_EDGE('',*,*,#99,.T.);
#580 = ORIENTED_EDGE('',*,*,#572,.T.);
#581 = ORIENTED_EDGE('',*,*,#582,.F.);
#582 = EDGE_CURVE('',#573,#573,#583,.T.);
#583 = CIRCLE('',#584,3.);
#584 = AXIS2_PLACEMENT_3D('',#585,#586,#587);
#585 = CARTESIAN_POINT('',(-1.622035838977E-13,4.5,180.));
#586 = DIRECTION('',(1.110223024625E-15,1.,-4.996003610813E-16));
#587 = DIRECTION('',(-1.,1.110223024625E-15,6.101346063819E-30));
#588 = CONICAL_SURFACE('',#589,3.,0.785398163397);
#589 = AXIS2_PLACEMENT_3D('',#590,#591,#592);
#590 = CARTESIAN_POINT('',(-1.622035838977E-13,4.5,180.));
#591 = DIRECTION('',(1.110223024625E-15,1.,-4.996003610813E-16));
#592 = DIRECTION('',(-1.,1.110223024625E-15,6.101346063819E-30));
#593 = ADVANCED_FACE('',(#594),#613,.F.);
#594 = FACE_BOUND('',#595,.F.);
#595 = EDGE_LOOP('',(#596,#604,#611,#612));
#596 = ORIENTED_EDGE('',*,*,#597,.T.);
#597 = EDGE_CURVE('',#117,#598,#600,.T.);
#598 = VERTEX_POINT('',#599);
#599 = CARTESIAN_POINT('',(-3.,0.5,20.));
#600 = LINE('',#601,#602);
#601 = CARTESIAN_POINT('',(-3.,5.,20.));
#602 = VECTOR('',#603,1.);
#603 = DIRECTION('',(-6.661338147751E-16,-1.,9.436895709314E-16));
#604 = ORIENTED_EDGE('',*,*,#605,.T.);
#605 = EDGE_CURVE('',#598,#598,#606,.T.);
#606 = CIRCLE('',#607,3.);
#607 = AXIS2_PLACEMENT_3D('',#608,#609,#610);
#608 = CARTESIAN_POINT('',(-1.298960938811E-14,0.5,20.));
#609 = DIRECTION('',(8.881784197001E-16,1.,-7.216449660064E-16));
#610 = DIRECTION('',(-1.,8.881784197001E-16,-2.22044604925E-16));
#611 = ORIENTED_EDGE('',*,*,#597,.F.);
#612 = ORIENTED_EDGE('',*,*,#126,.F.);
#613 = CYLINDRICAL_SURFACE('',#614,3.);
#614 = AXIS2_PLACEMENT_3D('',#615,#616,#617);
#615 = CARTESIAN_POINT('',(-9.992007221626E-15,5.,20.));
#616 = DIRECTION('',(8.881784197001E-16,1.,-7.216449660064E-16));
#617 = DIRECTION('',(-1.,8.881784197001E-16,-2.22044604925E-16));
#618 = ADVANCED_FACE('',(#619),#630,.F.);
#619 = FACE_BOUND('',#620,.F.);
#620 = EDGE_LOOP('',(#621,#627,#628,#629));
#621 = ORIENTED_EDGE('',*,*,#622,.T.);
#622 = EDGE_CURVE('',#249,#402,#623,.T.);
#623 = LINE('',#624,#625);
#624 = CARTESIAN_POINT('',(7.5,3.096446609406,-1.772411783347E-15));
#625 = VECTOR('',#626,1.);
#626 = DIRECTION('',(-8.881784197001E-16,4.996003610813E-16,1.));
#627 = ORIENTED_EDGE('',*,*,#409,.T.);
#628 = ORIENTED_EDGE('',*,*,#141,.F.);
#629 = ORIENTED_EDGE('',*,*,#256,.F.);
#630 = PLANE('',#631);
#631 = AXIS2_PLACEMENT_3D('',#632,#633,#634);
#632 = CARTESIAN_POINT('',(7.5,3.096446609406,-1.772411783347E-15));
#633 = DIRECTION('',(-1.,8.881784197001E-16,-4.440892098501E-16));
#634 = DIRECTION('',(4.440892098501E-16,1.,-1.110223024625E-15));
#635 = ADVANCED_FACE('',(#636),#652,.F.);
#636 = FACE_BOUND('',#637,.F.);
#637 = EDGE_LOOP('',(#638,#644,#645,#651));
#638 = ORIENTED_EDGE('',*,*,#639,.T.);
#639 = EDGE_CURVE('',#175,#328,#640,.T.);
#640 = LINE('',#641,#642);
#641 = CARTESIAN_POINT('',(-7.5,0.803553390593,-2.55745801269E-15));
#642 = VECTOR('',#643,1.);
#643 = DIRECTION('',(-8.881784197001E-16,4.996003610813E-16,1.));
#644 = ORIENTED_EDGE('',*,*,#327,.T.);
#645 = ORIENTED_EDGE('',*,*,#646,.F.);
#646 = EDGE_CURVE('',#177,#330,#647,.T.);
#647 = LINE('',#648,#649);
#648 = CARTESIAN_POINT('',(-7.5,-4.646446609407,3.493257471517E-15));
#649 = VECTOR('',#650,1.);
#650 = DIRECTION('',(-8.881784197001E-16,4.996003610813E-16,1.));
#651 = ORIENTED_EDGE('',*,*,#174,.F.);
#652 = PLANE('',#653);
#653 = AXIS2_PLACEMENT_3D('',#654,#655,#656);
#654 = CARTESIAN_POINT('',(-7.5,0.803553390593,-2.55745801269E-15));
#655 = DIRECTION('',(1.,-8.881784197001E-16,4.440892098501E-16));
#656 = DIRECTION('',(-4.440892098501E-16,-1.,1.110223024625E-15));
#657 = ADVANCED_FACE('',(#658),#669,.F.);
#658 = FACE_BOUND('',#659,.F.);
#659 = EDGE_LOOP('',(#660,#661,#662,#668));
#660 = ORIENTED_EDGE('',*,*,#646,.T.);
#661 = ORIENTED_EDGE('',*,*,#337,.T.);
#662 = ORIENTED_EDGE('',*,*,#663,.F.);
#663 = EDGE_CURVE('',#185,#338,#664,.T.);
#664 = LINE('',#665,#666);
#665 = CARTESIAN_POINT('',(-7.146446609407,-5.,3.964285209122E-15));
#666 = VECTOR('',#667,1.);
#667 = DIRECTION('',(-8.881784197001E-16,4.996003610813E-16,1.));
#668 = ORIENTED_EDGE('',*,*,#184,.F.);
#669 = PLANE('',#670);
#670 = AXIS2_PLACEMENT_3D('',#671,#672,#673);
#671 = CARTESIAN_POINT('',(-7.5,-4.646446609407,3.493257471517E-15));
#672 = DIRECTION('',(0.707106781187,0.707106781187,-3.532708032038E-16)
  );
#673 = DIRECTION('',(0.707106781187,-0.707106781187,9.420554752103E-16)
  );
#674 = ADVANCED_FACE('',(#675,#686,#697,#708,#719,#730),#741,.F.);
#675 = FACE_BOUND('',#676,.F.);
#676 = EDGE_LOOP('',(#677,#678,#679,#685));
#677 = ORIENTED_EDGE('',*,*,#663,.T.);
#678 = ORIENTED_EDGE('',*,*,#345,.T.);
#679 = ORIENTED_EDGE('',*,*,#680,.F.);
#680 = EDGE_CURVE('',#193,#346,#681,.T.);
#681 = LINE('',#682,#683);
#682 = CARTESIAN_POINT('',(7.146446609407,-5.,7.137945037129E-15));
#683 = VECTOR('',#684,1.);
#684 = DIRECTION('',(-8.881784197001E-16,4.996003610813E-16,1.));
#685 = ORIENTED_EDGE('',*,*,#192,.F.);
#686 = FACE_BOUND('',#687,.F.);
#687 = EDGE_LOOP('',(#688));
#688 = ORIENTED_EDGE('',*,*,#689,.F.);
#689 = EDGE_CURVE('',#690,#690,#692,.T.);
#690 = VERTEX_POINT('',#691);
#691 = CARTESIAN_POINT('',(-1.75,-5.,20.));
#692 = CIRCLE('',#693,1.75);
#693 = AXIS2_PLACEMENT_3D('',#694,#695,#696);
#694 = CARTESIAN_POINT('',(-1.887379141863E-14,-5.,20.));
#695 = DIRECTION('',(1.110223024625E-15,1.,-4.996003610813E-16));
#696 = DIRECTION('',(-1.,1.110223024625E-15,-2.22044604925E-16));
#697 = FACE_BOUND('',#698,.F.);
#698 = EDGE_LOOP('',(#699));
#699 = ORIENTED_EDGE('',*,*,#700,.F.);
#700 = EDGE_CURVE('',#701,#701,#703,.T.);
#701 = VERTEX_POINT('',#702);
#702 = CARTESIAN_POINT('',(-1.75,-5.,60.));
#703 = CIRCLE('',#704,1.75);
#704 = AXIS2_PLACEMENT_3D('',#705,#706,#707);
#705 = CARTESIAN_POINT('',(-4.551914400963E-14,-5.,60.));
#706 = DIRECTION('',(1.110223024625E-15,1.,-4.996003610813E-16));
#707 = DIRECTION('',(-1.,1.110223024625E-15,-2.22044604925E-16));
#708 = FACE_BOUND('',#709,.F.);
#709 = EDGE_LOOP('',(#710));
#710 = ORIENTED_EDGE('',*,*,#711,.F.);
#711 = EDGE_CURVE('',#712,#712,#714,.T.);
#712 = VERTEX_POINT('',#713);
#713 = CARTESIAN_POINT('',(-1.75,-5.,180.));
#714 = CIRCLE('',#715,1.75);
#715 = AXIS2_PLACEMENT_3D('',#716,#717,#718);
#716 = CARTESIAN_POINT('',(-1.254552017826E-13,-5.,180.));
#717 = DIRECTION('',(1.110223024625E-15,1.,-4.996003610813E-16));
#718 = DIRECTION('',(-1.,1.110223024625E-15,-2.22044604925E-16));
#719 = FACE_BOUND('',#720,.F.);
#720 = EDGE_LOOP('',(#721));
#721 = ORIENTED_EDGE('',*,*,#722,.F.);
#722 = EDGE_CURVE('',#723,#723,#725,.T.);
#723 = VERTEX_POINT('',#724);
#724 = CARTESIAN_POINT('',(-1.75,-5.,140.));
#725 = CIRCLE('',#726,1.75);
#726 = AXIS2_PLACEMENT_3D('',#727,#728,#729);
#727 = CARTESIAN_POINT('',(-9.880984919164E-14,-5.,140.));
#728 = DIRECTION('',(1.110223024625E-15,1.,-4.996003610813E-16));
#729 = DIRECTION('',(-1.,1.110223024625E-15,-2.22044604925E-16));
#730 = FACE_BOUND('',#731,.F.);
#731 = EDGE_LOOP('',(#732));
#732 = ORIENTED_EDGE('',*,*,#733,.F.);
#733 = EDGE_CURVE('',#734,#734,#736,.T.);
#734 = VERTEX_POINT('',#735);
#735 = CARTESIAN_POINT('',(-1.75,-5.,100.));
#736 = CIRCLE('',#737,1.75);
#737 = AXIS2_PLACEMENT_3D('',#738,#739,#740);
#738 = CARTESIAN_POINT('',(-7.216449660064E-14,-5.,100.));
#739 = DIRECTION('',(1.110223024625E-15,1.,-4.996003610813E-16));
#740 = DIRECTION('',(-1.,1.110223024625E-15,-2.22044604925E-16));
#741 = PLANE('',#742);
#742 = AXIS2_PLACEMENT_3D('',#743,#744,#745);
#743 = CARTESIAN_POINT('',(-7.146446609407,-5.,3.964285209122E-15));
#744 = DIRECTION('',(6.661338147751E-16,1.,-9.436895709314E-16));
#745 = DIRECTION('',(1.,-1.110223024625E-15,2.22044604925E-16));
#746 = ADVANCED_FACE('',(#747),#758,.F.);
#747 = FACE_BOUND('',#748,.F.);
#748 = EDGE_LOOP('',(#749,#750,#751,#757));
#749 = ORIENTED_EDGE('',*,*,#680,.T.);
#750 = ORIENTED_EDGE('',*,*,#353,.T.);
#751 = ORIENTED_EDGE('',*,*,#752,.F.);
#752 = EDGE_CURVE('',#201,#354,#753,.T.);
#753 = LINE('',#754,#755);
#754 = CARTESIAN_POINT('',(7.5,-4.646446609407,6.823926545393E-15));
#755 = VECTOR('',#756,1.);
#756 = DIRECTION('',(-8.881784197001E-16,4.996003610813E-16,1.));
#757 = ORIENTED_EDGE('',*,*,#200,.F.);
#758 = PLANE('',#759);
#759 = AXIS2_PLACEMENT_3D('',#760,#761,#762);
#760 = CARTESIAN_POINT('',(7.146446609407,-5.,7.137945037129E-15));
#761 = DIRECTION('',(-0.707106781187,0.707106781187,-9.813077866774E-16)
  );
#762 = DIRECTION('',(0.707106781187,0.707106781187,-6.280369834735E-16)
  );
#763 = ADVANCED_FACE('',(#764),#775,.F.);
#764 = FACE_BOUND('',#765,.F.);
#765 = EDGE_LOOP('',(#766,#767,#768,#774));
#766 = ORIENTED_EDGE('',*,*,#752,.T.);
#767 = ORIENTED_EDGE('',*,*,#361,.T.);
#768 = ORIENTED_EDGE('',*,*,#769,.F.);
#769 = EDGE_CURVE('',#209,#362,#770,.T.);
#770 = LINE('',#771,#772);
#771 = CARTESIAN_POINT('',(7.5,0.803553390593,7.732110611855E-16));
#772 = VECTOR('',#773,1.);
#773 = DIRECTION('',(-8.881784197001E-16,4.996003610813E-16,1.));
#774 = ORIENTED_EDGE('',*,*,#208,.F.);
#775 = PLANE('',#776);
#776 = AXIS2_PLACEMENT_3D('',#777,#778,#779);
#777 = CARTESIAN_POINT('',(7.5,-4.646446609407,6.823926545393E-15));
#778 = DIRECTION('',(-1.,8.881784197001E-16,-4.440892098501E-16));
#779 = DIRECTION('',(4.440892098501E-16,1.,-1.110223024625E-15));
#780 = ADVANCED_FACE('',(#781),#792,.F.);
#781 = FACE_BOUND('',#782,.F.);
#782 = EDGE_LOOP('',(#783,#784,#785,#791));
#783 = ORIENTED_EDGE('',*,*,#769,.T.);
#784 = ORIENTED_EDGE('',*,*,#369,.T.);
#785 = ORIENTED_EDGE('',*,*,#786,.F.);
#786 = EDGE_CURVE('',#217,#370,#787,.T.);
#787 = LINE('',#788,#789);
#788 = CARTESIAN_POINT('',(6.853553390598,1.449999999999,
    -8.802883075796E-17));
#789 = VECTOR('',#790,1.);
#790 = DIRECTION('',(-8.881784197001E-16,4.996003610813E-16,1.));
#791 = ORIENTED_EDGE('',*,*,#216,.F.);
#792 = PLANE('',#793);
#793 = AXIS2_PLACEMENT_3D('',#794,#795,#796);
#794 = CARTESIAN_POINT('',(7.5,0.803553390593,7.732110611855E-16));
#795 = DIRECTION('',(-0.707106781189,-0.707106781185,3.532708032011E-16)
  );
#796 = DIRECTION('',(-0.707106781185,0.707106781189,-9.42055475212E-16)
  );
#797 = ADVANCED_FACE('',(#798),#809,.F.);
#798 = FACE_BOUND('',#799,.F.);
#799 = EDGE_LOOP('',(#800,#801,#802,#808));
#800 = ORIENTED_EDGE('',*,*,#786,.T.);
#801 = ORIENTED_EDGE('',*,*,#377,.T.);
#802 = ORIENTED_EDGE('',*,*,#803,.F.);
#803 = EDGE_CURVE('',#225,#378,#804,.T.);
#804 = LINE('',#805,#806);
#805 = CARTESIAN_POINT('',(5.7,1.449999999999,-3.441691376331E-16));
#806 = VECTOR('',#807,1.);
#807 = DIRECTION('',(-8.881784197001E-16,4.996003610813E-16,1.));
#808 = ORIENTED_EDGE('',*,*,#224,.F.);
#809 = PLANE('',#810);
#810 = AXIS2_PLACEMENT_3D('',#811,#812,#813);
#811 = CARTESIAN_POINT('',(6.853553390598,1.449999999999,
    -8.802883075796E-17));
#812 = DIRECTION('',(-6.661338147751E-16,-1.,9.436895709314E-16));
#813 = DIRECTION('',(-1.,1.110223024625E-15,-2.22044604925E-16));
#814 = ADVANCED_FACE('',(#815),#826,.F.);
#815 = FACE_BOUND('',#816,.F.);
#816 = EDGE_LOOP('',(#817,#818,#819,#825));
#817 = ORIENTED_EDGE('',*,*,#803,.T.);
#818 = ORIENTED_EDGE('',*,*,#385,.T.);
#819 = ORIENTED_EDGE('',*,*,#820,.F.);
#820 = EDGE_CURVE('',#233,#386,#821,.T.);
#821 = LINE('',#822,#823);
#822 = CARTESIAN_POINT('',(5.7,2.449999999999,-1.454392162258E-15));
#823 = VECTOR('',#824,1.);
#824 = DIRECTION('',(-8.881784197001E-16,4.996003610813E-16,1.));
#825 = ORIENTED_EDGE('',*,*,#232,.F.);
#826 = PLANE('',#827);
#827 = AXIS2_PLACEMENT_3D('',#828,#829,#830);
#828 = CARTESIAN_POINT('',(5.7,1.449999999999,-3.441691376331E-16));
#829 = DIRECTION('',(-1.,8.881784197001E-16,-4.440892098501E-16));
#830 = DIRECTION('',(4.440892098501E-16,1.,-1.110223024625E-15));
#831 = ADVANCED_FACE('',(#832),#843,.F.);
#832 = FACE_BOUND('',#833,.F.);
#833 = EDGE_LOOP('',(#834,#835,#836,#842));
#834 = ORIENTED_EDGE('',*,*,#820,.T.);
#835 = ORIENTED_EDGE('',*,*,#393,.T.);
#836 = ORIENTED_EDGE('',*,*,#837,.F.);
#837 = EDGE_CURVE('',#241,#394,#838,.T.);
#838 = LINE('',#839,#840);
#839 = CARTESIAN_POINT('',(6.853553390598,2.449999999999,
    -1.198251855383E-15));
#840 = VECTOR('',#841,1.);
#841 = DIRECTION('',(-8.881784197001E-16,4.996003610813E-16,1.));
#842 = ORIENTED_EDGE('',*,*,#240,.F.);
#843 = PLANE('',#844);
#844 = AXIS2_PLACEMENT_3D('',#845,#846,#847);
#845 = CARTESIAN_POINT('',(5.7,2.449999999999,-1.454392162258E-15));
#846 = DIRECTION('',(6.661338147751E-16,1.,-9.436895709314E-16));
#847 = DIRECTION('',(1.,-1.110223024625E-15,2.22044604925E-16));
#848 = ADVANCED_FACE('',(#849),#855,.F.);
#849 = FACE_BOUND('',#850,.F.);
#850 = EDGE_LOOP('',(#851,#852,#853,#854));
#851 = ORIENTED_EDGE('',*,*,#837,.T.);
#852 = ORIENTED_EDGE('',*,*,#401,.T.);
#853 = ORIENTED_EDGE('',*,*,#622,.F.);
#854 = ORIENTED_EDGE('',*,*,#248,.F.);
#855 = PLANE('',#856);
#856 = AXIS2_PLACEMENT_3D('',#857,#858,#859);
#857 = CARTESIAN_POINT('',(6.853553390598,2.449999999999,
    -1.198251855383E-15));
#858 = DIRECTION('',(-0.707106781189,0.707106781184,-9.813077866763E-16)
  );
#859 = DIRECTION('',(0.707106781184,0.707106781189,-6.280369834762E-16)
  );
#860 = ADVANCED_FACE('',(#861),#872,.F.);
#861 = FACE_BOUND('',#862,.F.);
#862 = EDGE_LOOP('',(#863,#864,#865,#871));
#863 = ORIENTED_EDGE('',*,*,#482,.T.);
#864 = ORIENTED_EDGE('',*,*,#426,.T.);
#865 = ORIENTED_EDGE('',*,*,#866,.F.);
#866 = EDGE_CURVE('',#274,#427,#867,.T.);
#867 = LINE('',#868,#869);
#868 = CARTESIAN_POINT('',(-7.5,3.096446609406,-5.103080857222E-15));
#869 = VECTOR('',#870,1.);
#870 = DIRECTION('',(-8.881784197001E-16,4.996003610813E-16,1.));
#871 = ORIENTED_EDGE('',*,*,#273,.F.);
#872 = PLANE('',#873);
#873 = AXIS2_PLACEMENT_3D('',#874,#875,#876);
#874 = CARTESIAN_POINT('',(-7.5,4.5,-6.661338147751E-15));
#875 = DIRECTION('',(1.,-8.881784197001E-16,4.440892098501E-16));
#876 = DIRECTION('',(-4.440892098501E-16,-1.,1.110223024625E-15));
#877 = ADVANCED_FACE('',(#878),#889,.T.);
#878 = FACE_BOUND('',#879,.T.);
#879 = EDGE_LOOP('',(#880,#886,#887,#888));
#880 = ORIENTED_EDGE('',*,*,#881,.T.);
#881 = EDGE_CURVE('',#282,#435,#882,.T.);
#882 = LINE('',#883,#884);
#883 = CARTESIAN_POINT('',(-6.853553390598,2.45,-4.24184096528E-15));
#884 = VECTOR('',#885,1.);
#885 = DIRECTION('',(-8.881784197001E-16,4.996003610813E-16,1.));
#886 = ORIENTED_EDGE('',*,*,#434,.T.);
#887 = ORIENTED_EDGE('',*,*,#866,.F.);
#888 = ORIENTED_EDGE('',*,*,#281,.F.);
#889 = PLANE('',#890);
#890 = AXIS2_PLACEMENT_3D('',#891,#892,#893);
#891 = CARTESIAN_POINT('',(-6.853553390598,2.45,-4.24184096528E-15));
#892 = DIRECTION('',(-0.707106781188,-0.707106781185,3.532708032013E-16)
  );
#893 = DIRECTION('',(-0.707106781185,0.707106781188,-9.420554752119E-16)
  );
#894 = ADVANCED_FACE('',(#895),#906,.T.);
#895 = FACE_BOUND('',#896,.T.);
#896 = EDGE_LOOP('',(#897,#903,#904,#905));
#897 = ORIENTED_EDGE('',*,*,#898,.T.);
#898 = EDGE_CURVE('',#290,#443,#899,.T.);
#899 = LINE('',#900,#901);
#900 = CARTESIAN_POINT('',(-5.7,2.449999999999,-3.985700658404E-15));
#901 = VECTOR('',#902,1.);
#902 = DIRECTION('',(-8.881784197001E-16,4.996003610813E-16,1.));
#903 = ORIENTED_EDGE('',*,*,#442,.T.);
#904 = ORIENTED_EDGE('',*,*,#881,.F.);
#905 = ORIENTED_EDGE('',*,*,#289,.F.);
#906 = PLANE('',#907);
#907 = AXIS2_PLACEMENT_3D('',#908,#909,#910);
#908 = CARTESIAN_POINT('',(-5.7,2.449999999999,-3.985700658404E-15));
#909 = DIRECTION('',(-5.300067508342E-13,-1.,9.436895709311E-16));
#910 = DIRECTION('',(-1.,5.30450840044E-13,-2.220446049256E-16));
#911 = ADVANCED_FACE('',(#912),#923,.F.);
#912 = FACE_BOUND('',#913,.F.);
#913 = EDGE_LOOP('',(#914,#915,#916,#922));
#914 = ORIENTED_EDGE('',*,*,#898,.T.);
#915 = ORIENTED_EDGE('',*,*,#450,.T.);
#916 = ORIENTED_EDGE('',*,*,#917,.F.);
#917 = EDGE_CURVE('',#298,#451,#918,.T.);
#918 = LINE('',#919,#920);
#919 = CARTESIAN_POINT('',(-5.7,1.449999999999,-2.875477633778E-15));
#920 = VECTOR('',#921,1.);
#921 = DIRECTION('',(-8.881784197001E-16,4.996003610813E-16,1.));
#922 = ORIENTED_EDGE('',*,*,#297,.F.);
#923 = PLANE('',#924);
#924 = AXIS2_PLACEMENT_3D('',#925,#926,#927);
#925 = CARTESIAN_POINT('',(-5.7,2.449999999999,-3.985700658404E-15));
#926 = DIRECTION('',(1.,-8.881784197001E-16,4.440892098501E-16));
#927 = DIRECTION('',(-4.440892098501E-16,-1.,1.110223024625E-15));
#928 = ADVANCED_FACE('',(#929),#940,.T.);
#929 = FACE_BOUND('',#930,.T.);
#930 = EDGE_LOOP('',(#931,#937,#938,#939));
#931 = ORIENTED_EDGE('',*,*,#932,.T.);
#932 = EDGE_CURVE('',#306,#459,#933,.T.);
#933 = LINE('',#934,#935);
#934 = CARTESIAN_POINT('',(-6.853553390598,1.45,-3.131617940654E-15));
#935 = VECTOR('',#936,1.);
#936 = DIRECTION('',(-8.881784197001E-16,4.996003610813E-16,1.));
#937 = ORIENTED_EDGE('',*,*,#458,.T.);
#938 = ORIENTED_EDGE('',*,*,#917,.F.);
#939 = ORIENTED_EDGE('',*,*,#305,.F.);
#940 = PLANE('',#941);
#941 = AXIS2_PLACEMENT_3D('',#942,#943,#944);
#942 = CARTESIAN_POINT('',(-6.853553390598,1.45,-3.131617940654E-15));
#943 = DIRECTION('',(4.632135893413E-13,1.,-9.436895709312E-16));
#944 = DIRECTION('',(1.,-4.636576785511E-13,2.220446049255E-16));
#945 = ADVANCED_FACE('',(#946),#952,.T.);
#946 = FACE_BOUND('',#947,.T.);
#947 = EDGE_LOOP('',(#948,#949,#950,#951));
#948 = ORIENTED_EDGE('',*,*,#639,.T.);
#949 = ORIENTED_EDGE('',*,*,#466,.T.);
#950 = ORIENTED_EDGE('',*,*,#932,.F.);
#951 = ORIENTED_EDGE('',*,*,#313,.F.);
#952 = PLANE('',#953);
#953 = AXIS2_PLACEMENT_3D('',#954,#955,#956);
#954 = CARTESIAN_POINT('',(-7.5,0.803553390593,-2.55745801269E-15));
#955 = DIRECTION('',(-0.707106781189,0.707106781184,-9.813077866762E-16)
  );
#956 = DIRECTION('',(0.707106781184,0.707106781189,-6.280369834766E-16)
  );
#957 = ADVANCED_FACE('',(#958),#977,.F.);
#958 = FACE_BOUND('',#959,.F.);
#959 = EDGE_LOOP('',(#960,#968,#975,#976));
#960 = ORIENTED_EDGE('',*,*,#961,.T.);
#961 = EDGE_CURVE('',#498,#962,#964,.T.);
#962 = VERTEX_POINT('',#963);
#963 = CARTESIAN_POINT('',(-3.,0.5,60.));
#964 = LINE('',#965,#966);
#965 = CARTESIAN_POINT('',(-3.,5.,60.));
#966 = VECTOR('',#967,1.);
#967 = DIRECTION('',(-6.661338147751E-16,-1.,9.436895709314E-16));
#968 = ORIENTED_EDGE('',*,*,#969,.T.);
#969 = EDGE_CURVE('',#962,#962,#970,.T.);
#970 = CIRCLE('',#971,3.);
#971 = AXIS2_PLACEMENT_3D('',#972,#973,#974);
#972 = CARTESIAN_POINT('',(-3.075317778212E-14,0.5,60.));
#973 = DIRECTION('',(8.881784197001E-16,1.,-7.216449660064E-16));
#974 = DIRECTION('',(-1.,8.881784197001E-16,-2.22044604925E-16));
#975 = ORIENTED_EDGE('',*,*,#961,.F.);
#976 = ORIENTED_EDGE('',*,*,#507,.F.);
#977 = CYLINDRICAL_SURFACE('',#978,3.);
#978 = AXIS2_PLACEMENT_3D('',#979,#980,#981);
#979 = CARTESIAN_POINT('',(-2.775557561563E-14,5.,60.));
#980 = DIRECTION('',(8.881784197001E-16,1.,-7.216449660064E-16));
#981 = DIRECTION('',(-1.,8.881784197001E-16,-2.22044604925E-16));
#982 = ADVANCED_FACE('',(#983),#1002,.F.);
#983 = FACE_BOUND('',#984,.F.);
#984 = EDGE_LOOP('',(#985,#993,#1000,#1001));
#985 = ORIENTED_EDGE('',*,*,#986,.T.);
#986 = EDGE_CURVE('',#523,#987,#989,.T.);
#987 = VERTEX_POINT('',#988);
#988 = CARTESIAN_POINT('',(-3.,0.5,100.));
#989 = LINE('',#990,#991);
#990 = CARTESIAN_POINT('',(-3.,5.,100.));
#991 = VECTOR('',#992,1.);
#992 = DIRECTION('',(-6.661338147751E-16,-1.,9.436895709314E-16));
#993 = ORIENTED_EDGE('',*,*,#994,.T.);
#994 = EDGE_CURVE('',#987,#987,#995,.T.);
#995 = CIRCLE('',#996,3.);
#996 = AXIS2_PLACEMENT_3D('',#997,#998,#999);
#997 = CARTESIAN_POINT('',(-4.851674617612E-14,0.5,100.));
#998 = DIRECTION('',(8.881784197001E-16,1.,-7.216449660064E-16));
#999 = DIRECTION('',(-1.,8.881784197001E-16,-2.22044604925E-16));
#1000 = ORIENTED_EDGE('',*,*,#986,.F.);
#1001 = ORIENTED_EDGE('',*,*,#532,.F.);
#1002 = CYLINDRICAL_SURFACE('',#1003,3.);
#1003 = AXIS2_PLACEMENT_3D('',#1004,#1005,#1006);
#1004 = CARTESIAN_POINT('',(-4.551914400963E-14,5.,100.));
#1005 = DIRECTION('',(8.881784197001E-16,1.,-7.216449660064E-16));
#1006 = DIRECTION('',(-1.,8.881784197001E-16,-2.22044604925E-16));
#1007 = ADVANCED_FACE('',(#1008),#1027,.F.);
#1008 = FACE_BOUND('',#1009,.F.);
#1009 = EDGE_LOOP('',(#1010,#1018,#1025,#1026));
#1010 = ORIENTED_EDGE('',*,*,#1011,.T.);
#1011 = EDGE_CURVE('',#548,#1012,#1014,.T.);
#1012 = VERTEX_POINT('',#1013);
#1013 = CARTESIAN_POINT('',(-3.,0.5,140.));
#1014 = LINE('',#1015,#1016);
#1015 = CARTESIAN_POINT('',(-3.,5.,140.));
#1016 = VECTOR('',#1017,1.);
#1017 = DIRECTION('',(-6.661338147751E-16,-1.,9.436895709314E-16));
#1018 = ORIENTED_EDGE('',*,*,#1019,.T.);
#1019 = EDGE_CURVE('',#1012,#1012,#1020,.T.);
#1020 = CIRCLE('',#1021,3.);
#1021 = AXIS2_PLACEMENT_3D('',#1022,#1023,#1024);
#1022 = CARTESIAN_POINT('',(-6.628031457012E-14,0.5,140.));
#1023 = DIRECTION('',(8.881784197001E-16,1.,-7.216449660064E-16));
#1024 = DIRECTION('',(-1.,8.881784197001E-16,-2.22044604925E-16));
#1025 = ORIENTED_EDGE('',*,*,#1011,.F.);
#1026 = ORIENTED_EDGE('',*,*,#557,.F.);
#1027 = CYLINDRICAL_SURFACE('',#1028,3.);
#1028 = AXIS2_PLACEMENT_3D('',#1029,#1030,#1031);
#1029 = CARTESIAN_POINT('',(-6.328271240363E-14,5.,140.));
#1030 = DIRECTION('',(8.881784197001E-16,1.,-7.216449660064E-16));
#1031 = DIRECTION('',(-1.,8.881784197001E-16,-2.22044604925E-16));
#1032 = ADVANCED_FACE('',(#1033),#1052,.F.);
#1033 = FACE_BOUND('',#1034,.F.);
#1034 = EDGE_LOOP('',(#1035,#1043,#1050,#1051));
#1035 = ORIENTED_EDGE('',*,*,#1036,.T.);
#1036 = EDGE_CURVE('',#573,#1037,#1039,.T.);
#1037 = VERTEX_POINT('',#1038);
#1038 = CARTESIAN_POINT('',(-3.,0.5,180.));
#1039 = LINE('',#1040,#1041);
#1040 = CARTESIAN_POINT('',(-3.,5.,180.));
#1041 = VECTOR('',#1042,1.);
#1042 = DIRECTION('',(-6.661338147751E-16,-1.,9.436895709314E-16));
#1043 = ORIENTED_EDGE('',*,*,#1044,.T.);
#1044 = EDGE_CURVE('',#1037,#1037,#1045,.T.);
#1045 = CIRCLE('',#1046,3.);
#1046 = AXIS2_PLACEMENT_3D('',#1047,#1048,#1049);
#1047 = CARTESIAN_POINT('',(-8.404388296412E-14,0.5,180.));
#1048 = DIRECTION('',(8.881784197001E-16,1.,-7.216449660064E-16));
#1049 = DIRECTION('',(-1.,8.881784197001E-16,-2.22044604925E-16));
#1050 = ORIENTED_EDGE('',*,*,#1036,.F.);
#1051 = ORIENTED_EDGE('',*,*,#582,.F.);
#1052 = CYLINDRICAL_SURFACE('',#1053,3.);
#1053 = AXIS2_PLACEMENT_3D('',#1054,#1055,#1056);
#1054 = CARTESIAN_POINT('',(-8.104628079764E-14,5.,180.));
#1055 = DIRECTION('',(8.881784197001E-16,1.,-7.216449660064E-16));
#1056 = DIRECTION('',(-1.,8.881784197001E-16,-2.22044604925E-16));
#1057 = ADVANCED_FACE('',(#1058,#1061),#1072,.T.);
#1058 = FACE_BOUND('',#1059,.T.);
#1059 = EDGE_LOOP('',(#1060));
#1060 = ORIENTED_EDGE('',*,*,#605,.T.);
#1061 = FACE_BOUND('',#1062,.T.);
#1062 = EDGE_LOOP('',(#1063));
#1063 = ORIENTED_EDGE('',*,*,#1064,.F.);
#1064 = EDGE_CURVE('',#1065,#1065,#1067,.T.);
#1065 = VERTEX_POINT('',#1066);
#1066 = CARTESIAN_POINT('',(-1.75,0.5,20.));
#1067 = CIRCLE('',#1068,1.75);
#1068 = AXIS2_PLACEMENT_3D('',#1069,#1070,#1071);
#1069 = CARTESIAN_POINT('',(-1.398881011028E-14,0.5,20.));
#1070 = DIRECTION('',(8.881784197001E-16,1.,-7.216449660064E-16));
#1071 = DIRECTION('',(-1.,8.881784197001E-16,-2.22044604925E-16));
#1072 = PLANE('',#1073);
#1073 = AXIS2_PLACEMENT_3D('',#1074,#1075,#1076);
#1074 = CARTESIAN_POINT('',(-1.273732477858E-14,0.5,20.));
#1075 = DIRECTION('',(7.894919286223E-16,1.,-9.057646711947E-16));
#1076 = DIRECTION('',(1.,-1.011536533547E-15,1.753024233824E-31));
#1077 = ADVANCED_FACE('',(#1078),#1089,.F.);
#1078 = FACE_BOUND('',#1079,.F.);
#1079 = EDGE_LOOP('',(#1080,#1081,#1087,#1088));
#1080 = ORIENTED_EDGE('',*,*,#1064,.F.);
#1081 = ORIENTED_EDGE('',*,*,#1082,.T.);
#1082 = EDGE_CURVE('',#1065,#690,#1083,.T.);
#1083 = LINE('',#1084,#1085);
#1084 = CARTESIAN_POINT('',(-1.75,5.,20.));
#1085 = VECTOR('',#1086,1.);
#1086 = DIRECTION('',(-6.661338147751E-16,-1.,9.436895709314E-16));
#1087 = ORIENTED_EDGE('',*,*,#689,.T.);
#1088 = ORIENTED_EDGE('',*,*,#1082,.F.);
#1089 = CYLINDRICAL_SURFACE('',#1090,1.75);
#1090 = AXIS2_PLACEMENT_3D('',#1091,#1092,#1093);
#1091 = CARTESIAN_POINT('',(-9.992007221626E-15,5.,20.));
#1092 = DIRECTION('',(8.881784197001E-16,1.,-7.216449660064E-16));
#1093 = DIRECTION('',(-1.,1.110223024625E-15,-2.22044604925E-16));
#1094 = ADVANCED_FACE('',(#1095),#1114,.F.);
#1095 = FACE_BOUND('',#1096,.F.);
#1096 = EDGE_LOOP('',(#1097,#1106,#1112,#1113));
#1097 = ORIENTED_EDGE('',*,*,#1098,.F.);
#1098 = EDGE_CURVE('',#1099,#1099,#1101,.T.);
#1099 = VERTEX_POINT('',#1100);
#1100 = CARTESIAN_POINT('',(-1.75,0.5,60.));
#1101 = CIRCLE('',#1102,1.75);
#1102 = AXIS2_PLACEMENT_3D('',#1103,#1104,#1105);
#1103 = CARTESIAN_POINT('',(-4.063416270128E-14,0.5,60.));
#1104 = DIRECTION('',(8.881784197001E-16,1.,-7.216449660064E-16));
#1105 = DIRECTION('',(-1.,8.881784197001E-16,-2.22044604925E-16));
#1106 = ORIENTED_EDGE('',*,*,#1107,.T.);
#1107 = EDGE_CURVE('',#1099,#701,#1108,.T.);
#1108 = LINE('',#1109,#1110);
#1109 = CARTESIAN_POINT('',(-1.75,5.,60.));
#1110 = VECTOR('',#1111,1.);
#1111 = DIRECTION('',(-6.661338147751E-16,-1.,9.436895709314E-16));
#1112 = ORIENTED_EDGE('',*,*,#700,.T.);
#1113 = ORIENTED_EDGE('',*,*,#1107,.F.);
#1114 = CYLINDRICAL_SURFACE('',#1115,1.75);
#1115 = AXIS2_PLACEMENT_3D('',#1116,#1117,#1118);
#1116 = CARTESIAN_POINT('',(-3.663735981263E-14,5.,60.));
#1117 = DIRECTION('',(8.881784197001E-16,1.,-7.216449660064E-16));
#1118 = DIRECTION('',(-1.,1.110223024625E-15,-2.22044604925E-16));
#1119 = ADVANCED_FACE('',(#1120),#1139,.F.);
#1120 = FACE_BOUND('',#1121,.F.);
#1121 = EDGE_LOOP('',(#1122,#1131,#1137,#1138));
#1122 = ORIENTED_EDGE('',*,*,#1123,.F.);
#1123 = EDGE_CURVE('',#1124,#1124,#1126,.T.);
#1124 = VERTEX_POINT('',#1125);
#1125 = CARTESIAN_POINT('',(-1.75,0.5,180.));
#1126 = CIRCLE('',#1127,1.75);
#1127 = AXIS2_PLACEMENT_3D('',#1128,#1129,#1130);
#1128 = CARTESIAN_POINT('',(-1.205702204743E-13,0.5,180.));
#1129 = DIRECTION('',(8.881784197001E-16,1.,-7.216449660064E-16));
#1130 = DIRECTION('',(-1.,8.881784197001E-16,-2.22044604925E-16));
#1131 = ORIENTED_EDGE('',*,*,#1132,.T.);
#1132 = EDGE_CURVE('',#1124,#712,#1133,.T.);
#1133 = LINE('',#1134,#1135);
#1134 = CARTESIAN_POINT('',(-1.75,5.,180.));
#1135 = VECTOR('',#1136,1.);
#1136 = DIRECTION('',(-6.661338147751E-16,-1.,9.436895709314E-16));
#1137 = ORIENTED_EDGE('',*,*,#711,.T.);
#1138 = ORIENTED_EDGE('',*,*,#1132,.F.);
#1139 = CYLINDRICAL_SURFACE('',#1140,1.75);
#1140 = AXIS2_PLACEMENT_3D('',#1141,#1142,#1143);
#1141 = CARTESIAN_POINT('',(-1.165734175856E-13,5.,180.));
#1142 = DIRECTION('',(8.881784197001E-16,1.,-7.216449660064E-16));
#1143 = DIRECTION('',(-1.,1.110223024625E-15,-2.22044604925E-16));
#1144 = ADVANCED_FACE('',(#1145),#1164,.F.);
#1145 = FACE_BOUND('',#1146,.F.);
#1146 = EDGE_LOOP('',(#1147,#1156,#1162,#1163));
#1147 = ORIENTED_EDGE('',*,*,#1148,.F.);
#1148 = EDGE_CURVE('',#1149,#1149,#1151,.T.);
#1149 = VERTEX_POINT('',#1150);
#1150 = CARTESIAN_POINT('',(-1.75,0.5,140.));
#1151 = CIRCLE('',#1152,1.75);
#1152 = AXIS2_PLACEMENT_3D('',#1153,#1154,#1155);
#1153 = CARTESIAN_POINT('',(-9.392486788329E-14,0.5,140.));
#1154 = DIRECTION('',(8.881784197001E-16,1.,-7.216449660064E-16));
#1155 = DIRECTION('',(-1.,8.881784197001E-16,-2.22044604925E-16));
#1156 = ORIENTED_EDGE('',*,*,#1157,.T.);
#1157 = EDGE_CURVE('',#1149,#723,#1158,.T.);
#1158 = LINE('',#1159,#1160);
#1159 = CARTESIAN_POINT('',(-1.75,5.,140.));
#1160 = VECTOR('',#1161,1.);
#1161 = DIRECTION('',(-6.661338147751E-16,-1.,9.436895709314E-16));
#1162 = ORIENTED_EDGE('',*,*,#722,.T.);
#1163 = ORIENTED_EDGE('',*,*,#1157,.F.);
#1164 = CYLINDRICAL_SURFACE('',#1165,1.75);
#1165 = AXIS2_PLACEMENT_3D('',#1166,#1167,#1168);
#1166 = CARTESIAN_POINT('',(-8.992806499464E-14,5.,140.));
#1167 = DIRECTION('',(8.881784197001E-16,1.,-7.216449660064E-16));
#1168 = DIRECTION('',(-1.,1.110223024625E-15,-2.22044604925E-16));
#1169 = ADVANCED_FACE('',(#1170),#1189,.F.);
#1170 = FACE_BOUND('',#1171,.F.);
#1171 = EDGE_LOOP('',(#1172,#1181,#1187,#1188));
#1172 = ORIENTED_EDGE('',*,*,#1173,.F.);
#1173 = EDGE_CURVE('',#1174,#1174,#1176,.T.);
#1174 = VERTEX_POINT('',#1175);
#1175 = CARTESIAN_POINT('',(-1.75,0.5,100.));
#1176 = CIRCLE('',#1177,1.75);
#1177 = AXIS2_PLACEMENT_3D('',#1178,#1179,#1180);
#1178 = CARTESIAN_POINT('',(-6.727951529228E-14,0.5,100.));
#1179 = DIRECTION('',(8.881784197001E-16,1.,-7.216449660064E-16));
#1180 = DIRECTION('',(-1.,8.881784197001E-16,-2.22044604925E-16));
#1181 = ORIENTED_EDGE('',*,*,#1182,.T.);
#1182 = EDGE_CURVE('',#1174,#734,#1183,.T.);
#1183 = LINE('',#1184,#1185);
#1184 = CARTESIAN_POINT('',(-1.75,5.,100.));
#1185 = VECTOR('',#1186,1.);
#1186 = DIRECTION('',(-6.661338147751E-16,-1.,9.436895709314E-16));
#1187 = ORIENTED_EDGE('',*,*,#733,.T.);
#1188 = ORIENTED_EDGE('',*,*,#1182,.F.);
#1189 = CYLINDRICAL_SURFACE('',#1190,1.75);
#1190 = AXIS2_PLACEMENT_3D('',#1191,#1192,#1193);
#1191 = CARTESIAN_POINT('',(-6.328271240363E-14,5.,100.));
#1192 = DIRECTION('',(8.881784197001E-16,1.,-7.216449660064E-16));
#1193 = DIRECTION('',(-1.,1.110223024625E-15,-2.22044604925E-16));
#1194 = ADVANCED_FACE('',(#1195,#1198),#1201,.T.);
#1195 = FACE_BOUND('',#1196,.T.);
#1196 = EDGE_LOOP('',(#1197));
#1197 = ORIENTED_EDGE('',*,*,#969,.T.);
#1198 = FACE_BOUND('',#1199,.T.);
#1199 = EDGE_LOOP('',(#1200));
#1200 = ORIENTED_EDGE('',*,*,#1098,.F.);
#1201 = PLANE('',#1202);
#1202 = AXIS2_PLACEMENT_3D('',#1203,#1204,#1205);
#1203 = CARTESIAN_POINT('',(-3.050089317258E-14,0.5,60.));
#1204 = DIRECTION('',(7.894919286223E-16,1.,-9.057646711947E-16));
#1205 = DIRECTION('',(1.,-1.011536533547E-15,1.753024233824E-31));
#1206 = ADVANCED_FACE('',(#1207,#1210),#1213,.T.);
#1207 = FACE_BOUND('',#1208,.T.);
#1208 = EDGE_LOOP('',(#1209));
#1209 = ORIENTED_EDGE('',*,*,#994,.T.);
#1210 = FACE_BOUND('',#1211,.T.);
#1211 = EDGE_LOOP('',(#1212));
#1212 = ORIENTED_EDGE('',*,*,#1173,.F.);
#1213 = PLANE('',#1214);
#1214 = AXIS2_PLACEMENT_3D('',#1215,#1216,#1217);
#1215 = CARTESIAN_POINT('',(-4.826446156658E-14,0.5,100.));
#1216 = DIRECTION('',(7.894919286223E-16,1.,-9.057646711947E-16));
#1217 = DIRECTION('',(1.,-1.011536533547E-15,1.753024233824E-31));
#1218 = ADVANCED_FACE('',(#1219,#1222),#1225,.T.);
#1219 = FACE_BOUND('',#1220,.T.);
#1220 = EDGE_LOOP('',(#1221));
#1221 = ORIENTED_EDGE('',*,*,#1019,.T.);
#1222 = FACE_BOUND('',#1223,.T.);
#1223 = EDGE_LOOP('',(#1224));
#1224 = ORIENTED_EDGE('',*,*,#1148,.F.);
#1225 = PLANE('',#1226);
#1226 = AXIS2_PLACEMENT_3D('',#1227,#1228,#1229);
#1227 = CARTESIAN_POINT('',(-6.602802996059E-14,0.5,140.));
#1228 = DIRECTION('',(7.894919286223E-16,1.,-9.057646711947E-16));
#1229 = DIRECTION('',(1.,-1.011536533547E-15,1.753024233824E-31));
#1230 = ADVANCED_FACE('',(#1231,#1234),#1237,.T.);
#1231 = FACE_BOUND('',#1232,.T.);
#1232 = EDGE_LOOP('',(#1233));
#1233 = ORIENTED_EDGE('',*,*,#1044,.T.);
#1234 = FACE_BOUND('',#1235,.T.);
#1235 = EDGE_LOOP('',(#1236));
#1236 = ORIENTED_EDGE('',*,*,#1123,.F.);
#1237 = PLANE('',#1238);
#1238 = AXIS2_PLACEMENT_3D('',#1239,#1240,#1241);
#1239 = CARTESIAN_POINT('',(-8.379159835459E-14,0.5,180.));
#1240 = DIRECTION('',(7.894919286223E-16,1.,-9.057646711947E-16));
#1241 = DIRECTION('',(1.,-1.011536533547E-15,1.753024233824E-31));
#1242 = ( GEOMETRIC_REPRESENTATION_CONTEXT(3) 
GLOBAL_UNCERTAINTY_ASSIGNED_CONTEXT((#1246)) 
GLOBAL_UNIT_ASSIGNED_CONTEXT((#1243,#1244,#1245)) REPRESENTATION_CONTEXT
('Context #1','3D Context with UNIT and UNCERTAINTY') );
#1243 = ( LENGTH_UNIT() NAMED_UNIT(*) SI_UNIT(.MILLI.,.METRE.) );
#1244 = ( NAMED_UNIT(*) PLANE_ANGLE_UNIT() SI_UNIT($,.RADIAN.) );
#1245 = ( NAMED_UNIT(*) SI_UNIT($,.STERADIAN.) SOLID_ANGLE_UNIT() );
#1246 = UNCERTAINTY_MEASURE_WITH_UNIT(LENGTH_MEASURE(1.E-07),#1243,
  'distance_accuracy_value','confusion accuracy');
#1247 = PRODUCT_RELATED_PRODUCT_CATEGORY('part',$,(#7));
#1248 = MECHANICAL_DESIGN_GEOMETRIC_PRESENTATION_REPRESENTATION('',(
    #1249),#1242);
#1249 = STYLED_ITEM('color',(#1250),#15);
#1250 = PRESENTATION_STYLE_ASSIGNMENT((#1251,#1257));
#1251 = SURFACE_STYLE_USAGE(.BOTH.,#1252);
#1252 = SURFACE_SIDE_STYLE('',(#1253));
#1253 = SURFACE_STYLE_FILL_AREA(#1254);
#1254 = FILL_AREA_STYLE('',(#1255));
#1255 = FILL_AREA_STYLE_COLOUR('',#1256);
#1256 = COLOUR_RGB('',0.713725507259,0.713725507259,0.713725507259);
#1257 = CURVE_STYLE('',#1258,POSITIVE_LENGTH_MEASURE(0.1),#1259);
#1258 = DRAUGHTING_PRE_DEFINED_CURVE_FONT('continuous');
#1259 = DRAUGHTING_PRE_DEFINED_COLOUR('black');
ENDSEC;
END-ISO-10303-21;
